%!PS-Adobe-3.0 EPSF-3.0
%%BoundingBox: 1 1 9 9 
%%HiResBoundingBox: 1.13826 1.5524 8.7309 8.58578 
%%Creator: MetaPost 1.504
%%CreationDate: 2011.07.24:0826
%%Pages: 1
%%BeginProlog
%%EndProlog
%%Page: 1 1
 0 0 0 setrgbcolor 0 0.64816 dtransform truncate idtransform setlinewidth pop [] 0 setdash 0 setlinecap
 0 setlinejoin 10 setmiterlimit
newpath 4.60547 4.73438 moveto
4.7461 4.59375 4.48828 4.46875 4.375 4.49219 curveto
4.0664 4.5586 4.01172 4.96094 4.1289 5.20313 curveto
4.34766 5.64063 4.91797 5.69922 5.29688 5.45703 curveto
5.85156 5.10156 5.91406 4.3164 5.55469 3.79688 curveto
5.07422 3.10547 4.09375 3.03906 3.44922 3.53125 curveto
2.64063 4.14844 2.57422 5.35547 3.17969 6.14063 curveto
3.91797 7.09375 5.3164 7.16797 6.22266 6.42188 curveto
7.28516 5.54688 7.35938 3.91016 6.5039 2.85938 curveto
5.51172 1.64453 3.6914 1.5664 2.52734 2.5664 curveto
1.20313 3.69922 1.125 5.76563 2.23047 7.07813 curveto
3.47656 8.55469 5.72266 8.64063 7.14453 7.38672 curveto
8.72656 5.9961 8.8125 3.4961 7.45313 1.92188 curveto stroke
showpage
%%EOF
