
 *File List*
monofill.sty  2012/10/29  v0.2   monospace alignment (UL)
monofill.tex  2012/10/29   --    documenting monofill.sty
monofill.RLS  2012/10/29  v0.2   \MFotherspace
srcfiles.tex  2012/10/30   --    file infos -> SrcFILEs.txt
 ***********

 List made at 2012/10/30, 21:30
 from script file srcfiles.tex

