StartFontMetrics 2.0
Comment Generated by FontForge 20190801
Comment Creation Date: Mon Mar  9 15:28:00 2020
FontName NCXFourierMI
FullName NCXFourier Math Italic
FamilyName NCXFourierMath
Weight Regular
Notice (Copyright (C) 2003-2004 GUTenberg)
Comment Modifications and additions are Copyright (c) 2019--2020, Michael Sharpe
ItalicAngle -15
IsFixedPitch false
UnderlinePosition -100
UnderlineThickness 50
Version 001.000
EncodingScheme FontSpecific
FontBBox -342 -232 847 756
StartCharMetrics 65
C 0 ; WX 267 ; N degree ; B 34 409 233 610 ;
C 1 ; WX 531 ; N uni019B ; B 22 -12 524 698 ;
C 2 ; WX 604 ; N uni01B5 ; B 41 -2 578 653 ;
C 3 ; WX 392 ; N uni0300 ; B 96 538 254 701 ;
C 4 ; WX 341 ; N uni0301 ; B 88 543 248 705 ;
C 5 ; WX 349 ; N uni0302 ; B 51 525 303 684 ;
C 6 ; WX 292 ; N uni0303 ; B 5 568 283 674 ;
C 7 ; WX 0 ; N uni0304 ; B -342 535 -81 585 ;
C 8 ; WX 317 ; N uni0306 ; B 21 529 291 676 ;
C 9 ; WX 291 ; N uni0307 ; B 96 547 196 647 ;
C 10 ; WX 299 ; N uni0308 ; B 18 548 281 643 ;
C 11 ; WX 361 ; N uni030A ; B 93 586 269 756 ;
C 12 ; WX 349 ; N uni030C ; B 48 518 301 661 ;
C 13 ; WX 429 ; N uni03F6 ; B 29 -10 431 466 ;
C 14 ; WX 468 ; N uni20DB ; B 18 546 450 641 ;
C 15 ; WX 637 ; N uni20DC ; B 18 526 619 621 ;
C 16 ; WX 517 ; N uni2107 ; B 38 -12 475 658 ;
C 18 ; WX 417 ; N uni2113 ; B 15 -11 432 677 ;
C 19 ; WX 697 ; N uni2126 ; B 44 0 653 658 ;
C 20 ; WX 697 ; N uni2127 ; B 44 -7 653 651 ;
C 74 ; WX 683 ; N u1D6E5 ; B 43 0 628 672 ;
C 75 ; WX 705 ; N u1D6E9 ; B 42 -10 705 684 ;
C 76 ; WX 724 ; N u1D6EC ; B 43 0 680 672 ;
C 77 ; WX 781 ; N u1D6EF ; B 46 0 788 671 ;
C 78 ; WX 832 ; N u1D6F1 ; B 40 0 847 671 ;
C 79 ; WX 698 ; N u1D6F4 ; B 30 0 704 671 ;
C 80 ; WX 698 ; N u1D6F6 ; B 77 0 712 683 ;
C 81 ; WX 714 ; N u1D6F7 ; B 54 0 713 671 ;
C 82 ; WX 813 ; N u1D6F9 ; B 94 0 810 681 ;
C 83 ; WX 805 ; N u1D6FA ; B 37 0 795 683 ;
C 84 ; WX 683 ; N u1D6FB ; B 160 0 685 672 ;
C 85 ; WX 650 ; N u1D6FC ; B 80 -11 640 467 ;
C 86 ; WX 610 ; N u1D6FD ; B 24 -225 607 690 ;
C 87 ; WX 554 ; N u1D6FE ; B 35 -232 570 469 ;
C 88 ; WX 549 ; N u1D6FF ; B 40 -11 562 698 ;
C 89 ; WX 479 ; N u1D700 ; B 40 -11 473 467 ;
C 90 ; WX 467 ; N u1D701 ; B 32 -170 486 692 ;
C 91 ; WX 537 ; N u1D702 ; B 43 -225 521 467 ;
C 92 ; WX 516 ; N u1D703 ; B 41 -12 521 690 ;
C 93 ; WX 274 ; N u1D704 ; B 50 -11 255 467 ;
C 94 ; WX 573 ; N u1D705 ; B 51 0 568 467 ;
C 95 ; WX 601 ; N u1D706 ; B 32 -11 581 689 ;
C 96 ; WX 598 ; N u1D707 ; B 14 -225 590 467 ;
C 97 ; WX 552 ; N u1D708 ; B 59 1 556 467 ;
C 98 ; WX 477 ; N u1D709 ; B 46 -170 487 691 ;
C 99 ; WX 606 ; N u1D70B ; B 34 -11 609 467 ;
C 100 ; WX 550 ; N u1D70C ; B 32 -226 550 467 ;
C 101 ; WX 512 ; N u1D70D ; B 53 -170 507 467 ;
C 102 ; WX 646 ; N u1D70E ; B 47 -11 647 466 ;
C 103 ; WX 513 ; N u1D70F ; B 64 -11 499 467 ;
C 104 ; WX 514 ; N u1D710 ; B 43 -11 513 471 ;
C 105 ; WX 667 ; N u1D711 ; B 52 -225 653 467 ;
C 106 ; WX 583 ; N u1D712 ; B 14 -225 581 467 ;
C 107 ; WX 734 ; N u1D713 ; B 46 -225 741 525 ;
C 108 ; WX 681 ; N u1D714 ; B 37 -9 655 467 ;
C 109 ; WX 511 ; N u1D715 ; B 42 -9 513 692 ;
C 110 ; WX 429 ; N u1D716 ; B 29 -10 431 466 ;
C 111 ; WX 596 ; N u1D717 ; B 46 -11 598 690 ;
C 112 ; WX 526 ; N u1D718 ; B 16 -10 490 460 ;
C 113 ; WX 645 ; N u1D719 ; B 45 -225 641 644 ;
C 114 ; WX 556 ; N u1D71A ; B 35 -225 538 467 ;
C 115 ; WX 712 ; N u1D71B ; B 53 -11 694 553 ;
C 116 ; WX 601 ; N uni019B.alt ; B 32 -11 581 689 ;
C 120 ; WX 601 ; N uni019B.ital ; B 32 -11 581 689 ;
C 137 ; WX 705 ; N u1D6E4 ; B 32 0 708 672 ;
EndCharMetrics
EndFontMetrics
