StartFontMetrics 2.0
Comment Generated by FontForge 20190801
Comment Creation Date: Mon Mar  9 15:24:20 2020
FontName NCXFourierBMI
FullName NCXFourier Bold Math Italic
FamilyName NCXFourierMath
Weight Bold
Notice (Copyright (C) 2003-2004 GUTenberg)
Comment Modifications and additions are Copyright (c) 2019--2020, Michael Sharpe
ItalicAngle -15
IsFixedPitch false
UnderlinePosition -100
UnderlineThickness 50
Version 001.000
EncodingScheme FontSpecific
FontBBox 5 -230 933 698
StartCharMetrics 48
C 4 ; WX 601 ; N uni019B.ital ; B 32 -11 581 689 ;
C 19 ; WX 575 ; N uni2113 ; B 38 -11 534 693 ;
C 20 ; WX 697 ; N uni2126 ; B 44 0 653 658 ;
C 21 ; WX 697 ; N uni2127 ; B 44 -7 653 651 ;
C 23 ; WX 743 ; N u1D71E ; B 40 0 753 671 ;
C 24 ; WX 721 ; N u1D71F ; B 41 0 680 672 ;
C 25 ; WX 749 ; N u1D723 ; B 43 -15 740 686 ;
C 26 ; WX 719 ; N u1D726 ; B 43 0 697 671 ;
C 27 ; WX 783 ; N u1D729 ; B 32 0 798 671 ;
C 28 ; WX 918 ; N u1D72B ; B 48 0 933 671 ;
C 29 ; WX 773 ; N u1D72E ; B 44 0 772 671 ;
C 30 ; WX 734 ; N u1D730 ; B 75 0 732 685 ;
C 31 ; WX 763 ; N u1D731 ; B 53 0 753 671 ;
C 32 ; WX 816 ; N u1D733 ; B 89 0 829 686 ;
C 33 ; WX 854 ; N u1D734 ; B 38 0 844 683 ;
C 34 ; WX 720 ; N u1D736 ; B 91 -11 704 470 ;
C 35 ; WX 644 ; N u1D737 ; B 24 -225 640 690 ;
C 36 ; WX 643 ; N u1D738 ; B 34 -230 637 471 ;
C 37 ; WX 596 ; N u1D739 ; B 41 -11 610 698 ;
C 38 ; WX 510 ; N u1D750 ; B 45 -11 517 475 ;
C 39 ; WX 530 ; N u1D73B ; B 36 -170 548 697 ;
C 40 ; WX 599 ; N u1D73C ; B 59 -222 585 470 ;
C 41 ; WX 562 ; N u1D73D ; B 41 -12 567 690 ;
C 42 ; WX 338 ; N u1D73E ; B 38 -11 306 467 ;
C 43 ; WX 676 ; N u1D73F ; B 64 0 665 466 ;
C 44 ; WX 698 ; N u1D740 ; B 33 -11 678 690 ;
C 45 ; WX 668 ; N u1D741 ; B 18 -225 647 467 ;
C 46 ; WX 598 ; N u1D742 ; B 53 1 603 471 ;
C 47 ; WX 519 ; N u1D743 ; B 38 -174 531 695 ;
C 48 ; WX 740 ; N u1D745 ; B 34 -12 732 471 ;
C 49 ; WX 609 ; N u1D746 ; B 17 -226 599 467 ;
C 50 ; WX 692 ; N u1D748 ; B 44 -11 686 469 ;
C 51 ; WX 584 ; N u1D749 ; B 62 -11 584 470 ;
C 52 ; WX 581 ; N u1D74A ; B 49 -11 581 472 ;
C 53 ; WX 718 ; N u1D753 ; B 53 -225 700 654 ;
C 54 ; WX 651 ; N u1D74C ; B 14 -224 650 467 ;
C 55 ; WX 876 ; N u1D74D ; B 75 -225 875 536 ;
C 56 ; WX 746 ; N u1D74E ; B 40 -9 722 467 ;
C 57 ; WX 517 ; N u1D73A ; B 44 -11 510 467 ;
C 58 ; WX 630 ; N u1D751 ; B 54 -11 624 690 ;
C 59 ; WX 749 ; N u1D755 ; B 43 -9 734 559 ;
C 60 ; WX 616 ; N u1D754 ; B 45 -223 594 472 ;
C 61 ; WX 549 ; N u1D747 ; B 53 -170 545 467 ;
C 62 ; WX 739 ; N u1D74B ; B 50 -225 724 464 ;
C 63 ; WX 702 ; N u1D735 ; B 156 0 756 672 ;
C 64 ; WX 558 ; N u1D74F ; B 44 -9 555 692 ;
C 65 ; WX 601 ; N uni019B.alt ; B 32 -11 581 689 ;
C 68 ; WX 550 ; N u1D752 ; B 5 -13 537 472 ;
EndCharMetrics
EndFontMetrics
