StartFontMetrics 2.0
Comment Generated by pfaedit
Comment Creation Date: Sat May  7 01:57:22 2005
FontName CMRoman-RegularSC
FullName Computer Modern Roman Regular Small Caps
FamilyName CM Roman
Weight Regular
Notice (Converted by Alexej Kryukov from METAFONT sources. )
Comment 
Comment This font is subject to the GNU General Public License as published by the Free Software Foundation; either version 2 of the License, or (at your option) any later version.
Comment 
Comment This font is distributed in the hope that it will be useful, but WITHOUT ANY WARRANTY; without even the implied warranty of MERCHANTABILITY or FITNESS FOR A PARTICULAR PURPOSE.  See the GNU General Pu
Comment blic License for more details.
ItalicAngle 0
IsFixedPitch false
UnderlinePosition -100
UnderlineThickness 50
Version 001.001
EncodingScheme FontSpecific
FontBBox 0 -272 1495 937
CapHeight 684
XHeight 515
Ascender 515
Descender 1
StartCharMetrics 239
C 0 ; WX 302 ; N .notdef ; B 0 0 0 0 ;
C 32 ; WX 302 ; N space ; B 0 0 0 0 ;
C 33 ; WX 319 ; N exclam ; B 105 1 213 717 ;
C 34 ; WX 553 ; N quotedbl ; B 141 348 411 712 ;
C 35 ; WX 903 ; N numbersign ; B 73 -193 829 695 ;
C 36 ; WX 553 ; N dollar ; B 71 -55 481 751 ;
C 37 ; WX 903 ; N percent ; B 71 -56 830 751 ;
C 38 ; WX 844 ; N ampersand ; B 57 -23 777 718 ;
C 39 ; WX 319 ; N quoteright ; B 106 395 228 696 ;
C 40 ; WX 436 ; N parenleft ; B 119 -249 363 751 ;
C 41 ; WX 436 ; N parenright ; B 73 -250 316 751 ;
C 42 ; WX 553 ; N asterisk ; B 83 321 469 751 ;
C 43 ; WX 844 ; N plus ; B 73 -99 770 601 ;
C 44 ; WX 319 ; N comma ; B 105 -193 224 108 ;
C 45 ; WX 378 ; N hyphen ; B 26 186 305 245 ;
C 46 ; WX 319 ; N period ; B 106 1 212 107 ;
C 47 ; WX 553 ; N slash ; B 72 -249 480 751 ;
C 48 ; WX 500 ; N zero ; B 39 -22 460 453 ;
C 49 ; WX 500 ; N one ; B 90 1 420 454 ;
C 50 ; WX 500 ; N two ; B 43 1 450 454 ;
C 51 ; WX 500 ; N three ; B 41 -215 458 453 ;
C 52 ; WX 500 ; N four ; B 27 -193 471 465 ;
C 53 ; WX 500 ; N five ; B 50 -215 450 452 ;
C 54 ; WX 500 ; N six ; B 41 -21 457 667 ;
C 55 ; WX 500 ; N seven ; B 55 -216 486 463 ;
C 56 ; WX 500 ; N eight ; B 41 -22 457 667 ;
C 57 ; WX 500 ; N nine ; B 41 -216 458 454 ;
C 58 ; WX 319 ; N colon ; B 106 1 212 431 ;
C 59 ; WX 319 ; N semicolon ; B 105 -193 224 431 ;
C 60 ; WX 844 ; N less ; B 102 -30 742 532 ;
C 61 ; WX 844 ; N equal ; B 72 142 771 360 ;
C 62 ; WX 844 ; N greater ; B 101 -30 741 532 ;
C 63 ; WX 523 ; N question ; B 71 1 451 706 ;
C 64 ; WX 844 ; N at ; B 72 -11 771 707 ;
C 65 ; WX 814 ; N A ; B 48 1 765 717 ;
C 66 ; WX 771 ; N B ; B 58 0 699 685 ;
C 67 ; WX 786 ; N C ; B 71 -22 714 707 ;
C 68 ; WX 829 ; N D ; B 57 0 756 686 ;
C 69 ; WX 741 ; N E ; B 56 1 697 681 ;
C 70 ; WX 712 ; N F ; B 56 1 653 681 ;
C 71 ; WX 851 ; N G ; B 72 -21 786 707 ;
C 72 ; WX 814 ; N H ; B 55 1 758 684 ;
C 73 ; WX 405 ; N I ; B 51 1 354 684 ;
C 74 ; WX 567 ; N J ; B 62 -22 499 684 ;
C 75 ; WX 843 ; N K ; B 55 1 785 684 ;
C 76 ; WX 683 ; N L ; B 55 1 624 684 ;
C 77 ; WX 989 ; N M ; B 59 1 929 684 ;
C 78 ; WX 814 ; N N ; B 55 1 758 684 ;
C 79 ; WX 844 ; N O ; B 71 -22 771 706 ;
C 80 ; WX 741 ; N P ; B 57 1 668 685 ;
C 81 ; WX 844 ; N Q ; B 72 -193 778 707 ;
C 82 ; WX 800 ; N R ; B 57 -22 782 685 ;
C 83 ; WX 611 ; N S ; B 71 -22 538 706 ;
C 84 ; WX 786 ; N T ; B 52 1 733 678 ; L M trademark ;
C 85 ; WX 814 ; N U ; B 55 -21 758 684 ;
C 86 ; WX 814 ; N V ; B 34 -22 779 684 ;
C 87 ; WX 1105 ; N W ; B 33 -22 1071 684 ;
C 88 ; WX 814 ; N X ; B 39 1 774 684 ;
C 89 ; WX 814 ; N Y ; B 26 1 787 684 ;
C 90 ; WX 669 ; N Z ; B 72 1 602 684 ;
C 91 ; WX 319 ; N bracketleft ; B 124 -249 281 751 ;
C 92 ; WX 553 ; N backslash ; B 72 -249 480 751 ;
C 93 ; WX 319 ; N bracketright ; B 37 -249 194 751 ;
C 94 ; WX 669 ; N asciicircum ; B 138 464 530 627 ;
C 95 ; WX 844 ; N underscore ; B 101 -233 742 -191 ;
C 96 ; WX 319 ; N quoteleft ; B 90 394 212 695 ;
C 97 ; WX 613 ; N a ; B 34 1 579 532 ;
C 98 ; WX 580 ; N b ; B 46 0 529 516 ;
C 99 ; WX 591 ; N c ; B 51 -14 541 530 ;
C 100 ; WX 624 ; N d ; B 45 0 573 517 ;
C 101 ; WX 558 ; N e ; B 43 1 529 512 ;
C 102 ; WX 535 ; N f ; B 43 1 495 512 ; L l fl ; L i fi ;
C 103 ; WX 641 ; N g ; B 50 -14 594 530 ;
C 104 ; WX 613 ; N h ; B 43 1 570 515 ;
C 105 ; WX 302 ; N i ; B 39 1 263 515 ;
C 106 ; WX 424 ; N j ; B 45 -14 371 515 ;
C 107 ; WX 635 ; N k ; B 43 1 594 515 ;
C 108 ; WX 513 ; N l ; B 43 1 473 515 ;
C 109 ; WX 746 ; N m ; B 47 0 699 515 ;
C 110 ; WX 613 ; N n ; B 43 1 570 515 ;
C 111 ; WX 635 ; N o ; B 50 -13 584 529 ;
C 112 ; WX 558 ; N p ; B 45 1 508 516 ;
C 113 ; WX 635 ; N q ; B 50 -143 588 529 ;
C 114 ; WX 602 ; N r ; B 45 -14 593 516 ;
C 115 ; WX 458 ; N s ; B 51 -14 408 530 ;
C 116 ; WX 591 ; N t ; B 36 1 555 509 ;
C 117 ; WX 613 ; N u ; B 43 -13 570 515 ;
C 118 ; WX 613 ; N v ; B 24 -10 589 515 ;
C 119 ; WX 835 ; N w ; B 23 -11 812 515 ;
C 120 ; WX 613 ; N x ; B 29 1 584 515 ;
C 121 ; WX 613 ; N y ; B 19 1 594 515 ;
C 122 ; WX 502 ; N z ; B 50 0 455 516 ;
C 123 ; WX 553 ; N braceleft ; B 90 -249 462 751 ;
C 124 ; WX 319 ; N bar ; B 138 -249 180 751 ;
C 125 ; WX 553 ; N braceright ; B 90 -250 462 752 ;
C 126 ; WX 669 ; N asciitilde ; B 101 575 567 670 ;
C 161 ; WX 319 ; N exclamdown ; B 105 -215 213 501 ;
C 162 ; WX 500 ; N cent ; B 33 -96 470 534 ;
C 163 ; WX 698 ; N sterling ; B 71 -10 654 709 ;
C 164 ; WX 500 ; N fraction ; B 55 -249 444 751 ;
C 165 ; WX 750 ; N yen ; B 11 1 738 684 ;
C 166 ; WX 305 ; N florin ; B 33 1 358 707 ;
C 167 ; WX 494 ; N section ; B 86 -204 407 706 ;
C 168 ; WX 736 ; N currency ; B 44 -45 692 601 ;
C 169 ; WX 278 ; N quotesingle ; B 92 348 185 712 ;
C 170 ; WX 378 ; N quotedblleft ; B 10 394 352 695 ;
C 171 ; WX 611 ; N guillemotleft ; B 130 1 538 484 ;
C 172 ; WX 494 ; N guilsinglleft ; B 130 1 362 484 ;
C 173 ; WX 494 ; N guilsinglright ; B 131 1 363 484 ;
C 174 ; WX 802 ; N fi ; B 43 1 774 512 ;
C 175 ; WX 1024 ; N fl ; B 43 1 984 512 ;
C 177 ; WX 553 ; N endash ; B 14 256 538 278 ;
C 178 ; WX 444 ; N dagger ; B 54 -215 390 706 ;
C 179 ; WX 444 ; N daggerdbl ; B 54 -204 390 706 ;
C 180 ; WX 278 ; N periodcentered ; B 86 190 192 296 ;
C 182 ; WX 611 ; N paragraph ; B 54 -194 582 696 ;
C 183 ; WX 500 ; N bullet ; B 54 56 443 446 ;
C 184 ; WX 319 ; N quotesinglbase ; B 105 -193 224 108 ;
C 185 ; WX 378 ; N quotedblbase ; B 25 -193 367 108 ;
C 186 ; WX 378 ; N quotedblright ; B 25 395 367 696 ;
C 187 ; WX 611 ; N guillemotright ; B 72 1 480 484 ;
C 188 ; WX 1183 ; N ellipsis ; B 106 1 1076 107 ;
C 189 ; WX 1166 ; N perthousand ; B 54 -56 1110 752 ;
C 191 ; WX 523 ; N questiondown ; B 71 -204 451 501 ;
C 193 ; WX 413 ; N grave ; B 35 573 245 693 ;
C 194 ; WX 413 ; N acute ; B 168 573 378 693 ;
C 195 ; WX 413 ; N circumflex ; B 100 578 314 728 ;
C 196 ; WX 413 ; N tilde ; B 51 641 362 725 ;
C 197 ; WX 553 ; N macron ; B 87 643 465 675 ;
C 198 ; WX 553 ; N breve ; B 119 606 433 779 ;
C 199 ; WX 235 ; N dotaccent ; B 75 583 183 689 ;
C 200 ; WX 413 ; N dieresis ; B 75 564 338 671 ;
C 202 ; WX 613 ; N ring ; B 227 561 386 735 ;
C 203 ; WX 369 ; N cedilla ; B 88 -194 281 1 ;
C 205 ; WX 413 ; N hungarumlaut ; B 102 573 445 693 ;
C 206 ; WX 235 ; N ogonek ; B 13 -178 188 18 ;
C 207 ; WX 413 ; N caron ; B 90 592 324 701 ;
C 208 ; WX 1105 ; N emdash ; B 28 256 1076 278 ;
C 225 ; WX 975 ; N AE ; B 48 1 931 684 ;
C 227 ; WX 444 ; N ordfeminine ; B 41 313 438 768 ;
C 232 ; WX 683 ; N Lslash ; B 55 1 624 684 ;
C 233 ; WX 844 ; N Oslash ; B 71 -53 771 738 ;
C 234 ; WX 1091 ; N OE ; B 85 -22 1047 706 ;
C 235 ; WX 444 ; N ordmasculine ; B 27 313 416 769 ;
C 241 ; WX 735 ; N ae ; B 34 1 706 515 ;
C 245 ; WX 302 ; N dotlessi ; B 39 1 263 515 ;
C 248 ; WX 513 ; N lslash ; B 43 1 473 515 ;
C 249 ; WX 635 ; N oslash ; B 50 -55 585 570 ;
C 250 ; WX 824 ; N oe ; B 62 -14 795 530 ;
C 251 ; WX 916 ; N germandbls ; B 51 -14 852 530 ;
C -1 ; WX 778 ; N minus ; B 55 239 722 263 ;
C -1 ; WX 858 ; N Eng ; B 55 -22 786 713 ;
C -1 ; WX 647 ; N eng ; B 43 -14 597 531 ;
C -1 ; WX 424 ; N dotlessj ; B 45 -14 371 515 ;
C -1 ; WX 1046 ; N ff ; B 43 1 1005 512 ;
C -1 ; WX 1313 ; N ffi ; B 43 1 1285 512 ;
C -1 ; WX 1535 ; N ffl ; B 43 1 1495 512 ;
C -1 ; WX 436 ; N perthousandzero ; B 71 -56 363 349 ;
C -1 ; WX 667 ; N Euro ; B 0 0 618 668 ;
C -1 ; WX 611 ; N Scaron ; B 71 -22 538 937 ;
C -1 ; WX 669 ; N Zcaron ; B 72 1 602 937 ;
C -1 ; WX 667 ; N trademark ; B 0 354 625 773 ;
C -1 ; WX 458 ; N scaron ; B 51 -14 408 665 ;
C -1 ; WX 502 ; N zcaron ; B 50 0 455 665 ;
C -1 ; WX 814 ; N Ydieresis ; B 26 1 787 840 ;
C -1 ; WX 302 ; N nonbreakingspace ; B 0 0 0 0 ;
C -1 ; WX 167 ; N brokenbar ; B 62 -249 104 751 ;
C -1 ; WX 1111 ; N copyright ; B 54 -272 1056 773 ;
C -1 ; WX 667 ; N logicalnot ; B 55 91 612 358 ;
C -1 ; WX 378 ; N softhyphen ; B 26 186 305 245 ;
C -1 ; WX 1111 ; N registered ; B 54 -272 1056 773 ;
C -1 ; WX 333 ; N degree ; B 56 463 276 684 ;
C -1 ; WX 778 ; N plusminus ; B 55 0 722 667 ;
C -1 ; WX 444 ; N twosuperior ; B 49 348 394 774 ;
C -1 ; WX 444 ; N threesuperior ; B 41 337 401 774 ;
C -1 ; WX 555 ; N mu ; B 32 -193 534 442 ;
C -1 ; WX 444 ; N onesuperior ; B 69 348 374 774 ;
C -1 ; WX 444 ; N onequarter ; B 8 -193 435 773 ;
C -1 ; WX 444 ; N onehalf ; B 8 -193 435 773 ;
C -1 ; WX 444 ; N threequarters ; B 8 -193 435 775 ;
C -1 ; WX 814 ; N Agrave ; B 48 1 765 863 ;
C -1 ; WX 814 ; N Aacute ; B 48 1 765 863 ;
C -1 ; WX 814 ; N Acircumflex ; B 48 1 765 900 ;
C -1 ; WX 814 ; N Atilde ; B 48 1 765 892 ;
C -1 ; WX 814 ; N Adieresis ; B 48 1 765 840 ;
C -1 ; WX 814 ; N Aring ; B 48 1 765 914 ;
C -1 ; WX 786 ; N Ccedilla ; B 71 -202 714 707 ;
C -1 ; WX 741 ; N Egrave ; B 56 1 697 863 ;
C -1 ; WX 741 ; N Eacute ; B 56 1 697 863 ;
C -1 ; WX 741 ; N Ecircumflex ; B 56 1 697 900 ;
C -1 ; WX 741 ; N Edieresis ; B 56 1 697 840 ;
C -1 ; WX 405 ; N Igrave ; B 51 1 354 863 ;
C -1 ; WX 405 ; N Iacute ; B 51 1 354 863 ;
C -1 ; WX 405 ; N Icircumflex ; B 51 1 354 900 ;
C -1 ; WX 405 ; N Idieresis ; B 48 1 356 840 ;
C -1 ; WX 829 ; N Eth ; B 56 0 756 686 ;
C -1 ; WX 814 ; N Ntilde ; B 55 1 758 892 ;
C -1 ; WX 844 ; N Ograve ; B 71 -22 771 863 ;
C -1 ; WX 844 ; N Oacute ; B 71 -22 771 863 ;
C -1 ; WX 844 ; N Ocircumflex ; B 71 -22 771 900 ;
C -1 ; WX 844 ; N Otilde ; B 71 -22 771 892 ;
C -1 ; WX 844 ; N Odieresis ; B 71 -22 771 840 ;
C -1 ; WX 778 ; N multiply ; B 147 10 631 492 ;
C -1 ; WX 814 ; N Ugrave ; B 55 -21 758 863 ;
C -1 ; WX 814 ; N Uacute ; B 55 -21 758 863 ;
C -1 ; WX 814 ; N Ucircumflex ; B 55 -21 758 900 ;
C -1 ; WX 814 ; N Udieresis ; B 55 -21 758 840 ;
C -1 ; WX 814 ; N Yacute ; B 26 1 787 863 ;
C -1 ; WX 683 ; N Thorn ; B 58 1 611 684 ;
C -1 ; WX 613 ; N agrave ; B 34 1 579 693 ;
C -1 ; WX 613 ; N aacute ; B 34 1 579 693 ;
C -1 ; WX 613 ; N acircumflex ; B 34 1 579 727 ;
C -1 ; WX 613 ; N atilde ; B 34 1 579 724 ;
C -1 ; WX 613 ; N adieresis ; B 34 1 579 671 ;
C -1 ; WX 613 ; N aring ; B 34 1 579 734 ;
C -1 ; WX 591 ; N ccedilla ; B 50 -194 541 530 ;
C -1 ; WX 558 ; N egrave ; B 43 1 529 693 ;
C -1 ; WX 558 ; N eacute ; B 43 1 529 693 ;
C -1 ; WX 558 ; N ecircumflex ; B 43 1 529 727 ;
C -1 ; WX 558 ; N edieresis ; B 43 1 529 671 ;
C -1 ; WX 302 ; N igrave ; B 1 1 263 693 ;
C -1 ; WX 302 ; N iacute ; B 39 1 287 693 ;
C -1 ; WX 302 ; N icircumflex ; B 39 1 263 728 ;
C -1 ; WX 302 ; N idieresis ; B 20 1 282 671 ;
C -1 ; WX 624 ; N eth ; B 44 0 573 517 ;
C -1 ; WX 613 ; N ntilde ; B 43 1 570 724 ;
C -1 ; WX 635 ; N ograve ; B 50 -13 584 693 ;
C -1 ; WX 635 ; N oacute ; B 50 -13 584 693 ;
C -1 ; WX 635 ; N ocircumflex ; B 50 -13 584 728 ;
C -1 ; WX 635 ; N otilde ; B 50 -13 584 724 ;
C -1 ; WX 635 ; N odieresis ; B 50 -13 584 671 ;
C -1 ; WX 778 ; N divide ; B 55 -29 722 530 ;
C -1 ; WX 613 ; N ugrave ; B 43 -13 570 693 ;
C -1 ; WX 613 ; N uacute ; B 43 -13 570 693 ;
C -1 ; WX 613 ; N ucircumflex ; B 43 -13 570 727 ;
C -1 ; WX 613 ; N udieresis ; B 43 -13 570 671 ;
C -1 ; WX 613 ; N yacute ; B 19 1 594 693 ;
C -1 ; WX 513 ; N thorn ; B 46 1 463 515 ;
C -1 ; WX 613 ; N ydieresis ; B 19 1 594 671 ;
EndCharMetrics
StartKernData
StartKernPairs 1481
KPX quoteright exclam 117
KPX quoteright question 117
KPX quoteright quotedblright 117
KPX A OE -29
KPX A oslash -29
KPX A w -117
KPX A W -117
KPX A v -117
KPX A V -117
KPX A yacute -87
KPX A ydieresis -87
KPX A y -87
KPX A Yacute -87
KPX A Ydieresis -87
KPX A Y -87
KPX A t -87
KPX A T -87
KPX A q -29
KPX A Udieresis -29
KPX A Ucircumflex -29
KPX A Uacute -29
KPX A Ugrave -29
KPX A U -29
KPX A udieresis -29
KPX A ucircumflex -29
KPX A uacute -29
KPX A ugrave -29
KPX A u -29
KPX A g -29
KPX A Oslash -29
KPX A Odieresis -29
KPX A Otilde -29
KPX A Ocircumflex -29
KPX A Oacute -29
KPX A Ograve -29
KPX A O -29
KPX A oe -29
KPX A odieresis -29
KPX A otilde -29
KPX A ocircumflex -29
KPX A oacute -29
KPX A ograve -29
KPX A o -29
KPX A Q -29
KPX A Ccedilla -29
KPX A G -29
KPX A C -29
KPX A ccedilla -29
KPX A c -29
KPX D Ydieresis -29
KPX D Yacute -29
KPX D Y -29
KPX D ydieresis -29
KPX D yacute -29
KPX D y -29
KPX D V -29
KPX D v -29
KPX D Aring -29
KPX D Adieresis -29
KPX D Atilde -29
KPX D Acircumflex -29
KPX D Aacute -29
KPX D Agrave -29
KPX D A -29
KPX D ae -29
KPX D aring -29
KPX D adieresis -29
KPX D atilde -29
KPX D acircumflex -29
KPX D aacute -29
KPX D agrave -29
KPX D a -29
KPX D W -29
KPX D w -29
KPX D X -29
KPX D x -29
KPX F OE -29
KPX F oslash -29
KPX F q -29
KPX F g -29
KPX F Q -29
KPX F Ccedilla -29
KPX F G -29
KPX F C -29
KPX F ccedilla -29
KPX F c -29
KPX F Oslash -29
KPX F Odieresis -29
KPX F Otilde -29
KPX F Ocircumflex -29
KPX F Oacute -29
KPX F Ograve -29
KPX F O -29
KPX F oe -29
KPX F odieresis -29
KPX F otilde -29
KPX F ocircumflex -29
KPX F oacute -29
KPX F ograve -29
KPX F o -29
KPX F Aring -117
KPX F Adieresis -117
KPX F Atilde -117
KPX F Acircumflex -117
KPX F Aacute -117
KPX F Agrave -117
KPX F A -117
KPX F ae -117
KPX F aring -117
KPX F adieresis -117
KPX F atilde -117
KPX F acircumflex -117
KPX F aacute -117
KPX F agrave -117
KPX F a -117
KPX I Icircumflex 29
KPX I Iacute 29
KPX I Igrave 29
KPX I I 29
KPX K OE -29
KPX K oslash -29
KPX K q -29
KPX K g -29
KPX K Q -29
KPX K Ccedilla -29
KPX K G -29
KPX K C -29
KPX K ccedilla -29
KPX K c -29
KPX K Oslash -29
KPX K Odieresis -29
KPX K Otilde -29
KPX K Ocircumflex -29
KPX K Oacute -29
KPX K Ograve -29
KPX K O -29
KPX K oe -29
KPX K odieresis -29
KPX K otilde -29
KPX K ocircumflex -29
KPX K oacute -29
KPX K ograve -29
KPX K o -29
KPX L w -117
KPX L W -117
KPX L v -117
KPX L V -117
KPX L yacute -87
KPX L ydieresis -87
KPX L y -87
KPX L Yacute -87
KPX L Ydieresis -87
KPX L Y -87
KPX L t -87
KPX L T -87
KPX O Ydieresis -29
KPX O Yacute -29
KPX O Y -29
KPX O ydieresis -29
KPX O yacute -29
KPX O y -29
KPX O V -29
KPX O v -29
KPX O Aring -29
KPX O Adieresis -29
KPX O Atilde -29
KPX O Acircumflex -29
KPX O Aacute -29
KPX O Agrave -29
KPX O A -29
KPX O ae -29
KPX O aring -29
KPX O adieresis -29
KPX O atilde -29
KPX O acircumflex -29
KPX O aacute -29
KPX O agrave -29
KPX O a -29
KPX O W -29
KPX O w -29
KPX O X -29
KPX O x -29
KPX P aring -87
KPX P adieresis -87
KPX P atilde -87
KPX P acircumflex -87
KPX P aacute -87
KPX P agrave -87
KPX P Aring -87
KPX P Adieresis -87
KPX P Atilde -87
KPX P Acircumflex -87
KPX P Aacute -87
KPX P Agrave -87
KPX P A -87
KPX P a -87
KPX R OE -29
KPX R oslash -29
KPX R w -117
KPX R W -117
KPX R v -117
KPX R V -117
KPX R yacute -87
KPX R ydieresis -87
KPX R y -87
KPX R Yacute -87
KPX R Ydieresis -87
KPX R Y -87
KPX R t -87
KPX R T -87
KPX R q -29
KPX R Udieresis -29
KPX R Ucircumflex -29
KPX R Uacute -29
KPX R Ugrave -29
KPX R U -29
KPX R udieresis -29
KPX R ucircumflex -29
KPX R uacute -29
KPX R ugrave -29
KPX R u -29
KPX R g -29
KPX R Oslash -29
KPX R Odieresis -29
KPX R Otilde -29
KPX R Ocircumflex -29
KPX R Oacute -29
KPX R Ograve -29
KPX R O -29
KPX R oe -29
KPX R odieresis -29
KPX R otilde -29
KPX R ocircumflex -29
KPX R oacute -29
KPX R ograve -29
KPX R o -29
KPX R Q -29
KPX R Ccedilla -29
KPX R G -29
KPX R C -29
KPX R ccedilla -29
KPX R c -29
KPX T aring -87
KPX T adieresis -87
KPX T atilde -87
KPX T acircumflex -87
KPX T aacute -87
KPX T agrave -87
KPX T Aring -87
KPX T Adieresis -87
KPX T Atilde -87
KPX T Acircumflex -87
KPX T Aacute -87
KPX T Agrave -87
KPX T A -87
KPX T a -87
KPX V OE -29
KPX V oslash -29
KPX V q -29
KPX V g -29
KPX V Q -29
KPX V Ccedilla -29
KPX V G -29
KPX V C -29
KPX V ccedilla -29
KPX V c -29
KPX V Oslash -29
KPX V Odieresis -29
KPX V Otilde -29
KPX V Ocircumflex -29
KPX V Oacute -29
KPX V Ograve -29
KPX V O -29
KPX V oe -29
KPX V odieresis -29
KPX V otilde -29
KPX V ocircumflex -29
KPX V oacute -29
KPX V ograve -29
KPX V o -29
KPX V Aring -117
KPX V Adieresis -117
KPX V Atilde -117
KPX V Acircumflex -117
KPX V Aacute -117
KPX V Agrave -117
KPX V A -117
KPX V ae -117
KPX V aring -117
KPX V adieresis -117
KPX V atilde -117
KPX V acircumflex -117
KPX V aacute -117
KPX V agrave -117
KPX V a -117
KPX W OE -29
KPX W oslash -29
KPX W q -29
KPX W g -29
KPX W Q -29
KPX W Ccedilla -29
KPX W G -29
KPX W C -29
KPX W ccedilla -29
KPX W c -29
KPX W Oslash -29
KPX W Odieresis -29
KPX W Otilde -29
KPX W Ocircumflex -29
KPX W Oacute -29
KPX W Ograve -29
KPX W O -29
KPX W oe -29
KPX W odieresis -29
KPX W otilde -29
KPX W ocircumflex -29
KPX W oacute -29
KPX W ograve -29
KPX W o -29
KPX W Aring -117
KPX W Adieresis -117
KPX W Atilde -117
KPX W Acircumflex -117
KPX W Aacute -117
KPX W Agrave -117
KPX W A -117
KPX W ae -117
KPX W aring -117
KPX W adieresis -117
KPX W atilde -117
KPX W acircumflex -117
KPX W aacute -117
KPX W agrave -117
KPX W a -117
KPX X OE -29
KPX X oslash -29
KPX X q -29
KPX X g -29
KPX X Q -29
KPX X Ccedilla -29
KPX X G -29
KPX X C -29
KPX X ccedilla -29
KPX X c -29
KPX X Oslash -29
KPX X Odieresis -29
KPX X Otilde -29
KPX X Ocircumflex -29
KPX X Oacute -29
KPX X Ograve -29
KPX X O -29
KPX X oe -29
KPX X odieresis -29
KPX X otilde -29
KPX X ocircumflex -29
KPX X oacute -29
KPX X ograve -29
KPX X o -29
KPX Y aring -87
KPX Y adieresis -87
KPX Y atilde -87
KPX Y acircumflex -87
KPX Y aacute -87
KPX Y agrave -87
KPX Y Aring -87
KPX Y Adieresis -87
KPX Y Atilde -87
KPX Y Acircumflex -87
KPX Y Aacute -87
KPX Y Agrave -87
KPX Y A -87
KPX Y a -87
KPX quoteleft exclam 117
KPX quoteleft question 117
KPX quoteleft quotedblleft 117
KPX a oslash -29
KPX a w -117
KPX a v -117
KPX a yacute -29
KPX a ydieresis -29
KPX a y -87
KPX a t -87
KPX a quoteright -87
KPX a q -29
KPX a udieresis -29
KPX a ucircumflex -29
KPX a uacute -29
KPX a ugrave -29
KPX a u -29
KPX a g -29
KPX a oe -29
KPX a odieresis -29
KPX a otilde -29
KPX a ocircumflex -29
KPX a oacute -29
KPX a ograve -29
KPX a o -29
KPX a ccedilla -29
KPX a c -29
KPX d yacute -29
KPX d ydieresis -29
KPX d y -29
KPX d v -29
KPX d ae -29
KPX d aring -29
KPX d adieresis -29
KPX d atilde -29
KPX d acircumflex -29
KPX d aacute -29
KPX d agrave -29
KPX d a -29
KPX d w -29
KPX d x -29
KPX f oslash -29
KPX f q -29
KPX f g -29
KPX f ccedilla -29
KPX f c -29
KPX f oe -29
KPX f odieresis -29
KPX f otilde -29
KPX f ocircumflex -29
KPX f oacute -29
KPX f ograve -29
KPX f o -29
KPX f ae -117
KPX f aring -117
KPX f adieresis -117
KPX f atilde -117
KPX f acircumflex -117
KPX f aacute -117
KPX f agrave -117
KPX f a -117
KPX i idieresis 29
KPX i icircumflex 29
KPX i iacute 29
KPX i igrave 29
KPX i dotlessi 29
KPX i i 29
KPX k oslash -29
KPX k q -29
KPX k g -29
KPX k ccedilla -29
KPX k c -29
KPX k oe -29
KPX k odieresis -29
KPX k otilde -29
KPX k ocircumflex -29
KPX k oacute -29
KPX k ograve -29
KPX k o -29
KPX l w -117
KPX l v -117
KPX l yacute -29
KPX l ydieresis -29
KPX l y -87
KPX l t -87
KPX l quoteright -87
KPX o yacute -29
KPX o ydieresis -29
KPX o y -29
KPX o v -29
KPX o ae -29
KPX o aring -29
KPX o adieresis -29
KPX o atilde -29
KPX o acircumflex -29
KPX o aacute -29
KPX o agrave -29
KPX o a -29
KPX o w -29
KPX o x -29
KPX p ae -87
KPX p aring -87
KPX p adieresis -87
KPX p atilde -87
KPX p acircumflex -87
KPX p aacute -87
KPX p agrave -87
KPX p a -87
KPX r oslash -29
KPX r w -117
KPX r v -117
KPX r yacute -29
KPX r ydieresis -29
KPX r y -87
KPX r t -87
KPX r quoteright -87
KPX r q -29
KPX r udieresis -29
KPX r ucircumflex -29
KPX r uacute -29
KPX r ugrave -29
KPX r u -29
KPX r g -29
KPX r oe -29
KPX r odieresis -29
KPX r otilde -29
KPX r ocircumflex -29
KPX r oacute -29
KPX r ograve -29
KPX r o -29
KPX r ccedilla -29
KPX r c -29
KPX t ae -87
KPX t aring -87
KPX t adieresis -87
KPX t atilde -87
KPX t acircumflex -87
KPX t aacute -87
KPX t agrave -87
KPX t a -87
KPX v oslash -29
KPX v q -29
KPX v g -29
KPX v ccedilla -29
KPX v c -29
KPX v oe -29
KPX v odieresis -29
KPX v otilde -29
KPX v ocircumflex -29
KPX v oacute -29
KPX v ograve -29
KPX v o -29
KPX v ae -117
KPX v aring -117
KPX v adieresis -117
KPX v atilde -117
KPX v acircumflex -117
KPX v aacute -117
KPX v agrave -117
KPX v a -117
KPX w oslash -29
KPX w q -29
KPX w g -29
KPX w ccedilla -29
KPX w c -29
KPX w oe -29
KPX w odieresis -29
KPX w otilde -29
KPX w ocircumflex -29
KPX w oacute -29
KPX w ograve -29
KPX w o -29
KPX w ae -117
KPX w aring -117
KPX w adieresis -117
KPX w atilde -117
KPX w acircumflex -117
KPX w aacute -117
KPX w agrave -117
KPX w a -117
KPX x oslash -29
KPX x q -29
KPX x g -29
KPX x ccedilla -29
KPX x c -29
KPX x oe -29
KPX x odieresis -29
KPX x otilde -29
KPX x ocircumflex -29
KPX x oacute -29
KPX x ograve -29
KPX x o -29
KPX y ae -87
KPX y aring -87
KPX y adieresis -87
KPX y atilde -87
KPX y acircumflex -87
KPX y aacute -87
KPX y agrave -87
KPX y a -87
KPX quotedblleft quotedblleft 117
KPX quotedblleft quoteleft 117
KPX fi idieresis 29
KPX fi icircumflex 29
KPX fi iacute 29
KPX fi igrave 29
KPX fi dotlessi 29
KPX fi i 29
KPX fl w -117
KPX fl v -117
KPX fl yacute -29
KPX fl ydieresis -29
KPX fl y -87
KPX fl t -87
KPX fl quoteright -87
KPX quotesinglbase OE -29
KPX quotesinglbase Q -29
KPX quotesinglbase Ccedilla -29
KPX quotesinglbase G -29
KPX quotesinglbase C -29
KPX quotesinglbase Oslash -29
KPX quotesinglbase Odieresis -29
KPX quotesinglbase Otilde -29
KPX quotesinglbase Ocircumflex -29
KPX quotesinglbase Oacute -29
KPX quotesinglbase Ograve -29
KPX quotesinglbase O -29
KPX quotesinglbase Yacute -87
KPX quotesinglbase Ydieresis -87
KPX quotesinglbase Y -87
KPX quotesinglbase W -87
KPX quotesinglbase V -117
KPX quotesinglbase w -29
KPX quotesinglbase v -58
KPX quotesinglbase yacute -58
KPX quotesinglbase ydieresis -58
KPX quotesinglbase y -58
KPX quotesinglbase quotedblbase 117
KPX quotedblbase OE -29
KPX quotedblbase Q -29
KPX quotedblbase Ccedilla -29
KPX quotedblbase G -29
KPX quotedblbase C -29
KPX quotedblbase Oslash -29
KPX quotedblbase Odieresis -29
KPX quotedblbase Otilde -29
KPX quotedblbase Ocircumflex -29
KPX quotedblbase Oacute -29
KPX quotedblbase Ograve -29
KPX quotedblbase O -29
KPX quotedblbase Yacute -87
KPX quotedblbase Ydieresis -87
KPX quotedblbase Y -87
KPX quotedblbase W -87
KPX quotedblbase V -117
KPX quotedblbase w -29
KPX quotedblbase v -58
KPX quotedblbase yacute -58
KPX quotedblbase ydieresis -58
KPX quotedblbase y -58
KPX quotedblbase quotedblbase 117
KPX quotedblbase comma 117
KPX quotedblbase quotesinglbase 117
KPX quotedblright quotedblright 117
KPX quotedblright quoteright 117
KPX guillemotright comma -87
KPX guillemotright period -87
KPX Lslash w -117
KPX Lslash W -117
KPX Lslash v -117
KPX Lslash V -117
KPX Lslash yacute -87
KPX Lslash ydieresis -87
KPX Lslash y -87
KPX Lslash Yacute -87
KPX Lslash Ydieresis -87
KPX Lslash Y -87
KPX Lslash t -87
KPX Lslash T -87
KPX Oslash Ydieresis -29
KPX Oslash Yacute -29
KPX Oslash Y -29
KPX Oslash ydieresis -29
KPX Oslash yacute -29
KPX Oslash y -29
KPX Oslash V -29
KPX Oslash v -29
KPX Oslash Aring -29
KPX Oslash Adieresis -29
KPX Oslash Atilde -29
KPX Oslash Acircumflex -29
KPX Oslash Aacute -29
KPX Oslash Agrave -29
KPX Oslash A -29
KPX Oslash ae -29
KPX Oslash aring -29
KPX Oslash adieresis -29
KPX Oslash atilde -29
KPX Oslash acircumflex -29
KPX Oslash aacute -29
KPX Oslash agrave -29
KPX Oslash a -29
KPX Oslash W -29
KPX Oslash w -29
KPX Oslash X -29
KPX Oslash x -29
KPX ae oslash -29
KPX ae w -117
KPX ae v -117
KPX ae yacute -29
KPX ae ydieresis -29
KPX ae y -87
KPX ae t -87
KPX ae quoteright -87
KPX ae q -29
KPX ae udieresis -29
KPX ae ucircumflex -29
KPX ae uacute -29
KPX ae ugrave -29
KPX ae u -29
KPX ae g -29
KPX ae oe -29
KPX ae odieresis -29
KPX ae otilde -29
KPX ae ocircumflex -29
KPX ae oacute -29
KPX ae ograve -29
KPX ae o -29
KPX ae ccedilla -29
KPX ae c -29
KPX dotlessi idieresis 29
KPX dotlessi icircumflex 29
KPX dotlessi iacute 29
KPX dotlessi igrave 29
KPX dotlessi dotlessi 29
KPX dotlessi i 29
KPX lslash w -117
KPX lslash v -117
KPX lslash yacute -29
KPX lslash ydieresis -29
KPX lslash y -87
KPX lslash t -87
KPX lslash quoteright -87
KPX oslash yacute -29
KPX oslash ydieresis -29
KPX oslash y -29
KPX oslash v -29
KPX oslash ae -29
KPX oslash aring -29
KPX oslash adieresis -29
KPX oslash atilde -29
KPX oslash acircumflex -29
KPX oslash aacute -29
KPX oslash agrave -29
KPX oslash a -29
KPX oslash w -29
KPX oslash x -29
KPX oe yacute -29
KPX oe ydieresis -29
KPX oe y -29
KPX oe v -29
KPX oe ae -29
KPX oe aring -29
KPX oe adieresis -29
KPX oe atilde -29
KPX oe acircumflex -29
KPX oe aacute -29
KPX oe agrave -29
KPX oe a -29
KPX oe w -29
KPX oe x -29
KPX ff oslash -29
KPX ff q -29
KPX ff g -29
KPX ff ccedilla -29
KPX ff c -29
KPX ff oe -29
KPX ff odieresis -29
KPX ff otilde -29
KPX ff ocircumflex -29
KPX ff oacute -29
KPX ff ograve -29
KPX ff o -29
KPX ff ae -117
KPX ff aring -117
KPX ff adieresis -117
KPX ff atilde -117
KPX ff acircumflex -117
KPX ff aacute -117
KPX ff agrave -117
KPX ff a -117
KPX ffi idieresis 29
KPX ffi icircumflex 29
KPX ffi iacute 29
KPX ffi igrave 29
KPX ffi dotlessi 29
KPX ffi i 29
KPX ffl w -117
KPX ffl v -117
KPX ffl yacute -29
KPX ffl ydieresis -29
KPX ffl y -87
KPX ffl t -87
KPX ffl quoteright -87
KPX Ydieresis aring -87
KPX Ydieresis adieresis -87
KPX Ydieresis atilde -87
KPX Ydieresis acircumflex -87
KPX Ydieresis aacute -87
KPX Ydieresis agrave -87
KPX Ydieresis Aring -87
KPX Ydieresis Adieresis -87
KPX Ydieresis Atilde -87
KPX Ydieresis Acircumflex -87
KPX Ydieresis Aacute -87
KPX Ydieresis Agrave -87
KPX Ydieresis A -87
KPX Ydieresis a -87
KPX Agrave OE -29
KPX Agrave oslash -29
KPX Agrave w -117
KPX Agrave W -117
KPX Agrave v -117
KPX Agrave V -117
KPX Agrave yacute -87
KPX Agrave ydieresis -87
KPX Agrave y -87
KPX Agrave Yacute -87
KPX Agrave Ydieresis -87
KPX Agrave Y -87
KPX Agrave t -87
KPX Agrave T -87
KPX Agrave q -29
KPX Agrave Udieresis -29
KPX Agrave Ucircumflex -29
KPX Agrave Uacute -29
KPX Agrave Ugrave -29
KPX Agrave U -29
KPX Agrave udieresis -29
KPX Agrave ucircumflex -29
KPX Agrave uacute -29
KPX Agrave ugrave -29
KPX Agrave u -29
KPX Agrave g -29
KPX Agrave Oslash -29
KPX Agrave Odieresis -29
KPX Agrave Otilde -29
KPX Agrave Ocircumflex -29
KPX Agrave Oacute -29
KPX Agrave Ograve -29
KPX Agrave O -29
KPX Agrave oe -29
KPX Agrave odieresis -29
KPX Agrave otilde -29
KPX Agrave ocircumflex -29
KPX Agrave oacute -29
KPX Agrave ograve -29
KPX Agrave o -29
KPX Agrave Q -29
KPX Agrave Ccedilla -29
KPX Agrave G -29
KPX Agrave C -29
KPX Agrave ccedilla -29
KPX Agrave c -29
KPX Aacute OE -29
KPX Aacute oslash -29
KPX Aacute w -117
KPX Aacute W -117
KPX Aacute v -117
KPX Aacute V -117
KPX Aacute yacute -87
KPX Aacute ydieresis -87
KPX Aacute y -87
KPX Aacute Yacute -87
KPX Aacute Ydieresis -87
KPX Aacute Y -87
KPX Aacute t -87
KPX Aacute T -87
KPX Aacute q -29
KPX Aacute Udieresis -29
KPX Aacute Ucircumflex -29
KPX Aacute Uacute -29
KPX Aacute Ugrave -29
KPX Aacute U -29
KPX Aacute udieresis -29
KPX Aacute ucircumflex -29
KPX Aacute uacute -29
KPX Aacute ugrave -29
KPX Aacute u -29
KPX Aacute g -29
KPX Aacute Oslash -29
KPX Aacute Odieresis -29
KPX Aacute Otilde -29
KPX Aacute Ocircumflex -29
KPX Aacute Oacute -29
KPX Aacute Ograve -29
KPX Aacute O -29
KPX Aacute oe -29
KPX Aacute odieresis -29
KPX Aacute otilde -29
KPX Aacute ocircumflex -29
KPX Aacute oacute -29
KPX Aacute ograve -29
KPX Aacute o -29
KPX Aacute Q -29
KPX Aacute Ccedilla -29
KPX Aacute G -29
KPX Aacute C -29
KPX Aacute ccedilla -29
KPX Aacute c -29
KPX Acircumflex OE -29
KPX Acircumflex oslash -29
KPX Acircumflex w -117
KPX Acircumflex W -117
KPX Acircumflex v -117
KPX Acircumflex V -117
KPX Acircumflex yacute -87
KPX Acircumflex ydieresis -87
KPX Acircumflex y -87
KPX Acircumflex Yacute -87
KPX Acircumflex Ydieresis -87
KPX Acircumflex Y -87
KPX Acircumflex t -87
KPX Acircumflex T -87
KPX Acircumflex q -29
KPX Acircumflex Udieresis -29
KPX Acircumflex Ucircumflex -29
KPX Acircumflex Uacute -29
KPX Acircumflex Ugrave -29
KPX Acircumflex U -29
KPX Acircumflex udieresis -29
KPX Acircumflex ucircumflex -29
KPX Acircumflex uacute -29
KPX Acircumflex ugrave -29
KPX Acircumflex u -29
KPX Acircumflex g -29
KPX Acircumflex Oslash -29
KPX Acircumflex Odieresis -29
KPX Acircumflex Otilde -29
KPX Acircumflex Ocircumflex -29
KPX Acircumflex Oacute -29
KPX Acircumflex Ograve -29
KPX Acircumflex O -29
KPX Acircumflex oe -29
KPX Acircumflex odieresis -29
KPX Acircumflex otilde -29
KPX Acircumflex ocircumflex -29
KPX Acircumflex oacute -29
KPX Acircumflex ograve -29
KPX Acircumflex o -29
KPX Acircumflex Q -29
KPX Acircumflex Ccedilla -29
KPX Acircumflex G -29
KPX Acircumflex C -29
KPX Acircumflex ccedilla -29
KPX Acircumflex c -29
KPX Atilde OE -29
KPX Atilde oslash -29
KPX Atilde w -117
KPX Atilde W -117
KPX Atilde v -117
KPX Atilde V -117
KPX Atilde yacute -87
KPX Atilde ydieresis -87
KPX Atilde y -87
KPX Atilde Yacute -87
KPX Atilde Ydieresis -87
KPX Atilde Y -87
KPX Atilde t -87
KPX Atilde T -87
KPX Atilde q -29
KPX Atilde Udieresis -29
KPX Atilde Ucircumflex -29
KPX Atilde Uacute -29
KPX Atilde Ugrave -29
KPX Atilde U -29
KPX Atilde udieresis -29
KPX Atilde ucircumflex -29
KPX Atilde uacute -29
KPX Atilde ugrave -29
KPX Atilde u -29
KPX Atilde g -29
KPX Atilde Oslash -29
KPX Atilde Odieresis -29
KPX Atilde Otilde -29
KPX Atilde Ocircumflex -29
KPX Atilde Oacute -29
KPX Atilde Ograve -29
KPX Atilde O -29
KPX Atilde oe -29
KPX Atilde odieresis -29
KPX Atilde otilde -29
KPX Atilde ocircumflex -29
KPX Atilde oacute -29
KPX Atilde ograve -29
KPX Atilde o -29
KPX Atilde Q -29
KPX Atilde Ccedilla -29
KPX Atilde G -29
KPX Atilde C -29
KPX Atilde ccedilla -29
KPX Atilde c -29
KPX Adieresis OE -29
KPX Adieresis oslash -29
KPX Adieresis w -117
KPX Adieresis W -117
KPX Adieresis v -117
KPX Adieresis V -117
KPX Adieresis yacute -87
KPX Adieresis ydieresis -87
KPX Adieresis y -87
KPX Adieresis Yacute -87
KPX Adieresis Ydieresis -87
KPX Adieresis Y -87
KPX Adieresis t -87
KPX Adieresis T -87
KPX Adieresis q -29
KPX Adieresis Udieresis -29
KPX Adieresis Ucircumflex -29
KPX Adieresis Uacute -29
KPX Adieresis Ugrave -29
KPX Adieresis U -29
KPX Adieresis udieresis -29
KPX Adieresis ucircumflex -29
KPX Adieresis uacute -29
KPX Adieresis ugrave -29
KPX Adieresis u -29
KPX Adieresis g -29
KPX Adieresis Oslash -29
KPX Adieresis Odieresis -29
KPX Adieresis Otilde -29
KPX Adieresis Ocircumflex -29
KPX Adieresis Oacute -29
KPX Adieresis Ograve -29
KPX Adieresis O -29
KPX Adieresis oe -29
KPX Adieresis odieresis -29
KPX Adieresis otilde -29
KPX Adieresis ocircumflex -29
KPX Adieresis oacute -29
KPX Adieresis ograve -29
KPX Adieresis o -29
KPX Adieresis Q -29
KPX Adieresis Ccedilla -29
KPX Adieresis G -29
KPX Adieresis C -29
KPX Adieresis ccedilla -29
KPX Adieresis c -29
KPX Aring OE -29
KPX Aring oslash -29
KPX Aring w -117
KPX Aring W -117
KPX Aring v -117
KPX Aring V -117
KPX Aring yacute -87
KPX Aring ydieresis -87
KPX Aring y -87
KPX Aring Yacute -87
KPX Aring Ydieresis -87
KPX Aring Y -87
KPX Aring t -87
KPX Aring T -87
KPX Aring q -29
KPX Aring Udieresis -29
KPX Aring Ucircumflex -29
KPX Aring Uacute -29
KPX Aring Ugrave -29
KPX Aring U -29
KPX Aring udieresis -29
KPX Aring ucircumflex -29
KPX Aring uacute -29
KPX Aring ugrave -29
KPX Aring u -29
KPX Aring g -29
KPX Aring Oslash -29
KPX Aring Odieresis -29
KPX Aring Otilde -29
KPX Aring Ocircumflex -29
KPX Aring Oacute -29
KPX Aring Ograve -29
KPX Aring O -29
KPX Aring oe -29
KPX Aring odieresis -29
KPX Aring otilde -29
KPX Aring ocircumflex -29
KPX Aring oacute -29
KPX Aring ograve -29
KPX Aring o -29
KPX Aring Q -29
KPX Aring Ccedilla -29
KPX Aring G -29
KPX Aring C -29
KPX Aring ccedilla -29
KPX Aring c -29
KPX Igrave Icircumflex 29
KPX Igrave Iacute 29
KPX Igrave Igrave 29
KPX Igrave I 29
KPX Iacute Icircumflex 29
KPX Iacute Iacute 29
KPX Iacute Igrave 29
KPX Iacute I 29
KPX Icircumflex Icircumflex 29
KPX Icircumflex Iacute 29
KPX Icircumflex Igrave 29
KPX Icircumflex I 29
KPX Ograve Ydieresis -29
KPX Ograve Yacute -29
KPX Ograve Y -29
KPX Ograve ydieresis -29
KPX Ograve yacute -29
KPX Ograve y -29
KPX Ograve V -29
KPX Ograve v -29
KPX Ograve Aring -29
KPX Ograve Adieresis -29
KPX Ograve Atilde -29
KPX Ograve Acircumflex -29
KPX Ograve Aacute -29
KPX Ograve Agrave -29
KPX Ograve A -29
KPX Ograve ae -29
KPX Ograve aring -29
KPX Ograve adieresis -29
KPX Ograve atilde -29
KPX Ograve acircumflex -29
KPX Ograve aacute -29
KPX Ograve agrave -29
KPX Ograve a -29
KPX Ograve W -29
KPX Ograve w -29
KPX Ograve X -29
KPX Ograve x -29
KPX Oacute Ydieresis -29
KPX Oacute Yacute -29
KPX Oacute Y -29
KPX Oacute ydieresis -29
KPX Oacute yacute -29
KPX Oacute y -29
KPX Oacute V -29
KPX Oacute v -29
KPX Oacute Aring -29
KPX Oacute Adieresis -29
KPX Oacute Atilde -29
KPX Oacute Acircumflex -29
KPX Oacute Aacute -29
KPX Oacute Agrave -29
KPX Oacute A -29
KPX Oacute ae -29
KPX Oacute aring -29
KPX Oacute adieresis -29
KPX Oacute atilde -29
KPX Oacute acircumflex -29
KPX Oacute aacute -29
KPX Oacute agrave -29
KPX Oacute a -29
KPX Oacute W -29
KPX Oacute w -29
KPX Oacute X -29
KPX Oacute x -29
KPX Ocircumflex Ydieresis -29
KPX Ocircumflex Yacute -29
KPX Ocircumflex Y -29
KPX Ocircumflex ydieresis -29
KPX Ocircumflex yacute -29
KPX Ocircumflex y -29
KPX Ocircumflex V -29
KPX Ocircumflex v -29
KPX Ocircumflex Aring -29
KPX Ocircumflex Adieresis -29
KPX Ocircumflex Atilde -29
KPX Ocircumflex Acircumflex -29
KPX Ocircumflex Aacute -29
KPX Ocircumflex Agrave -29
KPX Ocircumflex A -29
KPX Ocircumflex ae -29
KPX Ocircumflex aring -29
KPX Ocircumflex adieresis -29
KPX Ocircumflex atilde -29
KPX Ocircumflex acircumflex -29
KPX Ocircumflex aacute -29
KPX Ocircumflex agrave -29
KPX Ocircumflex a -29
KPX Ocircumflex W -29
KPX Ocircumflex w -29
KPX Ocircumflex X -29
KPX Ocircumflex x -29
KPX Otilde Ydieresis -29
KPX Otilde Yacute -29
KPX Otilde Y -29
KPX Otilde ydieresis -29
KPX Otilde yacute -29
KPX Otilde y -29
KPX Otilde V -29
KPX Otilde v -29
KPX Otilde Aring -29
KPX Otilde Adieresis -29
KPX Otilde Atilde -29
KPX Otilde Acircumflex -29
KPX Otilde Aacute -29
KPX Otilde Agrave -29
KPX Otilde A -29
KPX Otilde ae -29
KPX Otilde aring -29
KPX Otilde adieresis -29
KPX Otilde atilde -29
KPX Otilde acircumflex -29
KPX Otilde aacute -29
KPX Otilde agrave -29
KPX Otilde a -29
KPX Otilde W -29
KPX Otilde w -29
KPX Otilde X -29
KPX Otilde x -29
KPX Odieresis Ydieresis -29
KPX Odieresis Yacute -29
KPX Odieresis Y -29
KPX Odieresis ydieresis -29
KPX Odieresis yacute -29
KPX Odieresis y -29
KPX Odieresis V -29
KPX Odieresis v -29
KPX Odieresis Aring -29
KPX Odieresis Adieresis -29
KPX Odieresis Atilde -29
KPX Odieresis Acircumflex -29
KPX Odieresis Aacute -29
KPX Odieresis Agrave -29
KPX Odieresis A -29
KPX Odieresis ae -29
KPX Odieresis aring -29
KPX Odieresis adieresis -29
KPX Odieresis atilde -29
KPX Odieresis acircumflex -29
KPX Odieresis aacute -29
KPX Odieresis agrave -29
KPX Odieresis a -29
KPX Odieresis W -29
KPX Odieresis w -29
KPX Odieresis X -29
KPX Odieresis x -29
KPX Yacute aring -87
KPX Yacute adieresis -87
KPX Yacute atilde -87
KPX Yacute acircumflex -87
KPX Yacute aacute -87
KPX Yacute agrave -87
KPX Yacute Aring -87
KPX Yacute Adieresis -87
KPX Yacute Atilde -87
KPX Yacute Acircumflex -87
KPX Yacute Aacute -87
KPX Yacute Agrave -87
KPX Yacute A -87
KPX Yacute a -87
KPX agrave oslash -29
KPX agrave w -117
KPX agrave v -117
KPX agrave yacute -29
KPX agrave ydieresis -29
KPX agrave y -87
KPX agrave t -87
KPX agrave quoteright -87
KPX agrave q -29
KPX agrave udieresis -29
KPX agrave ucircumflex -29
KPX agrave uacute -29
KPX agrave ugrave -29
KPX agrave u -29
KPX agrave g -29
KPX agrave oe -29
KPX agrave odieresis -29
KPX agrave otilde -29
KPX agrave ocircumflex -29
KPX agrave oacute -29
KPX agrave ograve -29
KPX agrave o -29
KPX agrave ccedilla -29
KPX agrave c -29
KPX aacute oslash -29
KPX aacute w -117
KPX aacute v -117
KPX aacute yacute -29
KPX aacute ydieresis -29
KPX aacute y -87
KPX aacute t -87
KPX aacute quoteright -87
KPX aacute q -29
KPX aacute udieresis -29
KPX aacute ucircumflex -29
KPX aacute uacute -29
KPX aacute ugrave -29
KPX aacute u -29
KPX aacute g -29
KPX aacute oe -29
KPX aacute odieresis -29
KPX aacute otilde -29
KPX aacute ocircumflex -29
KPX aacute oacute -29
KPX aacute ograve -29
KPX aacute o -29
KPX aacute ccedilla -29
KPX aacute c -29
KPX acircumflex oslash -29
KPX acircumflex w -117
KPX acircumflex v -117
KPX acircumflex yacute -29
KPX acircumflex ydieresis -29
KPX acircumflex y -87
KPX acircumflex t -87
KPX acircumflex quoteright -87
KPX acircumflex q -29
KPX acircumflex udieresis -29
KPX acircumflex ucircumflex -29
KPX acircumflex uacute -29
KPX acircumflex ugrave -29
KPX acircumflex u -29
KPX acircumflex g -29
KPX acircumflex oe -29
KPX acircumflex odieresis -29
KPX acircumflex otilde -29
KPX acircumflex ocircumflex -29
KPX acircumflex oacute -29
KPX acircumflex ograve -29
KPX acircumflex o -29
KPX acircumflex ccedilla -29
KPX acircumflex c -29
KPX atilde oslash -29
KPX atilde w -117
KPX atilde v -117
KPX atilde yacute -29
KPX atilde ydieresis -29
KPX atilde y -87
KPX atilde t -87
KPX atilde quoteright -87
KPX atilde q -29
KPX atilde udieresis -29
KPX atilde ucircumflex -29
KPX atilde uacute -29
KPX atilde ugrave -29
KPX atilde u -29
KPX atilde g -29
KPX atilde oe -29
KPX atilde odieresis -29
KPX atilde otilde -29
KPX atilde ocircumflex -29
KPX atilde oacute -29
KPX atilde ograve -29
KPX atilde o -29
KPX atilde ccedilla -29
KPX atilde c -29
KPX adieresis oslash -29
KPX adieresis w -117
KPX adieresis v -117
KPX adieresis yacute -29
KPX adieresis ydieresis -29
KPX adieresis y -87
KPX adieresis t -87
KPX adieresis quoteright -87
KPX adieresis q -29
KPX adieresis udieresis -29
KPX adieresis ucircumflex -29
KPX adieresis uacute -29
KPX adieresis ugrave -29
KPX adieresis u -29
KPX adieresis g -29
KPX adieresis oe -29
KPX adieresis odieresis -29
KPX adieresis otilde -29
KPX adieresis ocircumflex -29
KPX adieresis oacute -29
KPX adieresis ograve -29
KPX adieresis o -29
KPX adieresis ccedilla -29
KPX adieresis c -29
KPX aring oslash -29
KPX aring w -117
KPX aring v -117
KPX aring yacute -29
KPX aring ydieresis -29
KPX aring y -87
KPX aring t -87
KPX aring quoteright -87
KPX aring q -29
KPX aring udieresis -29
KPX aring ucircumflex -29
KPX aring uacute -29
KPX aring ugrave -29
KPX aring u -29
KPX aring g -29
KPX aring oe -29
KPX aring odieresis -29
KPX aring otilde -29
KPX aring ocircumflex -29
KPX aring oacute -29
KPX aring ograve -29
KPX aring o -29
KPX aring ccedilla -29
KPX aring c -29
KPX igrave idieresis 29
KPX igrave icircumflex 29
KPX igrave iacute 29
KPX igrave igrave 29
KPX igrave dotlessi 29
KPX igrave i 29
KPX iacute idieresis 29
KPX iacute icircumflex 29
KPX iacute iacute 29
KPX iacute igrave 29
KPX iacute dotlessi 29
KPX iacute i 29
KPX icircumflex idieresis 29
KPX icircumflex icircumflex 29
KPX icircumflex iacute 29
KPX icircumflex igrave 29
KPX icircumflex dotlessi 29
KPX icircumflex i 29
KPX idieresis idieresis 29
KPX idieresis icircumflex 29
KPX idieresis iacute 29
KPX idieresis igrave 29
KPX idieresis dotlessi 29
KPX idieresis i 29
KPX ograve yacute -29
KPX ograve ydieresis -29
KPX ograve y -29
KPX ograve v -29
KPX ograve ae -29
KPX ograve aring -29
KPX ograve adieresis -29
KPX ograve atilde -29
KPX ograve acircumflex -29
KPX ograve aacute -29
KPX ograve agrave -29
KPX ograve a -29
KPX ograve w -29
KPX ograve x -29
KPX oacute yacute -29
KPX oacute ydieresis -29
KPX oacute y -29
KPX oacute v -29
KPX oacute ae -29
KPX oacute aring -29
KPX oacute adieresis -29
KPX oacute atilde -29
KPX oacute acircumflex -29
KPX oacute aacute -29
KPX oacute agrave -29
KPX oacute a -29
KPX oacute w -29
KPX oacute x -29
KPX ocircumflex yacute -29
KPX ocircumflex ydieresis -29
KPX ocircumflex y -29
KPX ocircumflex v -29
KPX ocircumflex ae -29
KPX ocircumflex aring -29
KPX ocircumflex adieresis -29
KPX ocircumflex atilde -29
KPX ocircumflex acircumflex -29
KPX ocircumflex aacute -29
KPX ocircumflex agrave -29
KPX ocircumflex a -29
KPX ocircumflex w -29
KPX ocircumflex x -29
KPX otilde yacute -29
KPX otilde ydieresis -29
KPX otilde y -29
KPX otilde v -29
KPX otilde ae -29
KPX otilde aring -29
KPX otilde adieresis -29
KPX otilde atilde -29
KPX otilde acircumflex -29
KPX otilde aacute -29
KPX otilde agrave -29
KPX otilde a -29
KPX otilde w -29
KPX otilde x -29
KPX odieresis yacute -29
KPX odieresis ydieresis -29
KPX odieresis y -29
KPX odieresis v -29
KPX odieresis ae -29
KPX odieresis aring -29
KPX odieresis adieresis -29
KPX odieresis atilde -29
KPX odieresis acircumflex -29
KPX odieresis aacute -29
KPX odieresis agrave -29
KPX odieresis a -29
KPX odieresis w -29
KPX odieresis x -29
KPX yacute ae -87
KPX yacute aring -87
KPX yacute adieresis -87
KPX yacute atilde -87
KPX yacute acircumflex -87
KPX yacute aacute -87
KPX yacute agrave -87
KPX yacute a -87
KPX ydieresis ae -87
KPX ydieresis aring -87
KPX ydieresis adieresis -87
KPX ydieresis atilde -87
KPX ydieresis acircumflex -87
KPX ydieresis aacute -87
KPX ydieresis agrave -87
KPX ydieresis a -87
EndKernPairs
EndKernData
EndFontMetrics
