%!PS-Adobe-3.0 EPSF-3.0
%%Creator: cairo 1.15.10 (http://cairographics.org)
%%CreationDate: Tue Mar 26 19:05:44 2019
%%Pages: 1
%%DocumentData: Clean7Bit
%%LanguageLevel: 2
%%BoundingBox: 0 0 256 85
%%EndComments
%%BeginProlog
50 dict begin
/q { gsave } bind def
/Q { grestore } bind def
/cm { 6 array astore concat } bind def
/w { setlinewidth } bind def
/J { setlinecap } bind def
/j { setlinejoin } bind def
/M { setmiterlimit } bind def
/d { setdash } bind def
/m { moveto } bind def
/l { lineto } bind def
/c { curveto } bind def
/h { closepath } bind def
/re { exch dup neg 3 1 roll 5 3 roll moveto 0 rlineto
      0 exch rlineto 0 rlineto closepath } bind def
/S { stroke } bind def
/f { fill } bind def
/f* { eofill } bind def
/n { newpath } bind def
/W { clip } bind def
/W* { eoclip } bind def
/BT { } bind def
/ET { } bind def
/BDC { mark 3 1 roll /BDC pdfmark } bind def
/EMC { mark /EMC pdfmark } bind def
/cairo_store_point { /cairo_point_y exch def /cairo_point_x exch def } def
/Tj { show currentpoint cairo_store_point } bind def
/TJ {
  {
    dup
    type /stringtype eq
    { show } { -0.001 mul 0 cairo_font_matrix dtransform rmoveto } ifelse
  } forall
  currentpoint cairo_store_point
} bind def
/cairo_selectfont { cairo_font_matrix aload pop pop pop 0 0 6 array astore
    cairo_font exch selectfont cairo_point_x cairo_point_y moveto } bind def
/Tf { pop /cairo_font exch def /cairo_font_matrix where
      { pop cairo_selectfont } if } bind def
/Td { matrix translate cairo_font_matrix matrix concatmatrix dup
      /cairo_font_matrix exch def dup 4 get exch 5 get cairo_store_point
      /cairo_font where { pop cairo_selectfont } if } bind def
/Tm { 2 copy 8 2 roll 6 array astore /cairo_font_matrix exch def
      cairo_store_point /cairo_font where { pop cairo_selectfont } if } bind def
/g { setgray } bind def
/rg { setrgbcolor } bind def
/d1 { setcachedevice } bind def
/cairo_data_source {
  CairoDataIndex CairoData length lt
    { CairoData CairoDataIndex get /CairoDataIndex CairoDataIndex 1 add def }
    { () } ifelse
} def
/cairo_flush_ascii85_file { cairo_ascii85_file status { cairo_ascii85_file flushfile } if } def
/cairo_image { image cairo_flush_ascii85_file } def
/cairo_imagemask { imagemask cairo_flush_ascii85_file } def
%%EndProlog
%%BeginSetup
%%EndSetup
%%Page: 1 1
%%BeginPageSetup
%%PageBoundingBox: 0 0 256 85
%%EndPageSetup
q 0 0 256 85 rectclip
1 0 0 -1 0 85 cm q
0 0.282353 0.388235 rg
152.777 9.16 m 152.777 9.785 152.809 10.262 152.172 10.57 c 152.172 10.602
 l 154.32 10.602 l 154.32 10.57 l 153.77 10.211 153.809 9.742 153.809 9.16
 c 153.809 3.391 l 153.777 3.391 l 153.305 4.207 152.5 4.863 151.59 5.18
 c 151.59 5.211 l 152.777 5.211 l 152.777 9.16 l f
161.648 4.543 m 162.129 4.543 162.609 4.629 163.082 4.727 c 160.5 10.602
 l 162.211 10.602 l 162.211 10.57 l 161.73 10.367 161.938 9.914 162.527 
8.535 c 164.52 3.871 l 160.113 3.871 l 159.652 5.098 l 159.684 5.098 l 160.246
 4.672 160.934 4.543 161.648 4.543 c f
170.574 4.543 m 171.051 4.543 171.539 4.629 172.004 4.727 c 169.43 10.602
 l 171.137 10.602 l 171.137 10.57 l 170.656 10.367 170.859 9.914 171.453
 8.535 c 173.449 3.871 l 169.039 3.871 l 168.582 5.098 l 168.609 5.098 l
 169.172 4.672 169.859 4.543 170.574 4.543 c f
180.141 9.477 m 180.141 9.996 180.199 10.367 179.637 10.57 c 179.637 10.602
 l 181.621 10.602 l 181.621 10.57 l 181.18 10.344 181.172 9.863 181.172 
9.414 c 181.172 9.211 l 181.98 9.211 l 182.469 7.98 l 182.113 8.277 181.641
 8.41 181.172 8.41 c 181.172 3.871 l 179.758 3.871 l 176.578 9.211 l 180.141
 9.211 l h
177.98 8.34 m 180.141 4.613 l 180.141 8.41 l 179.246 8.41 178.512 8.371
 177.98 8.34 c f
77.039 9.863 m 75.742 9.738 l 75.742 7.316 l 76.5 7.316 l 76.813 7.316 
77.246 7.309 77.406 7.602 c 77.438 7.602 l 77.438 6.52 l 77.406 6.52 l 77.285
 6.582 77.125 6.582 76.957 6.582 c 75.742 6.582 l 75.742 4.68 l 76.07 4.613
 76.426 4.605 76.781 4.605 c 77.254 4.605 77.676 4.645 77.988 5.012 c 78.02
 5.012 l 78.02 3.816 l 77.988 3.816 l 77.859 3.891 77.684 3.871 77.512 3.871
 c 74.238 3.871 l 74.238 3.902 l 74.758 4.094 74.695 4.84 74.695 5.313 c
 74.695 9.168 l 74.695 9.629 74.758 10.387 74.238 10.57 c 74.238 10.602 
l 78.504 10.602 l 78.965 9.258 l 78.934 9.258 l 78.422 9.711 77.715 9.922
 77.039 9.863 c f
86.695 7.203 m 87.156 7.391 87.168 7.891 87.168 8.363 c 87.168 9.832 l 
86.707 9.969 86.215 10.027 85.742 10.027 c 84.129 10.027 82.82 8.781 82.82
 7.133 c 82.82 5.484 84.039 4.445 85.633 4.445 c 86.254 4.445 87.035 4.586
 87.453 5.055 c 87.484 5.055 l 87.484 3.879 l 86.949 3.766 86.422 3.707 
85.879 3.707 c 83.402 3.707 81.652 5.078 81.652 7.277 c 81.652 9.332 83.199
 10.762 85.816 10.762 c 86.645 10.762 87.445 10.609 88.262 10.457 c 88.199
 10.313 88.211 10.152 88.211 9.996 c 88.211 7.645 l 88.211 7.492 88.211 
7.328 88.262 7.203 c 88.262 7.172 l 86.695 7.172 l 86.695 7.203 l f
93.938 9.863 m 92.641 9.738 l 92.641 7.316 l 93.398 7.316 l 93.715 7.316
 94.145 7.309 94.305 7.602 c 94.336 7.602 l 94.336 6.52 l 94.305 6.52 l 
94.188 6.582 94.023 6.582 93.859 6.582 c 92.641 6.582 l 92.641 4.68 l 92.969
 4.613 93.324 4.605 93.684 4.605 c 94.156 4.605 94.574 4.645 94.891 5.012
 c 94.922 5.012 l 94.922 3.816 l 94.891 3.816 l 94.758 3.891 94.586 3.871
 94.41 3.871 c 91.137 3.871 l 91.137 3.902 l 91.66 4.094 91.598 4.84 91.598
 5.313 c 91.598 9.168 l 91.598 9.629 91.66 10.387 91.137 10.57 c 91.137 
10.602 l 95.402 10.602 l 95.863 9.258 l 95.832 9.258 l 95.32 9.711 94.617
 9.922 93.938 9.863 c f
103.137 9.172 m 101.66 7.316 l 102.5 7.121 103.289 6.418 103.289 5.516 
c 103.289 4.586 102.539 3.871 101.172 3.871 c 98.738 3.871 l 98.738 3.902
 l 99.258 4.094 99.188 4.84 99.188 5.313 c 99.188 9.172 l 99.188 9.629 99.258
 10.387 98.738 10.57 c 98.738 10.602 l 100.691 10.602 l 100.691 10.57 l 
100.172 10.387 100.23 9.641 100.23 9.172 c 100.23 4.586 l 100.465 4.543 
100.691 4.516 100.926 4.504 c 101.613 4.473 102.242 4.902 102.242 5.641 
c 102.242 6.602 101.293 6.98 100.477 7.102 c 101.418 8.547 l 102.664 10.09
 l 102.973 10.469 103.309 10.602 103.852 10.602 c 104.793 10.602 l 104.207
 10.234 103.563 9.699 103.137 9.172 c f
128.234 22.066 m 113.488 28.605 l 107.441 28.594 l 107.441 32.273 l 54.52
 32.254 l 55.582 33.84 l 55.582 62.5 l 0 62.5 l 0 63.527 l 254.828 63.527
 l 254.828 62.5 l 200.867 62.5 l 200.867 33.84 l 201.93 32.254 l 149.008
 32.273 l 149.008 28.594 l 143.105 28.605 l h
128.234 23.016 m 140.734 28.605 l 115.715 28.605 l h
108.32 29.824 m 111.902 29.824 l 111.926 51.219 l 108.32 51.219 l h
112.758 29.824 m 114.844 29.824 l 114.844 51.219 l 112.762 51.219 l h
115.727 29.824 m 140.723 29.824 l 140.723 51.219 l 137.898 51.227 l 137.887
 44.957 l 137.887 44.043 137.262 43.129 135.926 43.129 c 134.598 43.129 
133.973 44.18 133.973 44.902 c 133.973 51.223 l 130.195 51.223 l 130.195
 44.953 l 130.195 44.043 129.566 43.129 128.238 43.129 c 126.906 43.129 
126.25 44.043 126.25 44.953 c 126.25 51.219 l 122.477 51.219 l 122.477 44.902
 l 122.477 44.18 121.848 43.129 120.52 43.129 c 119.191 43.129 118.563 44.043
 118.563 44.953 c 118.551 51.227 l 115.727 51.219 l h
141.578 29.824 m 143.66 29.824 l 143.66 51.219 l 141.578 51.223 l h
144.516 29.824 m 148.094 29.824 l 148.094 51.219 l 144.496 51.219 l h
107.441 33.824 m 107.441 51.219 l 76.941 51.219 l 76.941 33.898 l h
149.008 33.824 m 179.504 33.898 l 179.504 51.219 l 149.008 51.219 l h
56.48 33.898 m 58.492 33.898 l 58.516 51.219 l 56.48 51.219 l h
59.398 33.898 m 73.145 33.898 l 73.145 51.219 l 59.375 51.219 l h
73.973 33.898 m 76.039 33.898 l 76.039 51.219 l 73.973 51.219 l h
180.41 33.898 m 182.477 33.898 l 182.477 51.219 l 180.41 51.219 l h
183.305 33.898 m 197.051 33.898 l 197.074 51.219 l 183.305 51.219 l h
197.957 33.898 m 199.973 33.898 l 199.973 51.219 l 197.934 51.219 l h
56.48 52.102 m 58.492 52.102 l 58.492 62.492 l 56.48 62.492 l h
108.32 52.102 m 111.902 52.109 l 111.902 62.5 l 108.32 62.5 l h
114.844 52.102 m 114.844 62.492 l 112.758 62.5 l 112.758 52.109 l h
115.727 52.102 m 116.16 52.102 l 116.16 52.91 l 117.008 52.91 l 117.008
 52.102 l 117.711 52.102 l 117.707 52.91 l 118.563 52.91 l 118.563 52.102
 l 122.477 52.102 l 122.477 52.91 l 123.332 52.91 l 123.332 52.102 l 124.105
 52.109 l 124.105 52.91 l 124.957 52.91 l 124.957 52.102 l 131.492 52.102
 l 131.492 52.91 l 132.344 52.91 l 132.344 52.109 l 133.117 52.102 l 133.117
 52.91 l 133.973 52.91 l 133.973 52.102 l 137.887 52.102 l 137.887 52.91
 l 138.738 52.91 l 138.738 52.102 l 139.441 52.102 l 139.441 52.91 l 140.289
 52.91 l 140.289 52.102 l 140.723 52.102 l 140.734 62.5 l 137.887 62.5 l
 137.887 56.043 l 137.887 55.133 137.262 54.219 135.926 54.219 c 134.598
 54.219 133.973 55.133 133.973 56.043 c 133.961 62.504 l 130.895 62.5 l 
130.895 56.105 l 130.895 55.09 130.133 53.684 128.238 53.66 c 128.211 53.66
 l 126.316 53.684 125.555 55.09 125.555 56.105 c 125.555 62.5 l 122.477 
62.5 l 122.477 56.043 l 122.477 55.133 121.848 54.219 120.52 54.219 c 119.191
 54.219 118.563 55.133 118.563 56.043 c 118.563 62.5 l 115.715 62.5 l h
141.605 52.102 m 143.691 52.109 l 143.691 62.5 l 141.605 62.492 l h
148.125 52.102 m 148.125 62.5 l 144.547 62.5 l 144.547 52.109 l h
197.957 52.102 m 199.973 52.102 l 199.973 62.492 l 197.957 62.492 l h
59.398 52.109 m 73.145 52.109 l 73.145 62.5 l 59.398 62.5 l h
73.973 52.109 m 76.039 52.109 l 76.039 62.492 l 73.973 62.5 l h
76.941 52.109 m 107.441 52.109 l 107.441 62.5 l 76.941 62.5 l h
149.004 52.109 m 179.504 52.109 l 179.504 62.5 l 149.004 62.5 l h
180.41 52.109 m 182.477 52.109 l 182.477 62.5 l 180.41 62.492 l h
183.305 52.109 m 197.051 52.109 l 197.051 62.5 l 183.305 62.5 l h
183.305 52.109 m f
149.832 28.594 m 149.832 31.563 l 177.422 31.563 l 186.547 21.426 l 182.469
 18.645 l 146.844 18.609 l 151.586 28.594 l 149.832 28.594 l f
142.441 17.969 m 146.129 18.309 l 136.574 12.172 l 142.441 17.969 l f
145.746 27.871 m 150.453 27.871 l 146.316 18.984 l 142.594 18.609 l 145.746
 27.871 l f
138.422 42.504 m 138.422 41.953 l 138.766 41.953 l 138.766 41.379 l 135.926
 40.23 l 133.09 41.379 l 133.09 41.953 l 133.438 41.953 l 133.438 42.504
 l 134 42.504 l 134 41.957 l 137.871 41.957 l 137.871 42.504 l 138.422 42.504
 l f
137.887 39.035 m 137.887 39.035 137.887 35.441 137.887 34.523 c 137.887
 33.609 137.262 32.699 135.93 32.699 c 134.602 32.699 133.973 33.609 133.973
 34.523 c 133.973 35.441 133.973 39.035 133.973 39.035 c 137.887 39.035 
l f
138.781 30.918 m 133.066 30.918 l 133.066 31.566 l 133.426 31.566 l 133.426
 32.367 l 133.973 32.367 l 133.973 32.02 l 133.973 32.02 134.652 31.566 
135.926 31.566 c 137.215 31.566 137.887 32.02 137.887 32.02 c 137.887 32.367
 l 138.406 32.367 l 138.406 31.566 l 138.781 31.566 l 138.781 30.918 l f
159.422 55.676 m 159.422 54.883 158.902 54.57 157.945 54.57 c 156.984 54.57
 156.504 54.883 156.504 55.676 c 156.504 56.469 156.504 59.91 156.504 59.91
 c 159.422 59.91 l 159.422 59.91 159.422 56.469 159.422 55.676 c f
165.715 55.676 m 165.715 54.883 165.195 54.57 164.238 54.57 c 163.281 54.57
 162.801 54.883 162.801 55.676 c 162.801 56.469 162.801 59.91 162.801 59.91
 c 165.715 59.91 l 165.715 59.91 165.715 56.469 165.715 55.676 c f
172.008 55.676 m 172.008 54.883 171.488 54.57 170.527 54.57 c 169.574 54.57
 169.094 54.883 169.094 55.676 c 169.094 56.469 169.094 59.91 169.094 59.91
 c 172.008 59.91 l 172.008 59.91 172.008 56.469 172.008 55.676 c f
178.305 55.676 m 178.305 54.883 177.781 54.57 176.824 54.57 c 175.867 54.57
 175.387 54.883 175.387 55.676 c 175.387 56.469 175.387 59.91 175.387 59.91
 c 178.305 59.91 l 178.305 59.91 178.305 56.469 178.305 55.676 c f
153.125 55.676 m 153.125 54.883 152.609 54.57 151.648 54.57 c 150.691 54.57
 150.211 54.883 150.211 55.676 c 150.211 56.469 150.211 59.91 150.211 59.91
 c 153.125 59.91 l 153.125 59.91 153.125 56.469 153.125 55.676 c f
159.422 35.711 m 159.422 34.902 158.902 34.586 157.945 34.586 c 156.988
 34.586 156.508 34.902 156.508 35.711 c 156.508 36.516 156.508 39.93 156.508
 39.93 c 159.422 39.93 l 159.422 39.93 159.422 36.516 159.422 35.711 c f
165.715 35.711 m 165.715 34.902 165.195 34.586 164.238 34.586 c 163.281
 34.586 162.801 34.902 162.801 35.711 c 162.801 36.516 162.801 39.93 162.801
 39.93 c 165.715 39.93 l 165.715 39.93 165.715 36.516 165.715 35.711 c f
172.008 35.711 m 172.008 34.902 171.488 34.586 170.527 34.586 c 169.574
 34.586 169.094 34.902 169.094 35.711 c 169.094 36.516 169.094 39.93 169.094
 39.93 c 172.008 39.93 l 172.008 39.93 172.008 36.516 172.008 35.711 c f
178.301 35.711 m 178.301 34.902 177.781 34.586 176.824 34.586 c 175.867
 34.586 175.383 34.902 175.383 35.711 c 175.383 36.516 175.383 39.93 175.383
 39.93 c 178.301 39.93 l 178.301 39.93 178.301 36.516 178.301 35.711 c f
153.129 35.711 m 153.129 34.902 152.609 34.586 151.648 34.586 c 150.695
 34.586 150.215 34.902 150.215 35.711 c 150.215 36.516 150.215 39.93 150.215
 39.93 c 153.129 39.93 l 153.129 39.93 153.129 36.516 153.129 35.711 c f
172.008 43.262 m 172.008 43.227 172.008 43.207 172.008 43.207 c 169.094
 43.207 l 169.094 43.207 169.094 43.227 169.094 43.262 c 169.094 48.859 
l 172.008 48.859 l 172.008 43.262 l f
178.301 43.262 m 178.301 43.227 178.301 43.207 178.301 43.207 c 175.383
 43.207 l 175.383 43.207 175.383 43.227 175.383 43.262 c 175.383 48.859 
l 178.301 48.859 l 178.301 43.262 l f
165.715 43.262 m 165.715 43.227 165.715 43.207 165.715 43.207 c 162.801
 43.207 l 162.801 43.207 162.801 43.227 162.801 43.262 c 162.801 48.859 
l 165.715 48.859 l 165.715 43.262 l f
159.422 43.262 m 159.422 43.227 159.422 43.207 159.422 43.207 c 156.508
 43.207 l 156.508 43.207 156.508 43.227 156.508 43.262 c 156.508 48.859 
l 159.422 48.859 l 159.422 43.262 l f
153.129 43.262 m 153.129 43.227 153.129 43.207 153.129 43.207 c 150.215
 43.207 l 150.215 43.207 150.215 43.227 150.215 43.262 c 150.215 48.859 
l 153.129 48.859 l 153.129 43.262 l f
188.5 55.766 m 188.5 54.969 187.98 54.66 187.023 54.66 c 186.063 54.66 
185.582 54.969 185.582 55.766 c 185.582 56.559 185.582 60 185.582 60 c 188.5
 60 l 188.5 60 188.5 56.559 188.5 55.766 c f
194.797 55.766 m 194.797 54.969 194.273 54.66 193.316 54.66 c 192.359 54.66
 191.879 54.969 191.879 55.766 c 191.879 56.559 191.879 60 191.879 60 c 
194.797 60 l 194.797 60 194.797 56.559 194.797 55.766 c f
187.023 34.629 m 186.063 34.629 185.582 34.938 185.582 35.73 c 185.582 
36.523 185.582 39.891 185.582 39.891 c 188.5 39.891 l 188.5 39.891 188.5
 36.523 188.5 35.73 c 188.5 34.938 187.98 34.629 187.023 34.629 c f
193.316 34.629 m 192.359 34.629 191.879 34.938 191.879 35.73 c 191.879 
36.523 191.879 39.891 191.879 39.891 c 194.797 39.891 l 194.797 39.891 194.797
 36.523 194.797 35.73 c 194.797 34.938 194.273 34.629 193.316 34.629 c f
185.586 43.262 m 185.586 48.859 l 188.5 48.859 l 188.5 43.262 l 188.5 43.227
 188.5 43.207 188.5 43.207 c 185.586 43.207 l 185.586 43.207 185.586 43.227
 185.586 43.262 c f
191.879 43.262 m 191.879 48.859 l 194.793 48.859 l 194.793 43.262 l 194.793
 43.227 194.793 43.207 194.793 43.207 c 191.879 43.207 l 191.879 43.207 
191.879 43.227 191.879 43.262 c f
187.781 21.043 m 178.398 31.586 l 201.93 31.586 l 202.371 31.582 l 202.676
 31.164 l 193.477 24.918 l 193.301 24.293 192.926 23.531 192.16 22.969 c
 191.188 22.254 190.305 22.238 189.637 22.313 c h
190.125 23.117 m 190.129 23.117 l 191.25 23.098 192.621 23.996 192.719 
25.547 c 192.75 25.988 192.676 26.191 192.582 26.508 c 192.457 26.949 192.578
 27.316 192.82 27.617 c 193.121 27.984 193.402 28.297 194.613 28.297 c 196.234
 28.305 l 196.234 29.816 l 183.992 29.816 l 183.992 28.305 l 185.613 28.297
 l 186.824 28.297 187.102 27.984 187.402 27.617 c 187.652 27.316 187.77 
26.949 187.641 26.508 c 187.555 26.191 187.477 25.988 187.504 25.547 c 187.609
 23.996 189.004 23.098 190.125 23.117 c h
190.125 23.117 m f
146.414 33.992 m 145.863 33.992 145.602 34.793 145.602 35.598 c 145.602
 36.398 145.602 39.301 145.602 39.301 c 147.227 39.301 l 147.227 39.301 
147.227 36.398 147.227 35.598 c 147.227 34.793 146.969 33.992 146.414 33.992
 c f
146.414 42.824 m 145.863 42.824 145.602 43.625 145.602 44.43 c 145.602 
45.23 145.602 48.133 145.602 48.133 c 147.227 48.133 l 147.227 48.133 147.227
 45.23 147.227 44.43 c 147.227 43.625 146.969 42.824 146.414 42.824 c f
146.414 54.191 m 145.863 54.191 145.602 54.992 145.602 55.793 c 145.602
 56.598 145.602 59.5 145.602 59.5 c 147.227 59.5 l 147.227 59.5 147.227 
56.598 147.227 55.793 c 147.227 54.992 146.969 54.191 146.414 54.191 c f
190.156 27.242 m 191.012 27.242 191.703 26.547 191.703 25.691 c 191.703
 24.84 191.012 24.145 190.156 24.145 c 189.301 24.145 188.605 24.84 188.605
 25.691 c 188.605 26.547 189.301 27.242 190.156 27.242 c f
114.004 17.969 m 110.32 18.309 l 119.879 12.172 l 114.004 17.969 l f
110.703 27.871 m 105.996 27.871 l 110.133 18.984 l 113.859 18.609 l 110.703
 27.871 l f
144.93 27.871 m 143.254 27.871 l 128.234 21.223 l 113.195 27.871 l 111.52
 27.871 l 114.645 18.609 l 141.805 18.609 l 144.93 27.871 l f
118.027 42.504 m 118.027 41.953 l 117.684 41.953 l 117.684 41.379 l 120.52
 40.23 l 123.355 41.379 l 123.355 41.953 l 123.016 41.953 l 123.016 42.504
 l 122.449 42.504 l 122.449 41.957 l 118.578 41.957 l 118.578 42.504 l 118.027
 42.504 l f
118.563 39.035 m 118.563 39.035 118.563 35.441 118.563 34.523 c 118.563
 33.609 119.191 32.699 120.52 32.699 c 121.852 32.699 122.477 33.609 122.477
 34.523 c 122.477 35.441 122.477 39.035 122.477 39.035 c 118.563 39.035 
l f
117.664 30.918 m 123.383 30.918 l 123.383 31.566 l 123.02 31.566 l 123.02
 32.367 l 122.477 32.367 l 122.477 32.02 l 122.477 32.02 121.797 31.566 
120.52 31.566 c 119.23 31.566 118.563 32.02 118.563 32.02 c 118.563 32.367
 l 118.039 32.367 l 118.039 31.566 l 117.664 31.566 l 117.664 30.918 l f
128.234 0 m 131.223 0.07 131.449 3.039 131.449 3.039 c 125 3.039 l 125 
3.039 125.23 0.07 128.211 0 c 128.211 0.141 l 128.234 0 l f
97.027 55.676 m 97.027 54.883 97.547 54.57 98.508 54.57 c 99.461 54.57 
99.945 54.883 99.945 55.676 c 99.945 56.469 99.945 59.91 99.945 59.91 c 
97.027 59.91 l 97.027 59.91 97.027 56.469 97.027 55.676 c f
130.195 42.504 m 130.195 41.957 l 126.277 41.957 l 126.277 42.504 l 125.746
 42.504 l 125.746 41.953 l 125.402 41.953 l 125.402 41.379 l 128.238 40.23
 l 131.07 41.379 l 131.07 41.953 l 130.727 41.953 l 130.727 42.504 l 130.195
 42.504 l f
130.199 32.02 m 130.199 32.02 129.523 31.566 128.238 31.566 c 126.949 31.566
 126.273 32.02 126.273 32.02 c 126.273 32.367 l 125.75 32.367 l 125.75 31.566
 l 125.375 31.566 l 125.375 30.918 l 131.094 30.918 l 131.094 31.566 l 130.723
 31.566 l 130.723 32.367 l 130.199 32.367 l 130.199 32.02 l f
90.734 55.676 m 90.734 54.883 91.254 54.57 92.211 54.57 c 93.172 54.57 
93.652 54.883 93.652 55.676 c 93.652 56.469 93.652 59.91 93.652 59.91 c 
90.734 59.91 l 90.734 59.91 90.734 56.469 90.734 55.676 c f
128.242 32.699 m 129.57 32.699 130.199 33.609 130.199 34.527 c 130.199 
39.035 l 126.25 39.035 l 126.25 34.527 l 126.25 33.609 126.879 32.699 128.207
 32.699 c 128.242 32.699 l f
84.441 55.676 m 84.441 54.883 84.961 54.57 85.918 54.57 c 86.875 54.57 
87.355 54.883 87.355 55.676 c 87.355 56.469 87.355 59.91 87.355 59.91 c 
84.441 59.91 l 84.441 59.91 84.441 56.469 84.441 55.676 c f
78.148 55.676 m 78.148 54.883 78.664 54.57 79.621 54.57 c 80.578 54.57 
81.059 54.883 81.059 55.676 c 81.059 56.469 81.059 59.91 81.059 59.91 c 
78.148 59.91 l 78.148 59.91 78.148 56.469 78.148 55.676 c f
103.32 55.676 m 103.32 54.883 103.844 54.57 104.801 54.57 c 105.758 54.57
 106.238 54.883 106.238 55.676 c 106.238 56.469 106.238 59.91 106.238 59.91
 c 103.32 59.91 l 103.32 59.91 103.32 56.469 103.32 55.676 c f
97.027 35.711 m 97.027 34.902 97.547 34.586 98.504 34.586 c 99.461 34.586
 99.945 34.902 99.945 35.711 c 99.945 36.516 99.945 39.93 99.945 39.93 c
 97.027 39.93 l 97.027 39.93 97.027 36.516 97.027 35.711 c f
90.734 35.711 m 90.734 34.902 91.254 34.586 92.211 34.586 c 93.172 34.586
 93.652 34.902 93.652 35.711 c 93.652 36.516 93.652 39.93 93.652 39.93 c
 90.734 39.93 l 90.734 39.93 90.734 36.516 90.734 35.711 c f
84.441 35.711 m 84.441 34.902 84.961 34.586 85.918 34.586 c 86.875 34.586
 87.355 34.902 87.355 35.711 c 87.355 36.516 87.355 39.93 87.355 39.93 c
 84.441 39.93 l 84.441 39.93 84.441 36.516 84.441 35.711 c f
78.148 35.711 m 78.148 34.902 78.668 34.586 79.625 34.586 c 80.582 34.586
 81.063 34.902 81.063 35.711 c 81.063 36.516 81.063 39.93 81.063 39.93 c
 78.148 39.93 l 78.148 39.93 78.148 36.516 78.148 35.711 c f
103.32 35.711 m 103.32 34.902 103.84 34.586 104.801 34.586 c 105.754 34.586
 106.234 34.902 106.234 35.711 c 106.234 36.516 106.234 39.93 106.234 39.93
 c 103.32 39.93 l 103.32 39.93 103.32 36.516 103.32 35.711 c f
84.441 43.262 m 84.441 43.227 84.441 43.207 84.441 43.207 c 87.355 43.207
 l 87.355 43.207 87.355 43.227 87.355 43.262 c 87.355 48.859 l 84.441 48.859
 l 84.441 43.262 l f
78.148 43.262 m 78.148 43.227 78.148 43.207 78.148 43.207 c 81.063 43.207
 l 81.063 43.207 81.063 43.227 81.063 43.262 c 81.063 48.859 l 78.148 48.859
 l 78.148 43.262 l f
90.734 43.262 m 90.734 43.227 90.734 43.207 90.734 43.207 c 93.652 43.207
 l 93.652 43.207 93.652 43.227 93.652 43.262 c 93.652 48.859 l 90.734 48.859
 l 90.734 43.262 l f
97.027 43.262 m 97.027 43.227 97.027 43.207 97.027 43.207 c 99.945 43.207
 l 99.945 43.207 99.945 43.227 99.945 43.262 c 99.945 48.859 l 97.027 48.859
 l 97.027 43.262 l f
103.32 43.262 m 103.32 43.227 103.32 43.207 103.32 43.207 c 106.234 43.207
 l 106.234 43.207 106.234 43.227 106.234 43.262 c 106.234 48.859 l 103.32
 48.859 l 103.32 43.262 l f
67.949 55.766 m 67.949 54.969 68.469 54.66 69.426 54.66 c 70.383 54.66 
70.863 54.969 70.863 55.766 c 70.863 56.559 70.863 60 70.863 60 c 67.949
 60 l 67.949 60 67.949 56.559 67.949 55.766 c f
61.656 55.766 m 61.656 54.969 62.172 54.66 63.133 54.66 c 64.09 54.66 64.57
 54.969 64.57 55.766 c 64.57 56.559 64.57 60 64.57 60 c 61.656 60 l 61.656
 60 61.656 56.559 61.656 55.766 c f
69.426 34.629 m 70.383 34.629 70.863 34.938 70.863 35.73 c 70.863 36.523
 70.863 39.891 70.863 39.891 c 67.949 39.891 l 67.949 39.891 67.949 36.523
 67.949 35.73 c 67.949 34.938 68.469 34.629 69.426 34.629 c f
63.133 34.629 m 64.09 34.629 64.57 34.938 64.57 35.73 c 64.57 36.523 64.57
 39.891 64.57 39.891 c 61.656 39.891 l 61.656 39.891 61.656 36.523 61.656
 35.73 c 61.656 34.938 62.172 34.629 63.133 34.629 c f
70.863 43.262 m 70.863 48.859 l 67.949 48.859 l 67.949 43.262 l 67.949 
43.227 67.949 43.207 67.949 43.207 c 70.863 43.207 l 70.863 43.207 70.863
 43.227 70.863 43.262 c f
64.57 43.262 m 64.57 48.859 l 61.656 48.859 l 61.656 43.262 l 61.656 43.227
 61.656 43.207 61.656 43.207 c 64.57 43.207 l 64.57 43.207 64.57 43.227 
64.57 43.262 c f
106.613 28.594 m 106.613 31.563 l 79.027 31.563 l 69.902 21.426 l 73.977
 18.645 l 109.605 18.609 l 104.863 28.594 l 106.613 28.594 l f
68.672 21.043 m 66.813 22.313 l 66.145 22.238 65.262 22.254 64.289 22.969
 c 63.52 23.531 63.152 24.293 62.973 24.918 c 53.773 31.164 l 54.078 31.582
 l 54.52 31.586 l 78.051 31.586 l h
66.32 23.117 m 66.324 23.117 l 67.445 23.102 68.844 23.996 68.945 25.547
 c 68.973 25.988 68.898 26.191 68.805 26.508 c 68.68 26.949 68.801 27.316
 69.043 27.617 c 69.344 27.984 69.625 28.297 70.832 28.297 c 72.457 28.305
 l 72.457 29.816 l 60.211 29.816 l 60.211 28.305 l 61.836 28.297 l 63.047
 28.297 63.324 27.984 63.625 27.617 c 63.875 27.316 63.992 26.949 63.863
 26.508 c 63.773 26.191 63.699 25.988 63.727 25.547 c 63.832 23.996 65.199
 23.102 66.32 23.117 c h
66.32 23.117 m f
122.18 3.754 m 120.832 4.547 l 120.832 8.07 l 118.969 8.563 l 118.969 12.063
 l 121.906 10.746 l 115.047 17.969 l 141.406 17.969 l 134.547 10.746 l 137.477
 12.063 l 137.477 8.563 l 135.613 8.07 l 135.613 4.547 l 134.27 3.754 l 
h
122.543 4.34 m 133.91 4.34 l 133.879 5.828 l 132.645 7.59 l 123.801 7.59
 l 122.57 5.828 l h
122.816 8.32 m 133.637 8.32 l 133.637 9.754 l 122.816 9.754 l h
122.066 8.418 m 122.066 9.961 l 119.551 11.012 l 119.551 9.039 l h
134.379 8.418 m 136.898 9.039 l 136.898 11.012 l 134.379 9.961 l h
134.379 8.418 m f
110.035 33.992 m 110.59 33.992 110.848 34.793 110.848 35.598 c 110.848 
36.398 110.848 39.301 110.848 39.301 c 109.223 39.301 l 109.223 39.301 109.223
 36.398 109.223 35.598 c 109.223 34.793 109.484 33.992 110.035 33.992 c f
110.035 42.824 m 110.59 42.824 110.848 43.625 110.848 44.43 c 110.848 45.23
 110.848 48.133 110.848 48.133 c 109.223 48.133 l 109.223 48.133 109.223
 45.23 109.223 44.43 c 109.223 43.625 109.484 42.824 110.035 42.824 c f
110.035 54.191 m 110.59 54.191 110.848 54.992 110.848 55.793 c 110.848 
56.598 110.848 59.5 110.848 59.5 c 109.223 59.5 l 109.223 59.5 109.223 56.598
 109.223 55.793 c 109.223 54.992 109.484 54.191 110.035 54.191 c f
66.293 27.242 m 65.438 27.242 64.746 26.547 64.746 25.691 c 64.746 24.84
 65.438 24.145 66.293 24.145 c 67.148 24.145 67.84 24.84 67.84 25.691 c 
67.84 26.547 67.148 27.242 66.293 27.242 c f
0 0.278431 0.423529 rg
2.016 73.594 m 2.98 73.594 l 3.387 73.594 3.934 73.578 4.141 73.961 c 4.18
 73.961 l 4.18 72.578 l 4.141 72.578 l 3.984 72.656 3.777 72.656 3.57 72.656
 c 2.016 72.656 l 2.016 70.23 l 2.434 70.152 2.891 70.141 3.344 70.141 c
 3.945 70.141 4.48 70.191 4.887 70.66 c 4.922 70.66 l 4.922 69.137 l 4.887
 69.137 l 4.715 69.227 4.496 69.199 4.273 69.199 c 0.098 69.199 l 0.098 
69.238 l 0.766 69.488 0.688 70.441 0.688 71.039 c 0.688 75.953 l 0.688 76.543
 0.766 77.508 0.098 77.742 c 0.098 77.781 l 5.539 77.781 l 6.125 76.07 l
 6.086 76.07 l 5.434 76.648 4.535 76.918 3.672 76.844 c 2.016 76.684 l 2.016
 73.594 l f*
14.902 69.277 m 14.277 69.082 13.613 68.992 12.957 68.992 c 11.367 68.992
 9.684 69.621 9.684 71.262 c 9.684 74.023 14.172 73.66 14.172 75.695 c 14.172
 76.605 13.051 77.051 12.305 77.051 c 11.289 77.051 10.219 76.633 9.449 
75.969 c 9.828 77.598 l 10.574 77.871 11.367 77.988 12.164 77.988 c 14.195
 77.988 15.656 76.688 15.656 75.289 c 15.656 72.879 11.168 72.902 11.168
 71.117 c 11.168 70.215 12.109 69.93 12.855 69.93 c 13.582 69.93 14.391 
70.23 14.902 70.754 c 14.902 69.277 l f*
26.078 77.781 m 26.805 76.125 l 26.77 76.125 l 25.961 76.605 25.141 76.895
 24.188 76.844 c 21.449 76.684 l 26.141 69.199 l 20.379 69.199 l 19.715 
70.699 l 19.754 70.699 l 20.43 70.258 20.898 70.086 21.707 70.141 c 23.926
 70.27 l 19.203 77.781 l 26.078 77.781 l f*
33.484 70.141 m 34.656 70.141 l 35.09 70.141 35.609 70.203 35.777 70.66
 c 35.816 70.66 l 36.234 69.105 l 36.199 69.105 l 36.027 69.188 35.816 69.199
 35.598 69.199 c 30.41 69.199 l 30.238 69.176 30.066 69.176 29.914 69.105
 c 29.871 69.105 l 29.414 70.66 l 29.457 70.66 l 29.859 70.281 30.445 70.141
 31.004 70.141 c 32.156 70.141 l 32.156 75.953 l 32.156 76.543 32.234 77.492
 31.582 77.742 c 31.582 77.781 l 34.164 77.781 l 34.164 77.742 l 33.473 
77.336 33.484 76.832 33.484 76.086 c 33.484 70.141 l f*
41.352 73.594 m 42.316 73.594 l 42.719 73.594 43.27 73.578 43.477 73.961
 c 43.516 73.961 l 43.516 72.578 l 43.477 72.578 l 43.32 72.656 43.113 72.656
 42.902 72.656 c 41.352 72.656 l 41.352 70.23 l 41.77 70.152 42.223 70.141
 42.68 70.141 c 43.281 70.141 43.816 70.191 44.223 70.66 c 44.258 70.66 
l 44.258 69.137 l 44.223 69.137 l 44.051 69.227 43.828 69.199 43.609 69.199
 c 39.434 69.199 l 39.434 69.238 l 40.102 69.488 40.02 70.441 40.02 71.039
 c 40.02 75.953 l 40.02 76.543 40.102 77.508 39.434 77.742 c 39.434 77.781
 l 44.875 77.781 l 45.461 76.07 l 45.418 76.07 l 44.766 76.648 43.871 76.918
 43.008 76.844 c 41.352 76.684 l 41.352 73.594 l f*
49.164 69.199 m 49.164 69.238 l 49.828 69.488 49.734 70.441 49.734 71.039
 c 49.734 75.957 l 49.734 76.543 49.828 77.508 49.164 77.742 c 49.164 77.785
 l 51.652 77.785 l 51.652 77.742 l 50.988 77.508 51.066 76.555 51.066 75.957
 c 51.066 70.113 l 51.367 70.059 51.652 70.023 51.953 70.008 c 52.828 69.973
 53.637 70.516 53.637 71.457 c 53.637 72.684 52.422 73.164 51.383 73.324
 c 52.578 75.16 l 54.172 77.133 l 54.559 77.613 54.992 77.785 55.684 77.785
 c 56.883 77.785 l 56.137 77.313 55.316 76.633 54.773 75.957 c 52.891 73.594
 l 53.965 73.348 54.965 72.445 54.965 71.301 c 54.965 70.113 54.016 69.199
 52.266 69.199 c 49.164 69.199 l f
65.723 73.594 m 65.723 75.953 l 65.723 76.543 65.816 77.492 65.152 77.742
 c 65.152 77.781 l 67.641 77.781 l 67.641 77.742 l 66.977 77.492 67.055 
76.543 67.055 75.953 c 67.055 71.027 l 67.055 70.441 66.977 69.488 67.641
 69.238 c 67.641 69.199 l 65.152 69.199 l 65.152 69.238 l 65.816 69.488 
65.723 70.441 65.723 71.039 c 65.723 72.656 l 61.02 72.656 l 61.02 71.039
 l 61.02 70.441 60.938 69.488 61.59 69.238 c 61.59 69.199 l 59.113 69.199
 l 59.113 69.238 l 59.777 69.488 59.688 70.441 59.688 71.027 c 59.688 75.953
 l 59.688 76.543 59.766 77.492 59.113 77.742 c 59.113 77.781 l 61.59 77.781
 l 61.59 77.742 l 60.938 77.492 61.02 76.543 61.02 75.953 c 61.02 73.594
 l 65.723 73.594 l f
74.219 68.77 m 77.762 67.703 l 77.047 66.75 l h
77.23 74.559 m 77.934 76.398 l 78.289 77.313 78.391 77.457 77.75 77.742
 c 77.75 77.781 l 80.426 77.781 l 80.426 77.742 l 79.68 77.363 79.449 76.633
 79.148 75.891 c 76.434 69.199 l 74.371 69.199 l 74.371 69.238 l 75 69.434
 74.75 69.984 74.566 70.453 c 72.395 75.891 l 72.094 76.633 71.883 77.363
 71.129 77.742 c 71.129 77.781 l 73.527 77.781 l 73.527 77.742 l 72.898 
77.508 72.992 77.129 73.266 76.398 c 73.941 74.559 l h
76.852 73.594 m 74.285 73.594 l 75.574 70.309 l 76.852 73.594 l f*
90.43 77.781 m 91.16 76.125 l 91.121 76.125 l 90.313 76.605 89.488 76.895
 88.539 76.844 c 85.797 76.684 l 90.496 69.199 l 84.73 69.199 l 84.066 70.699
 l 84.105 70.699 l 84.781 70.258 85.254 70.086 86.063 70.141 c 88.277 70.27
 l 83.555 77.781 l 90.43 77.781 l f*
98.566 74.023 m 101.777 69.199 l 99.492 69.199 l 99.492 69.238 l 100.227
 69.59 99.926 70.215 99.703 70.543 c 98.086 72.969 l 95.996 69.566 l 95.828
 69.293 95.441 69.199 95.02 69.199 c 93.836 69.199 l 94.461 69.539 94.719
 69.973 95.074 70.543 c 97.238 74.023 l 97.238 75.957 l 97.238 76.57 97.332
 77.414 96.691 77.742 c 96.691 77.785 l 99.23 77.785 l 99.23 77.742 l 98.566
 77.258 98.566 76.871 98.566 76.086 c 98.566 74.023 l f
111.73 75.941 m 111.73 76.531 111.809 77.496 111.145 77.742 c 111.145 77.785
 l 113.648 77.785 l 113.648 77.742 l 112.98 77.496 113.063 76.543 113.063
 75.941 c 113.063 71.027 l 113.063 70.441 112.98 69.477 113.648 69.238 c
 113.648 69.199 l 111.145 69.199 l 111.145 69.238 l 111.809 69.488 111.73
 70.441 111.73 71.027 c h
113.23 73.324 m 116.125 77.223 l 116.359 77.535 116.961 77.785 117.598 
77.785 c 118.828 77.785 l 118.828 77.742 l 118.16 77.414 117.664 77.051 
117.262 76.52 c 114.625 73.059 l 117.625 69.215 l 117.625 69.199 l 115.277
 69.199 l 115.277 69.238 l 116.152 69.633 115.395 70.453 114.938 71.055 
c 113.23 73.324 l f*
124.617 68.77 m 128.164 67.703 l 127.449 66.75 l h
127.629 74.559 m 128.332 76.398 l 128.684 77.313 128.789 77.457 128.148
 77.742 c 128.148 77.781 l 130.824 77.781 l 130.824 77.742 l 130.078 77.363
 129.844 76.633 129.547 75.891 c 126.836 69.199 l 124.773 69.199 l 124.773
 69.238 l 125.398 69.434 125.148 69.984 124.969 70.453 c 122.789 75.891 
l 122.492 76.633 122.281 77.363 121.523 77.742 c 121.523 77.781 l 123.926
 77.781 l 123.926 77.742 l 123.301 77.508 123.391 77.129 123.664 76.398 
c 124.344 74.559 l h
127.25 73.594 m 124.68 73.594 l 125.969 70.309 l 127.25 73.594 l f*
134.348 69.199 m 134.348 69.238 l 135.016 69.488 134.922 70.441 134.922
 71.039 c 134.922 75.957 l 134.922 76.543 135.016 77.508 134.348 77.742 
c 134.348 77.785 l 136.84 77.785 l 136.84 77.742 l 136.176 77.508 136.25
 76.555 136.25 75.957 c 136.25 70.113 l 136.551 70.059 136.84 70.023 137.141
 70.008 c 138.012 69.973 138.82 70.516 138.82 71.457 c 138.82 72.684 137.609
 73.164 136.563 73.324 c 137.766 75.16 l 139.355 77.133 l 139.746 77.613
 140.176 77.785 140.867 77.785 c 142.07 77.785 l 141.324 77.313 140.504 
76.633 139.957 75.957 c 138.078 73.594 l 139.148 73.348 140.152 72.445 140.152
 71.301 c 140.152 70.113 139.199 69.199 137.453 69.199 c 134.348 69.199 
l f
149.059 68.98 m 146.316 68.953 144.168 70.988 144.168 73.465 c 144.168 
76.137 146.348 77.988 148.93 77.988 c 151.523 77.988 153.727 76.059 153.727
 73.398 c 153.727 71.055 151.797 69.004 149.059 68.98 c h
148.965 69.918 m 151.027 69.918 152.238 71.754 152.238 73.66 c 152.238 
75.602 150.977 77.051 148.992 77.051 c 146.941 77.051 145.652 75.172 145.652
 73.348 c 145.652 71.379 146.941 69.918 148.965 69.918 c f*
159.508 76.727 m 159.508 71.039 l 159.508 70.453 159.414 69.488 160.078
 69.238 c 160.078 69.199 l 157.59 69.199 l 157.59 69.238 l 158.254 69.488
 158.176 70.441 158.176 71.039 c 158.176 75.953 l 158.176 76.543 158.254
 77.508 157.59 77.742 c 157.59 77.781 l 162.945 77.781 l 163.629 76.047 
l 163.586 76.047 l 162.934 76.594 162.164 76.895 161.277 76.844 c 159.508
 76.727 l f*
171.109 74.023 m 174.32 69.199 l 172.035 69.199 l 172.035 69.238 l 172.77
 69.59 172.469 70.215 172.246 70.543 c 170.629 72.969 l 168.539 69.566 l
 168.371 69.293 167.98 69.199 167.563 69.199 c 166.379 69.199 l 167.004 
69.539 167.262 69.973 167.617 70.543 c 169.781 74.023 l 169.781 75.957 l
 169.781 76.57 169.875 77.414 169.234 77.742 c 169.234 77.785 l 171.777 
77.785 l 171.777 77.742 l 171.109 77.258 171.109 76.871 171.109 76.086 c
 171.109 74.023 l f
185.656 73.594 m 186.621 73.594 l 187.027 73.594 187.574 73.578 187.781
 73.961 c 187.82 73.961 l 187.82 72.578 l 187.781 72.578 l 187.625 72.656
 187.418 72.656 187.207 72.656 c 185.656 72.656 l 185.656 70.23 l 186.074
 70.152 186.531 70.141 186.984 70.141 c 187.586 70.141 188.121 70.191 188.523
 70.66 c 188.563 70.66 l 188.563 69.137 l 188.523 69.137 l 188.355 69.227
 188.137 69.199 187.91 69.199 c 183.738 69.199 l 183.738 69.238 l 184.402
 69.488 184.328 70.441 184.328 71.039 c 184.328 75.953 l 184.328 76.543 
184.402 77.508 183.738 77.742 c 183.738 77.781 l 189.176 77.781 l 189.766
 76.07 l 189.727 76.07 l 189.074 76.648 188.172 76.918 187.313 76.844 c 
185.656 76.684 l 185.656 73.594 l f*
200.664 69.215 m 199.988 69.07 199.313 68.992 198.617 68.992 c 195.461 
68.992 193.234 70.738 193.234 73.543 c 193.234 76.164 195.203 77.992 198.539
 77.992 c 199.598 77.992 200.613 77.797 201.656 77.598 c 201.578 77.414 
201.594 77.207 201.594 77.012 c 201.594 74.012 l 201.594 73.816 201.594 
73.609 201.656 73.453 c 201.656 73.414 l 199.664 73.414 l 199.664 73.453
 l 200.246 73.688 200.262 74.328 200.262 74.926 c 200.262 76.805 l 199.676
 76.977 199.051 77.051 198.449 77.051 c 196.387 77.051 194.719 75.461 194.719
 73.359 c 194.719 71.262 196.273 69.93 198.305 69.93 c 199.098 69.93 200.094
 70.113 200.629 70.711 c 200.664 70.711 l 200.664 69.215 l f
209.133 74.023 m 212.34 69.199 l 210.059 69.199 l 210.059 69.238 l 210.789
 69.59 210.488 70.215 210.266 70.543 c 208.652 72.969 l 206.563 69.566 l
 206.395 69.293 206 69.199 205.586 69.199 c 204.398 69.199 l 205.023 69.539
 205.285 69.973 205.637 70.543 c 207.801 74.023 l 207.801 75.957 l 207.801
 76.57 207.891 77.414 207.254 77.742 c 207.254 77.785 l 209.797 77.785 l
 209.797 77.742 l 209.133 77.258 209.133 76.871 209.133 76.086 c 209.133
 74.023 l f
217.309 73.594 m 218.273 73.594 l 218.68 73.594 219.227 73.578 219.434 
73.961 c 219.477 73.961 l 219.477 72.578 l 219.434 72.578 l 219.277 72.656
 219.07 72.656 218.859 72.656 c 217.309 72.656 l 217.309 70.23 l 217.727
 70.152 218.18 70.141 218.637 70.141 c 219.238 70.141 219.773 70.191 220.176
 70.66 c 220.215 70.66 l 220.215 69.137 l 220.176 69.137 l 220.008 69.227
 219.785 69.199 219.566 69.199 c 215.391 69.199 l 215.391 69.238 l 216.055
 69.488 215.98 70.441 215.98 71.039 c 215.98 75.953 l 215.98 76.543 216.055
 77.508 215.391 77.742 c 215.391 77.781 l 220.828 77.781 l 221.418 76.07
 l 221.375 76.07 l 220.723 76.648 219.828 76.918 218.965 76.844 c 217.309
 76.684 l 217.309 73.594 l f*
228.199 70.141 m 229.371 70.141 l 229.801 70.141 230.324 70.203 230.492
 70.66 c 230.535 70.66 l 230.949 69.105 l 230.91 69.105 l 230.742 69.188
 230.535 69.199 230.309 69.199 c 225.121 69.199 l 224.953 69.176 224.781
 69.176 224.625 69.105 c 224.586 69.105 l 224.129 70.66 l 224.168 70.66 
l 224.57 70.281 225.16 70.141 225.719 70.141 c 226.867 70.141 l 226.867 
75.953 l 226.867 76.543 226.945 77.492 226.293 77.742 c 226.293 77.781 l
 228.875 77.781 l 228.875 77.742 l 228.184 77.336 228.199 76.832 228.199
 76.086 c 228.199 70.141 l f*
236.066 73.594 m 237.027 73.594 l 237.434 73.594 237.98 73.578 238.188 
73.961 c 238.23 73.961 l 238.23 72.578 l 238.188 72.578 l 238.031 72.656
 237.824 72.656 237.617 72.656 c 236.066 72.656 l 236.066 70.23 l 236.484
 70.152 236.938 70.141 237.395 70.141 c 237.996 70.141 238.531 70.191 238.934
 70.66 c 238.973 70.66 l 238.973 69.137 l 238.934 69.137 l 238.766 69.227
 238.543 69.199 238.32 69.199 c 234.148 69.199 l 234.148 69.238 l 234.813
 69.488 234.734 70.441 234.734 71.039 c 234.734 75.953 l 234.734 76.543 
234.813 77.508 234.148 77.742 c 234.148 77.781 l 239.586 77.781 l 240.172
 76.07 l 240.133 76.07 l 239.48 76.648 238.582 76.918 237.719 76.844 c 236.066
 76.684 l 236.066 73.594 l f*
249.379 75.551 m 246.926 69.801 l 246.852 69.621 246.746 69.422 246.746
 69.215 c 246.746 69.199 l 244.465 69.199 l 244.465 69.238 l 245.063 69.566
 244.918 70.086 244.867 70.453 c 244.121 75.918 l 244.031 76.617 243.941
 77.258 243.395 77.742 c 243.395 77.785 l 245.52 77.785 l 245.52 77.742 
l 244.906 77.469 244.996 76.895 245.102 76.098 c 245.844 70.492 l 248.324
 76.375 l 248.637 77.105 248.82 77.457 249.469 77.953 c 252.391 70.48 l 
253.137 76.766 l 253.137 77.207 253.055 77.598 252.602 77.742 c 252.602 
77.785 l 255.117 77.785 l 255.117 77.742 l 254.594 77.375 254.531 77.027
 254.453 76.414 c 253.594 70.008 l 253.594 69.707 253.68 69.332 253.996 
69.238 c 253.996 69.199 l 251.738 69.199 l 251.738 69.215 l 251.738 69.488
 251.648 69.75 251.543 70.023 c 249.379 75.551 l f
0.098 83.441 255.02 1.027 re f
0.098 62.516 255.02 1.027 re f
Q Q
showpage
%%Trailer
end
%%EOF
