%!PS-Adobe-3.0 EPSF-3.0
%%Creator: cairo 1.15.10 (http://cairographics.org)
%%CreationDate: Thu Mar 28 16:43:19 2019
%%Pages: 1
%%DocumentData: Clean7Bit
%%LanguageLevel: 2
%%BoundingBox: 0 0 256 85
%%EndComments
%%BeginProlog
50 dict begin
/q { gsave } bind def
/Q { grestore } bind def
/cm { 6 array astore concat } bind def
/w { setlinewidth } bind def
/J { setlinecap } bind def
/j { setlinejoin } bind def
/M { setmiterlimit } bind def
/d { setdash } bind def
/m { moveto } bind def
/l { lineto } bind def
/c { curveto } bind def
/h { closepath } bind def
/re { exch dup neg 3 1 roll 5 3 roll moveto 0 rlineto
      0 exch rlineto 0 rlineto closepath } bind def
/S { stroke } bind def
/f { fill } bind def
/f* { eofill } bind def
/n { newpath } bind def
/W { clip } bind def
/W* { eoclip } bind def
/BT { } bind def
/ET { } bind def
/BDC { mark 3 1 roll /BDC pdfmark } bind def
/EMC { mark /EMC pdfmark } bind def
/cairo_store_point { /cairo_point_y exch def /cairo_point_x exch def } def
/Tj { show currentpoint cairo_store_point } bind def
/TJ {
  {
    dup
    type /stringtype eq
    { show } { -0.001 mul 0 cairo_font_matrix dtransform rmoveto } ifelse
  } forall
  currentpoint cairo_store_point
} bind def
/cairo_selectfont { cairo_font_matrix aload pop pop pop 0 0 6 array astore
    cairo_font exch selectfont cairo_point_x cairo_point_y moveto } bind def
/Tf { pop /cairo_font exch def /cairo_font_matrix where
      { pop cairo_selectfont } if } bind def
/Td { matrix translate cairo_font_matrix matrix concatmatrix dup
      /cairo_font_matrix exch def dup 4 get exch 5 get cairo_store_point
      /cairo_font where { pop cairo_selectfont } if } bind def
/Tm { 2 copy 8 2 roll 6 array astore /cairo_font_matrix exch def
      cairo_store_point /cairo_font where { pop cairo_selectfont } if } bind def
/g { setgray } bind def
/rg { setrgbcolor } bind def
/d1 { setcachedevice } bind def
/cairo_data_source {
  CairoDataIndex CairoData length lt
    { CairoData CairoDataIndex get /CairoDataIndex CairoDataIndex 1 add def }
    { () } ifelse
} def
/cairo_flush_ascii85_file { cairo_ascii85_file status { cairo_ascii85_file flushfile } if } def
/cairo_image { image cairo_flush_ascii85_file } def
/cairo_imagemask { imagemask cairo_flush_ascii85_file } def
%%EndProlog
%%BeginSetup
%%EndSetup
%%Page: 1 1
%%BeginPageSetup
%%PageBoundingBox: 0 0 256 85
%%EndPageSetup
q 0 0 256 85 rectclip
1 0 0 -1 0 85 cm q
0 0.282353 0.388235 rg
152.777 9.16 m 152.777 9.785 152.809 10.262 152.172 10.57 c 152.172 10.602
 l 154.32 10.602 l 154.32 10.57 l 153.77 10.211 153.809 9.742 153.809 9.16
 c 153.809 3.391 l 153.777 3.391 l 153.305 4.207 152.5 4.863 151.59 5.18
 c 151.59 5.211 l 152.777 5.211 l 152.777 9.16 l f
161.648 4.543 m 162.129 4.543 162.609 4.629 163.082 4.727 c 160.5 10.602
 l 162.211 10.602 l 162.211 10.57 l 161.73 10.367 161.938 9.914 162.527 
8.535 c 164.52 3.871 l 160.113 3.871 l 159.652 5.098 l 159.684 5.098 l 160.246
 4.672 160.934 4.543 161.648 4.543 c f
170.574 4.543 m 171.051 4.543 171.539 4.629 172.004 4.727 c 169.43 10.602
 l 171.137 10.602 l 171.137 10.57 l 170.656 10.367 170.859 9.914 171.453
 8.535 c 173.449 3.871 l 169.039 3.871 l 168.582 5.098 l 168.609 5.098 l
 169.172 4.672 169.859 4.543 170.574 4.543 c f
180.141 9.477 m 180.141 9.996 180.199 10.367 179.637 10.57 c 179.637 10.602
 l 181.621 10.602 l 181.621 10.57 l 181.18 10.344 181.172 9.863 181.172 
9.414 c 181.172 9.211 l 181.98 9.211 l 182.469 7.98 l 182.113 8.277 181.641
 8.41 181.172 8.41 c 181.172 3.871 l 179.758 3.871 l 176.578 9.211 l 180.141
 9.211 l h
177.98 8.34 m 180.141 4.613 l 180.141 8.41 l 179.246 8.41 178.512 8.371
 177.98 8.34 c f
77.039 9.863 m 75.742 9.738 l 75.742 7.316 l 76.5 7.316 l 76.813 7.316 
77.246 7.309 77.406 7.602 c 77.438 7.602 l 77.438 6.52 l 77.406 6.52 l 77.285
 6.582 77.125 6.582 76.957 6.582 c 75.742 6.582 l 75.742 4.68 l 76.07 4.613
 76.426 4.605 76.781 4.605 c 77.254 4.605 77.676 4.645 77.988 5.012 c 78.02
 5.012 l 78.02 3.816 l 77.988 3.816 l 77.859 3.891 77.684 3.871 77.512 3.871
 c 74.238 3.871 l 74.238 3.902 l 74.758 4.094 74.695 4.84 74.695 5.313 c
 74.695 9.168 l 74.695 9.629 74.758 10.387 74.238 10.57 c 74.238 10.602 
l 78.504 10.602 l 78.965 9.258 l 78.934 9.258 l 78.422 9.711 77.715 9.922
 77.039 9.863 c f
86.695 7.203 m 87.156 7.391 87.168 7.891 87.168 8.363 c 87.168 9.832 l 
86.707 9.969 86.215 10.027 85.742 10.027 c 84.129 10.027 82.82 8.781 82.82
 7.133 c 82.82 5.484 84.039 4.445 85.633 4.445 c 86.254 4.445 87.035 4.586
 87.453 5.055 c 87.484 5.055 l 87.484 3.879 l 86.949 3.766 86.422 3.707 
85.879 3.707 c 83.402 3.707 81.652 5.078 81.652 7.277 c 81.652 9.332 83.199
 10.762 85.816 10.762 c 86.645 10.762 87.445 10.609 88.262 10.457 c 88.199
 10.313 88.211 10.152 88.211 9.996 c 88.211 7.645 l 88.211 7.492 88.211 
7.328 88.262 7.203 c 88.262 7.172 l 86.695 7.172 l 86.695 7.203 l f
93.938 9.863 m 92.641 9.738 l 92.641 7.316 l 93.398 7.316 l 93.715 7.316
 94.145 7.309 94.305 7.602 c 94.336 7.602 l 94.336 6.52 l 94.305 6.52 l 
94.188 6.582 94.023 6.582 93.859 6.582 c 92.641 6.582 l 92.641 4.68 l 92.969
 4.613 93.324 4.605 93.684 4.605 c 94.156 4.605 94.574 4.645 94.891 5.012
 c 94.922 5.012 l 94.922 3.816 l 94.891 3.816 l 94.758 3.891 94.586 3.871
 94.41 3.871 c 91.137 3.871 l 91.137 3.902 l 91.66 4.094 91.598 4.84 91.598
 5.313 c 91.598 9.168 l 91.598 9.629 91.66 10.387 91.137 10.57 c 91.137 
10.602 l 95.402 10.602 l 95.863 9.258 l 95.832 9.258 l 95.32 9.711 94.617
 9.922 93.938 9.863 c f
103.137 9.172 m 101.66 7.316 l 102.5 7.121 103.289 6.418 103.289 5.516 
c 103.289 4.586 102.539 3.871 101.172 3.871 c 98.738 3.871 l 98.738 3.902
 l 99.258 4.094 99.188 4.84 99.188 5.313 c 99.188 9.172 l 99.188 9.629 99.258
 10.387 98.738 10.57 c 98.738 10.602 l 100.691 10.602 l 100.691 10.57 l 
100.172 10.387 100.23 9.641 100.23 9.172 c 100.23 4.586 l 100.465 4.543 
100.691 4.516 100.926 4.504 c 101.613 4.473 102.242 4.902 102.242 5.641 
c 102.242 6.602 101.293 6.98 100.477 7.102 c 101.418 8.547 l 102.664 10.09
 l 102.973 10.469 103.309 10.602 103.852 10.602 c 104.793 10.602 l 104.207
 10.234 103.563 9.699 103.137 9.172 c f
128.234 22.066 m 113.488 28.605 l 107.441 28.594 l 107.441 32.273 l 54.52
 32.254 l 55.582 33.84 l 55.582 62.5 l 0 62.5 l 0 63.527 l 254.828 63.527
 l 254.828 62.5 l 200.867 62.5 l 200.867 33.84 l 201.93 32.254 l 149.008
 32.273 l 149.008 28.594 l 143.105 28.605 l h
128.234 23.016 m 140.734 28.605 l 115.715 28.605 l h
108.32 29.824 m 111.902 29.824 l 111.926 51.219 l 108.32 51.219 l h
112.758 29.824 m 114.844 29.824 l 114.844 51.219 l 112.762 51.219 l h
115.727 29.824 m 140.723 29.824 l 140.723 51.219 l 137.898 51.227 l 137.887
 44.957 l 137.887 44.043 137.262 43.129 135.926 43.129 c 134.598 43.129 
133.973 44.18 133.973 44.902 c 133.973 51.223 l 130.195 51.223 l 130.195
 44.953 l 130.195 44.043 129.566 43.129 128.238 43.129 c 126.906 43.129 
126.25 44.043 126.25 44.953 c 126.25 51.219 l 122.477 51.219 l 122.477 44.902
 l 122.477 44.18 121.848 43.129 120.52 43.129 c 119.191 43.129 118.563 44.043
 118.563 44.953 c 118.551 51.227 l 115.727 51.219 l h
141.578 29.824 m 143.66 29.824 l 143.66 51.219 l 141.578 51.223 l h
144.516 29.824 m 148.094 29.824 l 148.094 51.219 l 144.496 51.219 l h
107.441 33.824 m 107.441 51.219 l 76.941 51.219 l 76.941 33.898 l h
149.008 33.824 m 179.504 33.898 l 179.504 51.219 l 149.008 51.219 l h
56.48 33.898 m 58.492 33.898 l 58.516 51.219 l 56.48 51.219 l h
59.398 33.898 m 73.145 33.898 l 73.145 51.219 l 59.375 51.219 l h
73.973 33.898 m 76.039 33.898 l 76.039 51.219 l 73.973 51.219 l h
180.41 33.898 m 182.477 33.898 l 182.477 51.219 l 180.41 51.219 l h
183.305 33.898 m 197.051 33.898 l 197.074 51.219 l 183.305 51.219 l h
197.957 33.898 m 199.973 33.898 l 199.973 51.219 l 197.934 51.219 l h
56.48 52.102 m 58.492 52.102 l 58.492 62.492 l 56.48 62.492 l h
108.32 52.102 m 111.902 52.109 l 111.902 62.5 l 108.32 62.5 l h
114.844 52.102 m 114.844 62.492 l 112.758 62.5 l 112.758 52.109 l h
115.727 52.102 m 116.16 52.102 l 116.16 52.91 l 117.008 52.91 l 117.008
 52.102 l 117.711 52.102 l 117.707 52.91 l 118.563 52.91 l 118.563 52.102
 l 122.477 52.102 l 122.477 52.91 l 123.332 52.91 l 123.332 52.102 l 124.105
 52.109 l 124.105 52.91 l 124.957 52.91 l 124.957 52.102 l 131.492 52.102
 l 131.492 52.91 l 132.344 52.91 l 132.344 52.109 l 133.117 52.102 l 133.117
 52.91 l 133.973 52.91 l 133.973 52.102 l 137.887 52.102 l 137.887 52.91
 l 138.738 52.91 l 138.738 52.102 l 139.441 52.102 l 139.441 52.91 l 140.289
 52.91 l 140.289 52.102 l 140.723 52.102 l 140.734 62.5 l 137.887 62.5 l
 137.887 56.043 l 137.887 55.133 137.262 54.219 135.926 54.219 c 134.598
 54.219 133.973 55.133 133.973 56.043 c 133.961 62.504 l 130.895 62.5 l 
130.895 56.105 l 130.895 55.09 130.133 53.684 128.238 53.66 c 128.211 53.66
 l 126.316 53.684 125.555 55.09 125.555 56.105 c 125.555 62.5 l 122.477 
62.5 l 122.477 56.043 l 122.477 55.133 121.848 54.219 120.52 54.219 c 119.191
 54.219 118.563 55.133 118.563 56.043 c 118.563 62.5 l 115.715 62.5 l h
141.605 52.102 m 143.691 52.109 l 143.691 62.5 l 141.605 62.492 l h
148.125 52.102 m 148.125 62.5 l 144.547 62.5 l 144.547 52.109 l h
197.957 52.102 m 199.973 52.102 l 199.973 62.492 l 197.957 62.492 l h
59.398 52.109 m 73.145 52.109 l 73.145 62.5 l 59.398 62.5 l h
73.973 52.109 m 76.039 52.109 l 76.039 62.492 l 73.973 62.5 l h
76.941 52.109 m 107.441 52.109 l 107.441 62.5 l 76.941 62.5 l h
149.004 52.109 m 179.504 52.109 l 179.504 62.5 l 149.004 62.5 l h
180.41 52.109 m 182.477 52.109 l 182.477 62.5 l 180.41 62.492 l h
183.305 52.109 m 197.051 52.109 l 197.051 62.5 l 183.305 62.5 l h
183.305 52.109 m f
149.832 28.594 m 149.832 31.563 l 177.422 31.563 l 186.547 21.426 l 182.469
 18.645 l 146.844 18.609 l 151.586 28.594 l 149.832 28.594 l f
142.441 17.969 m 146.129 18.309 l 136.574 12.172 l 142.441 17.969 l f
145.746 27.871 m 150.453 27.871 l 146.316 18.984 l 142.594 18.609 l 145.746
 27.871 l f
138.422 42.504 m 138.422 41.953 l 138.766 41.953 l 138.766 41.379 l 135.926
 40.23 l 133.09 41.379 l 133.09 41.953 l 133.438 41.953 l 133.438 42.504
 l 134 42.504 l 134 41.957 l 137.871 41.957 l 137.871 42.504 l 138.422 42.504
 l f
137.887 39.035 m 137.887 39.035 137.887 35.441 137.887 34.523 c 137.887
 33.609 137.262 32.699 135.93 32.699 c 134.602 32.699 133.973 33.609 133.973
 34.523 c 133.973 35.441 133.973 39.035 133.973 39.035 c 137.887 39.035 
l f
138.781 30.918 m 133.066 30.918 l 133.066 31.566 l 133.426 31.566 l 133.426
 32.367 l 133.973 32.367 l 133.973 32.02 l 133.973 32.02 134.652 31.566 
135.926 31.566 c 137.215 31.566 137.887 32.02 137.887 32.02 c 137.887 32.367
 l 138.406 32.367 l 138.406 31.566 l 138.781 31.566 l 138.781 30.918 l f
159.422 55.676 m 159.422 54.883 158.902 54.57 157.945 54.57 c 156.984 54.57
 156.504 54.883 156.504 55.676 c 156.504 56.469 156.504 59.91 156.504 59.91
 c 159.422 59.91 l 159.422 59.91 159.422 56.469 159.422 55.676 c f
165.715 55.676 m 165.715 54.883 165.195 54.57 164.238 54.57 c 163.281 54.57
 162.801 54.883 162.801 55.676 c 162.801 56.469 162.801 59.91 162.801 59.91
 c 165.715 59.91 l 165.715 59.91 165.715 56.469 165.715 55.676 c f
172.008 55.676 m 172.008 54.883 171.488 54.57 170.527 54.57 c 169.574 54.57
 169.094 54.883 169.094 55.676 c 169.094 56.469 169.094 59.91 169.094 59.91
 c 172.008 59.91 l 172.008 59.91 172.008 56.469 172.008 55.676 c f
178.305 55.676 m 178.305 54.883 177.781 54.57 176.824 54.57 c 175.867 54.57
 175.387 54.883 175.387 55.676 c 175.387 56.469 175.387 59.91 175.387 59.91
 c 178.305 59.91 l 178.305 59.91 178.305 56.469 178.305 55.676 c f
153.125 55.676 m 153.125 54.883 152.609 54.57 151.648 54.57 c 150.691 54.57
 150.211 54.883 150.211 55.676 c 150.211 56.469 150.211 59.91 150.211 59.91
 c 153.125 59.91 l 153.125 59.91 153.125 56.469 153.125 55.676 c f
159.422 35.711 m 159.422 34.902 158.902 34.586 157.945 34.586 c 156.988
 34.586 156.508 34.902 156.508 35.711 c 156.508 36.516 156.508 39.93 156.508
 39.93 c 159.422 39.93 l 159.422 39.93 159.422 36.516 159.422 35.711 c f
165.715 35.711 m 165.715 34.902 165.195 34.586 164.238 34.586 c 163.281
 34.586 162.801 34.902 162.801 35.711 c 162.801 36.516 162.801 39.93 162.801
 39.93 c 165.715 39.93 l 165.715 39.93 165.715 36.516 165.715 35.711 c f
172.008 35.711 m 172.008 34.902 171.488 34.586 170.527 34.586 c 169.574
 34.586 169.094 34.902 169.094 35.711 c 169.094 36.516 169.094 39.93 169.094
 39.93 c 172.008 39.93 l 172.008 39.93 172.008 36.516 172.008 35.711 c f
178.301 35.711 m 178.301 34.902 177.781 34.586 176.824 34.586 c 175.867
 34.586 175.383 34.902 175.383 35.711 c 175.383 36.516 175.383 39.93 175.383
 39.93 c 178.301 39.93 l 178.301 39.93 178.301 36.516 178.301 35.711 c f
153.129 35.711 m 153.129 34.902 152.609 34.586 151.648 34.586 c 150.695
 34.586 150.215 34.902 150.215 35.711 c 150.215 36.516 150.215 39.93 150.215
 39.93 c 153.129 39.93 l 153.129 39.93 153.129 36.516 153.129 35.711 c f
172.008 43.262 m 172.008 43.227 172.008 43.207 172.008 43.207 c 169.094
 43.207 l 169.094 43.207 169.094 43.227 169.094 43.262 c 169.094 48.859 
l 172.008 48.859 l 172.008 43.262 l f
178.301 43.262 m 178.301 43.227 178.301 43.207 178.301 43.207 c 175.383
 43.207 l 175.383 43.207 175.383 43.227 175.383 43.262 c 175.383 48.859 
l 178.301 48.859 l 178.301 43.262 l f
165.715 43.262 m 165.715 43.227 165.715 43.207 165.715 43.207 c 162.801
 43.207 l 162.801 43.207 162.801 43.227 162.801 43.262 c 162.801 48.859 
l 165.715 48.859 l 165.715 43.262 l f
159.422 43.262 m 159.422 43.227 159.422 43.207 159.422 43.207 c 156.508
 43.207 l 156.508 43.207 156.508 43.227 156.508 43.262 c 156.508 48.859 
l 159.422 48.859 l 159.422 43.262 l f
153.129 43.262 m 153.129 43.227 153.129 43.207 153.129 43.207 c 150.215
 43.207 l 150.215 43.207 150.215 43.227 150.215 43.262 c 150.215 48.859 
l 153.129 48.859 l 153.129 43.262 l f
188.5 55.766 m 188.5 54.969 187.98 54.66 187.023 54.66 c 186.063 54.66 
185.582 54.969 185.582 55.766 c 185.582 56.559 185.582 60 185.582 60 c 188.5
 60 l 188.5 60 188.5 56.559 188.5 55.766 c f
194.797 55.766 m 194.797 54.969 194.273 54.66 193.316 54.66 c 192.359 54.66
 191.879 54.969 191.879 55.766 c 191.879 56.559 191.879 60 191.879 60 c 
194.797 60 l 194.797 60 194.797 56.559 194.797 55.766 c f
187.023 34.629 m 186.063 34.629 185.582 34.938 185.582 35.73 c 185.582 
36.523 185.582 39.891 185.582 39.891 c 188.5 39.891 l 188.5 39.891 188.5
 36.523 188.5 35.73 c 188.5 34.938 187.98 34.629 187.023 34.629 c f
193.316 34.629 m 192.359 34.629 191.879 34.938 191.879 35.73 c 191.879 
36.523 191.879 39.891 191.879 39.891 c 194.797 39.891 l 194.797 39.891 194.797
 36.523 194.797 35.73 c 194.797 34.938 194.273 34.629 193.316 34.629 c f
185.586 43.262 m 185.586 48.859 l 188.5 48.859 l 188.5 43.262 l 188.5 43.227
 188.5 43.207 188.5 43.207 c 185.586 43.207 l 185.586 43.207 185.586 43.227
 185.586 43.262 c f
191.879 43.262 m 191.879 48.859 l 194.793 48.859 l 194.793 43.262 l 194.793
 43.227 194.793 43.207 194.793 43.207 c 191.879 43.207 l 191.879 43.207 
191.879 43.227 191.879 43.262 c f
187.781 21.043 m 178.398 31.586 l 201.93 31.586 l 202.371 31.582 l 202.676
 31.164 l 193.477 24.918 l 193.301 24.293 192.926 23.531 192.16 22.969 c
 191.188 22.254 190.305 22.238 189.637 22.313 c h
190.125 23.117 m 190.129 23.117 l 191.25 23.098 192.621 23.996 192.719 
25.547 c 192.75 25.988 192.676 26.191 192.582 26.508 c 192.457 26.949 192.578
 27.316 192.82 27.617 c 193.121 27.984 193.402 28.297 194.613 28.297 c 196.234
 28.305 l 196.234 29.816 l 183.992 29.816 l 183.992 28.305 l 185.613 28.297
 l 186.824 28.297 187.102 27.984 187.402 27.617 c 187.652 27.316 187.77 
26.949 187.641 26.508 c 187.555 26.191 187.477 25.988 187.504 25.547 c 187.609
 23.996 189.004 23.098 190.125 23.117 c h
190.125 23.117 m f
146.414 33.992 m 145.863 33.992 145.602 34.793 145.602 35.598 c 145.602
 36.398 145.602 39.301 145.602 39.301 c 147.227 39.301 l 147.227 39.301 
147.227 36.398 147.227 35.598 c 147.227 34.793 146.969 33.992 146.414 33.992
 c f
146.414 42.824 m 145.863 42.824 145.602 43.625 145.602 44.43 c 145.602 
45.23 145.602 48.133 145.602 48.133 c 147.227 48.133 l 147.227 48.133 147.227
 45.23 147.227 44.43 c 147.227 43.625 146.969 42.824 146.414 42.824 c f
146.414 54.191 m 145.863 54.191 145.602 54.992 145.602 55.793 c 145.602
 56.598 145.602 59.5 145.602 59.5 c 147.227 59.5 l 147.227 59.5 147.227 
56.598 147.227 55.793 c 147.227 54.992 146.969 54.191 146.414 54.191 c f
190.156 27.242 m 191.012 27.242 191.703 26.547 191.703 25.691 c 191.703
 24.84 191.012 24.145 190.156 24.145 c 189.301 24.145 188.605 24.84 188.605
 25.691 c 188.605 26.547 189.301 27.242 190.156 27.242 c f
114.004 17.969 m 110.32 18.309 l 119.879 12.172 l 114.004 17.969 l f
110.703 27.871 m 105.996 27.871 l 110.133 18.984 l 113.859 18.609 l 110.703
 27.871 l f
144.93 27.871 m 143.254 27.871 l 128.234 21.223 l 113.195 27.871 l 111.52
 27.871 l 114.645 18.609 l 141.805 18.609 l 144.93 27.871 l f
118.027 42.504 m 118.027 41.953 l 117.684 41.953 l 117.684 41.379 l 120.52
 40.23 l 123.355 41.379 l 123.355 41.953 l 123.016 41.953 l 123.016 42.504
 l 122.449 42.504 l 122.449 41.957 l 118.578 41.957 l 118.578 42.504 l 118.027
 42.504 l f
118.563 39.035 m 118.563 39.035 118.563 35.441 118.563 34.523 c 118.563
 33.609 119.191 32.699 120.52 32.699 c 121.852 32.699 122.477 33.609 122.477
 34.523 c 122.477 35.441 122.477 39.035 122.477 39.035 c 118.563 39.035 
l f
117.664 30.918 m 123.383 30.918 l 123.383 31.566 l 123.02 31.566 l 123.02
 32.367 l 122.477 32.367 l 122.477 32.02 l 122.477 32.02 121.797 31.566 
120.52 31.566 c 119.23 31.566 118.563 32.02 118.563 32.02 c 118.563 32.367
 l 118.039 32.367 l 118.039 31.566 l 117.664 31.566 l 117.664 30.918 l f
128.234 0 m 131.223 0.07 131.449 3.039 131.449 3.039 c 125 3.039 l 125 
3.039 125.23 0.07 128.211 0 c 128.211 0.141 l 128.234 0 l f
97.027 55.676 m 97.027 54.883 97.547 54.57 98.508 54.57 c 99.461 54.57 
99.945 54.883 99.945 55.676 c 99.945 56.469 99.945 59.91 99.945 59.91 c 
97.027 59.91 l 97.027 59.91 97.027 56.469 97.027 55.676 c f
130.195 42.504 m 130.195 41.957 l 126.277 41.957 l 126.277 42.504 l 125.746
 42.504 l 125.746 41.953 l 125.402 41.953 l 125.402 41.379 l 128.238 40.23
 l 131.07 41.379 l 131.07 41.953 l 130.727 41.953 l 130.727 42.504 l 130.195
 42.504 l f
130.199 32.02 m 130.199 32.02 129.523 31.566 128.238 31.566 c 126.949 31.566
 126.273 32.02 126.273 32.02 c 126.273 32.367 l 125.75 32.367 l 125.75 31.566
 l 125.375 31.566 l 125.375 30.918 l 131.094 30.918 l 131.094 31.566 l 130.723
 31.566 l 130.723 32.367 l 130.199 32.367 l 130.199 32.02 l f
90.734 55.676 m 90.734 54.883 91.254 54.57 92.211 54.57 c 93.172 54.57 
93.652 54.883 93.652 55.676 c 93.652 56.469 93.652 59.91 93.652 59.91 c 
90.734 59.91 l 90.734 59.91 90.734 56.469 90.734 55.676 c f
128.242 32.699 m 129.57 32.699 130.199 33.609 130.199 34.527 c 130.199 
39.035 l 126.25 39.035 l 126.25 34.527 l 126.25 33.609 126.879 32.699 128.207
 32.699 c 128.242 32.699 l f
84.441 55.676 m 84.441 54.883 84.961 54.57 85.918 54.57 c 86.875 54.57 
87.355 54.883 87.355 55.676 c 87.355 56.469 87.355 59.91 87.355 59.91 c 
84.441 59.91 l 84.441 59.91 84.441 56.469 84.441 55.676 c f
78.148 55.676 m 78.148 54.883 78.664 54.57 79.621 54.57 c 80.578 54.57 
81.059 54.883 81.059 55.676 c 81.059 56.469 81.059 59.91 81.059 59.91 c 
78.148 59.91 l 78.148 59.91 78.148 56.469 78.148 55.676 c f
103.32 55.676 m 103.32 54.883 103.844 54.57 104.801 54.57 c 105.758 54.57
 106.238 54.883 106.238 55.676 c 106.238 56.469 106.238 59.91 106.238 59.91
 c 103.32 59.91 l 103.32 59.91 103.32 56.469 103.32 55.676 c f
97.027 35.711 m 97.027 34.902 97.547 34.586 98.504 34.586 c 99.461 34.586
 99.945 34.902 99.945 35.711 c 99.945 36.516 99.945 39.93 99.945 39.93 c
 97.027 39.93 l 97.027 39.93 97.027 36.516 97.027 35.711 c f
90.734 35.711 m 90.734 34.902 91.254 34.586 92.211 34.586 c 93.172 34.586
 93.652 34.902 93.652 35.711 c 93.652 36.516 93.652 39.93 93.652 39.93 c
 90.734 39.93 l 90.734 39.93 90.734 36.516 90.734 35.711 c f
84.441 35.711 m 84.441 34.902 84.961 34.586 85.918 34.586 c 86.875 34.586
 87.355 34.902 87.355 35.711 c 87.355 36.516 87.355 39.93 87.355 39.93 c
 84.441 39.93 l 84.441 39.93 84.441 36.516 84.441 35.711 c f
78.148 35.711 m 78.148 34.902 78.668 34.586 79.625 34.586 c 80.582 34.586
 81.063 34.902 81.063 35.711 c 81.063 36.516 81.063 39.93 81.063 39.93 c
 78.148 39.93 l 78.148 39.93 78.148 36.516 78.148 35.711 c f
103.32 35.711 m 103.32 34.902 103.84 34.586 104.801 34.586 c 105.754 34.586
 106.234 34.902 106.234 35.711 c 106.234 36.516 106.234 39.93 106.234 39.93
 c 103.32 39.93 l 103.32 39.93 103.32 36.516 103.32 35.711 c f
84.441 43.262 m 84.441 43.227 84.441 43.207 84.441 43.207 c 87.355 43.207
 l 87.355 43.207 87.355 43.227 87.355 43.262 c 87.355 48.859 l 84.441 48.859
 l 84.441 43.262 l f
78.148 43.262 m 78.148 43.227 78.148 43.207 78.148 43.207 c 81.063 43.207
 l 81.063 43.207 81.063 43.227 81.063 43.262 c 81.063 48.859 l 78.148 48.859
 l 78.148 43.262 l f
90.734 43.262 m 90.734 43.227 90.734 43.207 90.734 43.207 c 93.652 43.207
 l 93.652 43.207 93.652 43.227 93.652 43.262 c 93.652 48.859 l 90.734 48.859
 l 90.734 43.262 l f
97.027 43.262 m 97.027 43.227 97.027 43.207 97.027 43.207 c 99.945 43.207
 l 99.945 43.207 99.945 43.227 99.945 43.262 c 99.945 48.859 l 97.027 48.859
 l 97.027 43.262 l f
103.32 43.262 m 103.32 43.227 103.32 43.207 103.32 43.207 c 106.234 43.207
 l 106.234 43.207 106.234 43.227 106.234 43.262 c 106.234 48.859 l 103.32
 48.859 l 103.32 43.262 l f
67.949 55.766 m 67.949 54.969 68.469 54.66 69.426 54.66 c 70.383 54.66 
70.863 54.969 70.863 55.766 c 70.863 56.559 70.863 60 70.863 60 c 67.949
 60 l 67.949 60 67.949 56.559 67.949 55.766 c f
61.656 55.766 m 61.656 54.969 62.172 54.66 63.133 54.66 c 64.09 54.66 64.57
 54.969 64.57 55.766 c 64.57 56.559 64.57 60 64.57 60 c 61.656 60 l 61.656
 60 61.656 56.559 61.656 55.766 c f
69.426 34.629 m 70.383 34.629 70.863 34.938 70.863 35.73 c 70.863 36.523
 70.863 39.891 70.863 39.891 c 67.949 39.891 l 67.949 39.891 67.949 36.523
 67.949 35.73 c 67.949 34.938 68.469 34.629 69.426 34.629 c f
63.133 34.629 m 64.09 34.629 64.57 34.938 64.57 35.73 c 64.57 36.523 64.57
 39.891 64.57 39.891 c 61.656 39.891 l 61.656 39.891 61.656 36.523 61.656
 35.73 c 61.656 34.938 62.172 34.629 63.133 34.629 c f
70.863 43.262 m 70.863 48.859 l 67.949 48.859 l 67.949 43.262 l 67.949 
43.227 67.949 43.207 67.949 43.207 c 70.863 43.207 l 70.863 43.207 70.863
 43.227 70.863 43.262 c f
64.57 43.262 m 64.57 48.859 l 61.656 48.859 l 61.656 43.262 l 61.656 43.227
 61.656 43.207 61.656 43.207 c 64.57 43.207 l 64.57 43.207 64.57 43.227 
64.57 43.262 c f
106.613 28.594 m 106.613 31.563 l 79.027 31.563 l 69.902 21.426 l 73.977
 18.645 l 109.605 18.609 l 104.863 28.594 l 106.613 28.594 l f
68.672 21.043 m 66.813 22.313 l 66.145 22.238 65.262 22.254 64.289 22.969
 c 63.52 23.531 63.152 24.293 62.973 24.918 c 53.773 31.164 l 54.078 31.582
 l 54.52 31.586 l 78.051 31.586 l h
66.32 23.117 m 66.324 23.117 l 67.445 23.102 68.844 23.996 68.945 25.547
 c 68.973 25.988 68.898 26.191 68.805 26.508 c 68.68 26.949 68.801 27.316
 69.043 27.617 c 69.344 27.984 69.625 28.297 70.832 28.297 c 72.457 28.305
 l 72.457 29.816 l 60.211 29.816 l 60.211 28.305 l 61.836 28.297 l 63.047
 28.297 63.324 27.984 63.625 27.617 c 63.875 27.316 63.992 26.949 63.863
 26.508 c 63.773 26.191 63.699 25.988 63.727 25.547 c 63.832 23.996 65.199
 23.102 66.32 23.117 c h
66.32 23.117 m f
122.18 3.754 m 120.832 4.547 l 120.832 8.07 l 118.969 8.563 l 118.969 12.063
 l 121.906 10.746 l 115.047 17.969 l 141.406 17.969 l 134.547 10.746 l 137.477
 12.063 l 137.477 8.563 l 135.613 8.07 l 135.613 4.547 l 134.27 3.754 l 
h
122.543 4.34 m 133.91 4.34 l 133.879 5.828 l 132.645 7.59 l 123.801 7.59
 l 122.57 5.828 l h
122.816 8.32 m 133.637 8.32 l 133.637 9.754 l 122.816 9.754 l h
122.066 8.418 m 122.066 9.961 l 119.551 11.012 l 119.551 9.039 l h
134.379 8.418 m 136.898 9.039 l 136.898 11.012 l 134.379 9.961 l h
134.379 8.418 m f
110.035 33.992 m 110.59 33.992 110.848 34.793 110.848 35.598 c 110.848 
36.398 110.848 39.301 110.848 39.301 c 109.223 39.301 l 109.223 39.301 109.223
 36.398 109.223 35.598 c 109.223 34.793 109.484 33.992 110.035 33.992 c f
110.035 42.824 m 110.59 42.824 110.848 43.625 110.848 44.43 c 110.848 45.23
 110.848 48.133 110.848 48.133 c 109.223 48.133 l 109.223 48.133 109.223
 45.23 109.223 44.43 c 109.223 43.625 109.484 42.824 110.035 42.824 c f
110.035 54.191 m 110.59 54.191 110.848 54.992 110.848 55.793 c 110.848 
56.598 110.848 59.5 110.848 59.5 c 109.223 59.5 l 109.223 59.5 109.223 56.598
 109.223 55.793 c 109.223 54.992 109.484 54.191 110.035 54.191 c f
66.293 27.242 m 65.438 27.242 64.746 26.547 64.746 25.691 c 64.746 24.84
 65.438 24.145 66.293 24.145 c 67.148 24.145 67.84 24.84 67.84 25.691 c 
67.84 26.547 67.148 27.242 66.293 27.242 c f
0 0.278431 0.423529 rg
0.098 83.441 255.02 1.027 re f
0.098 62.516 255.02 1.027 re f
0.0117647 0.239216 0.380392 rg
2.465 73.691 m 3.402 73.691 l 3.793 73.691 4.32 73.68 4.523 74.043 c 4.563
 74.043 l 4.563 72.703 l 4.523 72.703 l 4.371 72.777 4.172 72.777 3.969 
72.777 c 2.465 72.777 l 2.465 70.426 l 2.867 70.348 3.313 70.336 3.754 70.336
 c 4.336 70.336 4.855 70.387 5.246 70.844 c 5.285 70.844 l 5.285 69.363 
l 5.246 69.363 l 5.082 69.449 4.867 69.426 4.652 69.426 c 0.602 69.426 l
 0.602 69.461 l 1.25 69.703 1.172 70.629 1.172 71.211 c 1.172 75.98 l 1.172
 76.551 1.25 77.484 0.602 77.715 c 0.602 77.75 l 5.879 77.75 l 6.449 76.094
 l 6.414 76.094 l 5.777 76.652 4.906 76.914 4.07 76.84 c 2.465 76.691 l 
h
2.465 73.691 m f*
14.09 69.5 m 13.48 69.313 12.836 69.223 12.203 69.223 c 10.66 69.223 9.027
 69.832 9.027 71.426 c 9.027 74.105 13.379 73.754 13.379 75.727 c 13.379
 76.613 12.293 77.043 11.57 77.043 c 10.582 77.043 9.547 76.641 8.801 75.992
 c 9.164 77.574 l 9.887 77.84 10.66 77.953 11.43 77.953 c 13.402 77.953 
14.824 76.691 14.824 75.332 c 14.824 72.996 10.469 73.02 10.469 71.285 c
 10.469 70.41 11.379 70.133 12.102 70.133 c 12.809 70.133 13.594 70.426 
14.09 70.93 c h
14.09 69.5 m f*
24.059 77.75 m 24.766 76.145 l 24.727 76.145 l 23.945 76.613 23.148 76.891
 22.223 76.84 c 19.563 76.691 l 24.121 69.426 l 18.527 69.426 l 17.883 70.879
 l 17.922 70.879 l 18.578 70.449 19.031 70.285 19.816 70.336 c 21.969 70.461
 l 17.387 77.75 l h
24.059 77.75 m f*
30.371 70.336 m 31.508 70.336 l 31.926 70.336 32.43 70.398 32.598 70.844
 c 32.637 70.844 l 33.039 69.336 l 33 69.336 l 32.84 69.41 32.637 69.426
 32.418 69.426 c 27.383 69.426 l 27.219 69.398 27.055 69.398 26.902 69.336
 c 26.867 69.336 l 26.422 70.844 l 26.457 70.844 l 26.852 70.477 27.422 
70.336 27.965 70.336 c 29.078 70.336 l 29.078 75.98 l 29.078 76.551 29.156
 77.477 28.523 77.711 c 28.523 77.75 l 31.027 77.75 l 31.027 77.711 l 30.355
 77.324 30.371 76.828 30.371 76.105 c h
30.371 70.336 m f*
37.129 73.691 m 38.066 73.691 l 38.457 73.691 38.988 73.68 39.188 74.043
 c 39.227 74.043 l 39.227 72.703 l 39.188 72.703 l 39.039 72.777 38.836 
72.777 38.633 72.777 c 37.129 72.777 l 37.129 70.426 l 37.535 70.348 37.977
 70.336 38.418 70.336 c 39 70.336 39.52 70.387 39.91 70.844 c 39.949 70.844
 l 39.949 69.363 l 39.91 69.363 l 39.75 69.449 39.531 69.426 39.316 69.426
 c 35.27 69.426 l 35.27 69.461 l 35.914 69.703 35.836 70.629 35.836 71.211
 c 35.836 75.98 l 35.836 76.551 35.914 77.484 35.27 77.715 c 35.27 77.75
 l 40.543 77.75 l 41.113 76.094 l 41.078 76.094 l 40.445 76.652 39.57 76.914
 38.734 76.84 c 37.129 76.691 l h
37.129 73.691 m f*
43.832 69.426 m 43.832 69.461 l 44.477 69.703 44.387 70.629 44.387 71.211
 c 44.387 75.98 l 44.387 76.551 44.477 77.484 43.832 77.711 c 43.832 77.75
 l 46.246 77.75 l 46.246 77.711 l 45.602 77.484 45.68 76.563 45.68 75.98
 c 45.68 70.309 l 45.969 70.262 46.246 70.223 46.539 70.207 c 47.387 70.172
 48.172 70.703 48.172 71.613 c 48.172 72.805 46.996 73.27 45.98 73.426 c
 47.148 75.207 l 48.691 77.117 l 49.07 77.586 49.488 77.75 50.16 77.75 c
 51.32 77.75 l 50.602 77.297 49.805 76.641 49.273 75.98 c 47.449 73.691 
l 48.488 73.449 49.465 72.574 49.465 71.465 c 49.465 70.309 48.539 69.426
 46.844 69.426 c h
43.832 69.426 m f*
59.406 73.691 m 59.406 75.98 l 59.406 76.551 59.496 77.477 58.848 77.711
 c 58.848 77.75 l 61.266 77.75 l 61.266 77.711 l 60.621 77.477 60.695 76.551
 60.695 75.98 c 60.695 71.195 l 60.695 70.629 60.621 69.703 61.266 69.461
 c 61.266 69.426 l 58.848 69.426 l 58.848 69.461 l 59.496 69.703 59.406 
70.629 59.406 71.211 c 59.406 72.777 l 54.84 72.777 l 54.84 71.211 l 54.84
 70.629 54.762 69.703 55.395 69.461 c 55.395 69.426 l 52.988 69.426 l 52.988
 69.461 l 53.633 69.703 53.547 70.629 53.547 71.195 c 53.547 75.98 l 53.547
 76.551 53.621 77.477 52.988 77.711 c 52.988 77.75 l 55.395 77.75 l 55.395
 77.711 l 54.762 77.477 54.84 76.551 54.84 75.98 c 54.84 73.691 l h
59.406 73.691 m f*
66.77 68.707 m 70.211 67.668 l 69.516 66.746 l h
69.695 74.324 m 70.379 76.109 l 70.719 76.996 70.82 77.137 70.199 77.41
 c 70.199 77.449 l 72.797 77.449 l 72.797 77.41 l 72.074 77.047 71.844 76.34
 71.551 75.617 c 68.922 69.125 l 66.922 69.125 l 66.922 69.16 l 67.531 69.352
 67.289 69.883 67.109 70.34 c 65 75.617 l 64.711 76.34 64.508 77.047 63.773
 77.41 c 63.773 77.449 l 66.102 77.449 l 66.102 77.41 l 65.492 77.184 65.578
 76.816 65.848 76.109 c 66.504 74.324 l h
69.324 73.391 m 66.836 73.391 l 68.086 70.199 l h
69.324 73.391 m f*
81.625 77.75 m 82.336 76.145 l 82.297 76.145 l 81.512 76.613 80.715 76.891
 79.789 76.84 c 77.133 76.691 l 81.691 69.426 l 76.094 69.426 l 75.449 70.879
 l 75.488 70.879 l 76.145 70.449 76.602 70.285 77.387 70.336 c 79.539 70.461
 l 74.957 77.75 l h
81.625 77.75 m f*
88.648 74.105 m 91.762 69.426 l 89.543 69.426 l 89.543 69.461 l 90.254 
69.805 89.965 70.414 89.746 70.73 c 88.18 73.082 l 86.156 69.781 l 85.988
 69.512 85.609 69.426 85.203 69.426 c 84.055 69.426 l 84.66 69.754 84.914
 70.172 85.254 70.73 c 87.355 74.105 l 87.355 75.98 l 87.355 76.574 87.445
 77.398 86.824 77.711 c 86.824 77.75 l 89.293 77.75 l 89.293 77.711 l 88.648
 77.246 88.648 76.863 88.648 76.105 c h
88.648 74.105 m f*
99.93 75.969 m 99.93 76.539 100.008 77.477 99.363 77.711 c 99.363 77.75
 l 101.789 77.75 l 101.789 77.711 l 101.145 77.477 101.219 76.551 101.219
 75.969 c 101.219 71.195 l 101.219 70.629 101.145 69.691 101.789 69.461 
c 101.789 69.426 l 99.363 69.426 l 99.363 69.461 l 100.008 69.703 99.93 
70.629 99.93 71.195 c h
101.387 73.426 m 104.195 77.207 l 104.422 77.512 105.004 77.75 105.625 
77.75 c 106.816 77.75 l 106.816 77.711 l 106.168 77.398 105.688 77.043 105.297
 76.523 c 102.738 73.172 l 105.648 69.438 l 105.648 69.426 l 103.371 69.426
 l 103.371 69.461 l 104.219 69.844 103.484 70.641 103.043 71.223 c 101.387
 73.422 l h
101.387 73.426 m f*
111.555 68.707 m 115 67.668 l 114.305 66.746 l h
114.48 74.324 m 115.164 76.109 l 115.504 76.996 115.605 77.137 114.988 
77.41 c 114.988 77.449 l 117.578 77.449 l 117.578 77.41 l 116.859 77.047
 116.633 76.34 116.34 75.617 c 113.707 69.125 l 111.707 69.125 l 111.707
 69.16 l 112.316 69.352 112.078 69.883 111.898 70.34 c 109.785 75.617 l 
109.492 76.34 109.293 77.047 108.559 77.41 c 108.559 77.449 l 110.887 77.449
 l 110.887 77.41 l 110.277 77.184 110.367 76.816 110.633 76.109 c 111.293
 74.324 l h
114.113 73.391 m 111.621 73.391 l 112.875 70.199 l h
114.113 73.391 m f*
120.125 69.426 m 120.125 69.461 l 120.77 69.703 120.68 70.629 120.68 71.211
 c 120.68 75.98 l 120.68 76.551 120.77 77.484 120.125 77.711 c 120.125 77.75
 l 122.543 77.75 l 122.543 77.711 l 121.895 77.484 121.973 76.563 121.973
 75.98 c 121.973 70.309 l 122.262 70.262 122.543 70.223 122.832 70.207 c
 123.68 70.172 124.465 70.703 124.465 71.613 c 124.465 72.805 123.289 73.27
 122.273 73.426 c 123.441 75.207 l 124.984 77.117 l 125.363 77.586 125.781
 77.75 126.453 77.75 c 127.617 77.75 l 126.895 77.297 126.098 76.641 125.566
 75.98 c 123.742 73.691 l 124.781 73.449 125.754 72.574 125.754 71.465 c
 125.754 70.309 124.832 69.426 123.137 69.426 c h
120.125 69.426 m f*
133.52 69.211 m 130.867 69.188 128.777 71.16 128.777 73.563 c 128.777 76.156
 130.891 77.953 133.395 77.953 c 135.914 77.953 138.051 76.082 138.051 73.5
 c 138.051 71.223 136.18 69.238 133.52 69.211 c h
133.434 70.121 m 135.434 70.121 136.609 71.906 136.609 73.754 c 136.609
 75.637 135.383 77.043 133.457 77.043 c 131.473 77.043 130.219 75.223 130.219
 73.449 c 130.219 71.539 131.473 70.121 133.434 70.121 c h
133.434 70.121 m f*
142.406 76.727 m 142.406 71.211 l 142.406 70.641 142.316 69.703 142.961
 69.461 c 142.961 69.426 l 140.543 69.426 l 140.543 69.461 l 141.188 69.703
 141.113 70.629 141.113 71.211 c 141.113 75.98 l 141.113 76.551 141.188 
77.484 140.543 77.711 c 140.543 77.75 l 145.746 77.75 l 146.402 76.066 l
 146.363 76.066 l 145.73 76.602 144.984 76.891 144.125 76.84 c h
142.406 76.727 m f*
152.031 74.105 m 155.145 69.426 l 152.93 69.426 l 152.93 69.461 l 153.637
 69.805 153.348 70.414 153.129 70.73 c 151.563 73.082 l 149.539 69.781 l
 149.371 69.512 148.996 69.426 148.59 69.426 c 147.438 69.426 l 148.043 
69.754 148.297 70.172 148.637 70.73 c 150.742 74.105 l 150.742 75.98 l 150.742
 76.574 150.828 77.398 150.207 77.711 c 150.207 77.75 l 152.676 77.75 l 
152.676 77.711 l 152.031 77.246 152.031 76.863 152.031 76.105 c h
152.031 74.105 m f*
168.539 77.75 m 170.402 77.75 l 170.402 77.711 l 169.754 77.477 169.828
 76.551 169.828 75.98 c 169.828 71.211 l 169.828 70.629 169.754 69.703 170.402
 69.461 c 170.387 69.426 l 167.984 69.426 l 167.984 69.461 l 168.617 69.703
 168.539 70.629 168.539 71.195 c 168.539 75.008 l 168.539 75.461 168.551
 75.777 168.273 76.156 c 167.855 76.754 167.137 77.043 166.426 77.043 c 
165.125 77.043 164.414 76.258 164.414 74.574 c 164.414 71.195 l 164.414 
70.629 164.34 69.703 164.973 69.461 c 164.973 69.426 l 162.566 69.426 l 
162.566 69.461 l 163.211 69.703 163.121 70.629 163.121 71.195 c 163.121 
74.574 l 163.121 75.484 163.098 76.336 163.77 77.066 c 164.34 77.688 165.223
 77.953 166.059 77.953 c 166.945 77.953 167.984 77.648 168.539 76.914 c 
h
168.539 77.75 m f*
174.891 71.211 m 179.234 76.715 l 179.801 77.438 180.18 77.852 181.078 
78.156 c 181.078 71.059 l 181.078 70.348 181.078 69.844 181.734 69.461 c
 181.734 69.426 l 179.508 69.426 l 179.508 69.461 l 180.18 69.844 180.168
 70.348 180.168 71.059 c 180.168 75.855 l 175.539 70.008 l 175.359 69.754
 l 175.27 69.652 175.219 69.59 175.168 69.438 c 175.168 69.426 l 173.324
 69.426 l 173.324 69.461 l 173.98 69.844 173.98 70.348 173.98 71.055 c 173.98
 76.105 l 173.98 76.816 173.98 77.32 173.313 77.711 c 173.313 77.75 l 175.551
 77.75 l 175.551 77.711 l 174.879 77.32 174.891 76.816 174.891 76.105 c 
h
174.891 71.211 m f*
185.051 75.98 m 185.051 76.551 185.129 77.484 184.496 77.711 c 184.496 
77.75 l 186.898 77.75 l 186.898 77.711 l 186.266 77.477 186.344 76.551 186.344
 75.98 c 186.344 71.211 l 186.344 70.641 186.266 69.703 186.898 69.461 c
 186.898 69.426 l 184.496 69.426 l 184.496 69.461 l 185.141 69.703 185.051
 70.629 185.051 71.211 c h
185.051 75.98 m f*
193.324 76.258 m 191.316 70.754 l 191.215 70.477 190.945 69.855 190.973
 69.578 c 190.984 69.426 l 189.137 69.426 l 189.137 69.461 l 189.695 69.895
 189.887 70.629 190.125 71.273 c 192.035 76.449 l 192.402 77.449 192.695
 77.547 193.582 78.133 c 196.918 69.426 l 195.035 69.426 l 195.035 69.461
 l 195.82 69.781 195.387 70.816 195.047 71.715 c 193.328 76.258 l h
193.324 76.258 m f*
201.348 73.691 m 202.281 73.691 l 202.676 73.691 203.207 73.68 203.41 74.043
 c 203.449 74.043 l 203.449 72.703 l 203.41 72.703 l 203.258 72.777 203.055
 72.777 202.852 72.777 c 201.348 72.777 l 201.348 70.426 l 201.754 70.348
 202.195 70.336 202.641 70.336 c 203.219 70.336 203.738 70.387 204.133 70.844
 c 204.172 70.844 l 204.172 69.363 l 204.133 69.363 l 203.965 69.449 203.75
 69.426 203.535 69.426 c 199.488 69.426 l 199.488 69.461 l 200.133 69.703
 200.055 70.629 200.055 71.211 c 200.055 75.98 l 200.055 76.551 200.133 
77.484 199.488 77.715 c 199.488 77.75 l 204.766 77.75 l 205.332 76.094 l
 205.293 76.094 l 204.664 76.652 203.789 76.914 202.953 76.84 c 201.348 
76.691 l h
201.348 73.691 m f*
208.051 69.426 m 208.051 69.461 l 208.695 69.703 208.605 70.629 208.605
 71.211 c 208.605 75.98 l 208.605 76.551 208.695 77.484 208.051 77.711 c
 208.051 77.75 l 210.465 77.75 l 210.465 77.711 l 209.82 77.484 209.898 
76.563 209.898 75.98 c 209.898 70.309 l 210.191 70.262 210.465 70.223 210.758
 70.207 c 211.605 70.172 212.391 70.703 212.391 71.613 c 212.391 72.805 
211.215 73.27 210.203 73.426 c 211.363 75.207 l 212.91 77.117 l 213.289 
77.586 213.707 77.75 214.375 77.75 c 215.543 77.75 l 214.82 77.297 214.023
 76.641 213.492 75.98 c 211.672 73.691 l 212.707 73.449 213.68 72.574 213.68
 71.465 c 213.68 70.309 212.758 69.426 211.063 69.426 c h
208.051 69.426 m f*
222.461 69.5 m 221.852 69.313 221.207 69.223 220.574 69.223 c 219.031 69.223
 217.398 69.832 217.398 71.426 c 217.398 74.105 221.75 73.754 221.75 75.727
 c 221.75 76.613 220.664 77.043 219.941 77.043 c 218.953 77.043 217.918 
76.641 217.172 75.992 c 217.539 77.574 l 218.258 77.84 219.031 77.953 219.801
 77.953 c 221.777 77.953 223.195 76.691 223.195 75.332 c 223.195 72.996 
218.84 73.02 218.84 71.285 c 218.84 70.41 219.75 70.133 220.473 70.133 c
 221.18 70.133 221.965 70.426 222.461 70.93 c h
222.461 69.5 m f*
226.672 75.98 m 226.672 76.551 226.746 77.484 226.113 77.711 c 226.113 
77.75 l 228.52 77.75 l 228.52 77.711 l 227.887 77.477 227.961 76.551 227.961
 75.98 c 227.961 71.211 l 227.961 70.641 227.887 69.703 228.52 69.461 c 
228.52 69.426 l 226.113 69.426 l 226.113 69.461 l 226.758 69.703 226.672
 70.629 226.672 71.211 c h
226.672 75.98 m f*
235.07 70.336 m 236.211 70.336 l 236.629 70.336 237.133 70.398 237.297 
70.844 c 237.336 70.844 l 237.742 69.336 l 237.703 69.336 l 237.539 69.41
 237.336 69.426 237.121 69.426 c 232.082 69.426 l 231.918 69.398 231.758
 69.398 231.605 69.336 c 231.566 69.336 l 231.121 70.844 l 231.16 70.844
 l 231.555 70.477 232.121 70.336 232.664 70.336 c 233.781 70.336 l 233.781
 75.98 l 233.781 76.551 233.855 77.477 233.223 77.711 c 233.223 77.75 l 
235.727 77.75 l 235.727 77.711 l 235.059 77.324 235.07 76.828 235.07 76.105
 c h
235.07 70.336 m f*
242.59 67.578 m 242.59 67.176 242.27 66.773 241.855 66.773 c 241.398 66.773
 241.031 67.098 241.031 67.555 c 241.031 67.973 241.375 68.363 241.789 68.363
 c 242.246 68.363 242.59 68.035 242.59 67.578 c h
244.918 67.57 m 244.918 67.164 244.598 66.773 244.172 66.773 c 243.727 
66.773 243.359 67.098 243.359 67.555 c 243.359 67.961 243.691 68.363 244.121
 68.363 c 244.574 68.363 244.918 68.035 244.918 67.57 c h
244.414 74.324 m 245.094 76.109 l 245.434 76.996 245.535 77.137 244.918
 77.41 c 244.918 77.449 l 247.508 77.449 l 247.508 77.41 l 246.789 77.047
 246.563 76.34 246.27 75.617 c 243.641 69.125 l 241.637 69.125 l 241.637
 69.16 l 242.246 69.352 242.008 69.883 241.828 70.34 c 239.715 75.617 l 
239.422 76.34 239.223 77.047 238.488 77.41 c 238.488 77.449 l 240.816 77.449
 l 240.816 77.41 l 240.207 77.184 240.297 76.816 240.566 76.109 c 241.223
 74.324 l h
244.043 73.391 m 241.551 73.391 l 242.805 70.199 l h
244.043 73.391 m f*
252.027 70.035 m 253.168 70.035 l 253.582 70.035 254.094 70.098 254.254
 70.543 c 254.293 70.543 l 254.699 69.035 l 254.66 69.035 l 254.496 69.109
 254.293 69.125 254.078 69.125 c 249.039 69.125 l 248.879 69.098 248.715
 69.098 248.563 69.035 c 248.523 69.035 l 248.082 70.543 l 248.121 70.543
 l 248.512 70.176 249.078 70.035 249.625 70.035 c 250.738 70.035 l 250.738
 75.68 l 250.738 76.25 250.813 77.176 250.18 77.41 c 250.18 77.449 l 252.688
 77.449 l 252.688 77.41 l 252.016 77.023 252.027 76.527 252.027 75.805 c
 h
252.027 70.035 m f*
Q Q
showpage
%%Trailer
end
%%EOF
