%!PS-Adobe-3.0 EPSF-3.0
%%Creator: cairo 1.15.10 (http://cairographics.org)
%%CreationDate: Tue Mar 26 19:07:39 2019
%%Pages: 1
%%DocumentData: Clean7Bit
%%LanguageLevel: 2
%%BoundingBox: 0 0 256 85
%%EndComments
%%BeginProlog
50 dict begin
/q { gsave } bind def
/Q { grestore } bind def
/cm { 6 array astore concat } bind def
/w { setlinewidth } bind def
/J { setlinecap } bind def
/j { setlinejoin } bind def
/M { setmiterlimit } bind def
/d { setdash } bind def
/m { moveto } bind def
/l { lineto } bind def
/c { curveto } bind def
/h { closepath } bind def
/re { exch dup neg 3 1 roll 5 3 roll moveto 0 rlineto
      0 exch rlineto 0 rlineto closepath } bind def
/S { stroke } bind def
/f { fill } bind def
/f* { eofill } bind def
/n { newpath } bind def
/W { clip } bind def
/W* { eoclip } bind def
/BT { } bind def
/ET { } bind def
/BDC { mark 3 1 roll /BDC pdfmark } bind def
/EMC { mark /EMC pdfmark } bind def
/cairo_store_point { /cairo_point_y exch def /cairo_point_x exch def } def
/Tj { show currentpoint cairo_store_point } bind def
/TJ {
  {
    dup
    type /stringtype eq
    { show } { -0.001 mul 0 cairo_font_matrix dtransform rmoveto } ifelse
  } forall
  currentpoint cairo_store_point
} bind def
/cairo_selectfont { cairo_font_matrix aload pop pop pop 0 0 6 array astore
    cairo_font exch selectfont cairo_point_x cairo_point_y moveto } bind def
/Tf { pop /cairo_font exch def /cairo_font_matrix where
      { pop cairo_selectfont } if } bind def
/Td { matrix translate cairo_font_matrix matrix concatmatrix dup
      /cairo_font_matrix exch def dup 4 get exch 5 get cairo_store_point
      /cairo_font where { pop cairo_selectfont } if } bind def
/Tm { 2 copy 8 2 roll 6 array astore /cairo_font_matrix exch def
      cairo_store_point /cairo_font where { pop cairo_selectfont } if } bind def
/g { setgray } bind def
/rg { setrgbcolor } bind def
/d1 { setcachedevice } bind def
/cairo_data_source {
  CairoDataIndex CairoData length lt
    { CairoData CairoDataIndex get /CairoDataIndex CairoDataIndex 1 add def }
    { () } ifelse
} def
/cairo_flush_ascii85_file { cairo_ascii85_file status { cairo_ascii85_file flushfile } if } def
/cairo_image { image cairo_flush_ascii85_file } def
/cairo_imagemask { imagemask cairo_flush_ascii85_file } def
%%EndProlog
%%BeginSetup
%%EndSetup
%%Page: 1 1
%%BeginPageSetup
%%PageBoundingBox: 0 0 256 85
%%EndPageSetup
q 0 0 256 85 rectclip
1 0 0 -1 0 85 cm q
0 0.282353 0.388235 rg
152.496 9.141 m 152.496 9.762 152.527 10.238 151.895 10.551 c 151.895 10.578
 l 154.039 10.578 l 154.039 10.551 l 153.484 10.191 153.527 9.719 153.527
 9.141 c 153.527 3.379 l 153.496 3.379 l 153.027 4.199 152.219 4.848 151.313
 5.168 c 151.313 5.199 l 152.496 5.199 l 152.496 9.141 l f
161.355 4.535 m 161.832 4.535 162.313 4.617 162.781 4.719 c 160.211 10.578
 l 161.914 10.578 l 161.914 10.551 l 161.434 10.344 161.637 9.895 162.23
 8.516 c 164.223 3.863 l 159.82 3.863 l 159.359 5.086 l 159.395 5.086 l 
159.953 4.656 160.637 4.535 161.355 4.535 c f
170.262 4.535 m 170.742 4.535 171.223 4.617 171.691 4.719 c 169.117 10.578
 l 170.824 10.578 l 170.824 10.551 l 170.344 10.344 170.547 9.895 171.141
 8.516 c 173.129 3.863 l 168.73 3.863 l 168.27 5.086 l 168.301 5.086 l 168.863
 4.656 169.547 4.535 170.262 4.535 c f
179.809 9.457 m 179.809 9.977 179.867 10.344 179.309 10.551 c 179.309 10.578
 l 181.289 10.578 l 181.289 10.551 l 180.852 10.324 180.84 9.844 180.84 
9.395 c 180.84 9.191 l 181.645 9.191 l 182.137 7.965 l 181.781 8.262 181.309
 8.395 180.84 8.395 c 180.84 3.863 l 179.434 3.863 l 176.254 9.191 l 179.809
 9.191 l h
177.652 8.324 m 179.809 4.605 l 179.809 8.395 l 178.922 8.395 178.184 8.352
 177.652 8.324 c f
76.898 9.844 m 75.602 9.719 l 75.602 7.301 l 76.359 7.301 l 76.676 7.301
 77.102 7.289 77.266 7.586 c 77.297 7.586 l 77.297 6.504 l 77.266 6.504 
l 77.145 6.566 76.98 6.566 76.816 6.566 c 75.602 6.566 l 75.602 4.664 l 
75.93 4.605 76.285 4.594 76.645 4.594 c 77.113 4.594 77.535 4.637 77.848
 5.004 c 77.879 5.004 l 77.879 3.809 l 77.848 3.809 l 77.715 3.879 77.543
 3.863 77.367 3.863 c 74.102 3.863 l 74.102 3.891 l 74.621 4.086 74.563 
4.828 74.563 5.301 c 74.563 9.148 l 74.563 9.609 74.621 10.367 74.102 10.551
 c 74.102 10.578 l 78.359 10.578 l 78.816 9.242 l 78.785 9.242 l 78.277 
9.691 77.574 9.902 76.898 9.844 c f
86.535 7.188 m 86.996 7.371 87.008 7.875 87.008 8.34 c 87.008 9.813 l 86.547
 9.945 86.055 10.008 85.586 10.008 c 83.973 10.008 82.668 8.762 82.668 7.117
 c 82.668 5.473 83.883 4.434 85.473 4.434 c 86.098 4.434 86.871 4.574 87.293
 5.047 c 87.324 5.047 l 87.324 3.871 l 86.793 3.758 86.262 3.695 85.719 
3.695 c 83.25 3.695 81.504 5.066 81.504 7.258 c 81.504 9.313 83.043 10.742
 85.66 10.742 c 86.484 10.742 87.281 10.59 88.098 10.438 c 88.039 10.293
 88.047 10.129 88.047 9.977 c 88.047 7.629 l 88.047 7.473 88.047 7.313 88.098
 7.188 c 88.098 7.156 l 86.535 7.156 l 86.535 7.188 l f
93.77 9.844 m 92.473 9.719 l 92.473 7.301 l 93.227 7.301 l 93.543 7.301
 93.973 7.289 94.133 7.586 c 94.164 7.586 l 94.164 6.504 l 94.133 6.504 
l 94.012 6.566 93.852 6.566 93.684 6.566 c 92.473 6.566 l 92.473 4.664 l
 92.797 4.605 93.156 4.594 93.516 4.594 c 93.98 4.594 94.402 4.637 94.715
 5.004 c 94.75 5.004 l 94.75 3.809 l 94.715 3.809 l 94.586 3.879 94.41 3.863
 94.238 3.863 c 90.969 3.863 l 90.969 3.891 l 91.488 4.086 91.43 4.828 91.43
 5.301 c 91.43 9.148 l 91.43 9.609 91.488 10.367 90.969 10.551 c 90.969 
10.578 l 95.227 10.578 l 95.688 9.242 l 95.656 9.242 l 95.148 9.691 94.441
 9.902 93.77 9.844 c f
102.949 9.148 m 101.477 7.301 l 102.313 7.105 103.102 6.402 103.102 5.504
 c 103.102 4.574 102.355 3.863 100.988 3.863 c 98.555 3.863 l 98.555 3.891
 l 99.074 4.086 99.004 4.832 99.004 5.301 c 99.004 9.148 l 99.004 9.609 
99.074 10.367 98.555 10.551 c 98.555 10.578 l 100.508 10.578 l 100.508 10.551
 l 99.984 10.367 100.047 9.621 100.047 9.148 c 100.047 4.574 l 100.281 4.535
 100.508 4.504 100.738 4.496 c 101.426 4.465 102.059 4.891 102.059 5.625
 c 102.059 6.586 101.109 6.965 100.289 7.086 c 101.23 8.527 l 102.477 10.07
 l 102.781 10.449 103.117 10.578 103.66 10.578 c 104.598 10.578 l 104.02
 10.211 103.375 9.68 102.949 9.148 c f
128 22.023 m 113.281 28.551 l 107.246 28.539 l 107.246 32.211 l 54.418 
32.191 l 55.48 33.773 l 55.48 62.383 l 0 62.383 l 0 63.41 l 254.363 63.41
 l 254.363 62.383 l 200.496 62.383 l 200.496 33.773 l 201.559 32.191 l 148.738
 32.211 l 148.738 28.539 l 142.844 28.551 l h
128 22.973 m 140.473 28.551 l 115.5 28.551 l h
108.125 29.77 m 111.699 29.77 l 111.719 51.121 l 108.125 51.121 l h
112.551 29.77 m 114.633 29.77 l 114.633 51.125 l 112.551 51.121 l h
115.512 29.77 m 140.465 29.77 l 140.465 51.125 l 137.645 51.129 l 137.633
 44.871 l 137.633 43.957 137.008 43.047 135.68 43.047 c 134.352 43.047 133.727
 44.094 133.727 44.82 c 133.727 51.125 l 129.957 51.125 l 129.957 44.871
 l 129.957 43.957 129.328 43.047 128 43.047 c 126.672 43.047 126.023 43.957
 126.023 44.871 c 126.023 51.125 l 122.254 51.125 l 122.254 44.82 l 122.254
 44.094 121.629 43.047 120.301 43.047 c 118.973 43.047 118.344 43.957 118.344
 44.871 c 118.332 51.129 l 115.512 51.125 l h
141.316 29.77 m 143.395 29.77 l 143.395 51.121 l 141.316 51.125 l h
144.25 29.77 m 147.824 29.77 l 147.824 51.121 l 144.234 51.121 l h
107.246 33.762 m 107.246 51.125 l 76.801 51.125 l 76.801 33.832 l h
148.738 33.762 m 179.176 33.832 l 179.176 51.125 l 148.738 51.125 l h
56.371 33.832 m 58.383 33.832 l 58.406 51.125 l 56.371 51.125 l h
59.289 33.832 m 73.012 33.832 l 73.012 51.125 l 59.266 51.125 l h
73.836 33.832 m 75.898 33.832 l 75.898 51.125 l 73.836 51.125 l h
180.082 33.832 m 182.141 33.832 l 182.141 51.125 l 180.082 51.125 l h
182.969 33.832 m 196.691 33.832 l 196.711 51.125 l 182.969 51.125 l h
197.594 33.832 m 199.605 33.832 l 199.605 51.125 l 197.574 51.125 l h
56.371 52.004 m 58.383 52.004 l 58.383 62.379 l 56.371 62.379 l h
108.125 52.004 m 111.699 52.012 l 111.699 62.383 l 108.125 62.383 l h
114.633 52.004 m 114.633 62.379 l 112.551 62.383 l 112.551 52.012 l h
115.512 52.004 m 115.945 52.004 l 115.945 52.809 l 116.793 52.809 l 116.793
 52.004 l 117.492 52.004 l 117.492 52.809 l 118.344 52.809 l 118.344 52.004
 l 122.254 52.004 l 122.254 52.809 l 123.102 52.809 l 123.102 52.004 l 123.879
 52.012 l 123.879 52.809 l 124.73 52.809 l 124.73 52.004 l 131.25 52.004
 l 131.25 52.809 l 132.102 52.809 l 132.102 52.012 l 132.875 52.004 l 132.875
 52.809 l 133.727 52.809 l 133.727 52.004 l 137.633 52.004 l 137.633 52.809
 l 138.488 52.809 l 138.484 52.004 l 139.184 52.004 l 139.184 52.809 l 140.031
 52.809 l 140.031 52.004 l 140.465 52.004 l 140.477 62.383 l 137.633 62.383
 l 137.633 55.941 l 137.633 55.031 137.008 54.117 135.68 54.117 c 134.352
 54.117 133.727 55.031 133.727 55.941 c 133.719 62.391 l 130.656 62.383 
l 130.656 56.004 l 130.656 54.988 129.895 53.582 128 53.563 c 127.977 53.563
 l 126.082 53.582 125.324 54.988 125.324 56.004 c 125.324 62.383 l 122.254
 62.383 l 122.254 55.941 l 122.254 55.031 121.629 54.117 120.301 54.117 
c 118.973 54.117 118.344 55.031 118.344 55.941 c 118.344 62.383 l 115.504
 62.383 l h
141.348 52.004 m 143.43 52.012 l 143.43 62.383 l 141.348 62.379 l h
147.855 52.004 m 147.855 62.383 l 144.281 62.383 l 144.281 52.012 l h
197.594 52.004 m 199.605 52.004 l 199.605 62.379 l 197.594 62.379 l h
59.285 52.012 m 73.008 52.012 l 73.008 62.383 l 59.285 62.383 l h
73.836 52.012 m 75.898 52.012 l 75.898 62.379 l 73.836 62.383 l h
76.801 52.012 m 107.246 52.012 l 107.246 62.383 l 76.801 62.383 l h
148.73 52.012 m 179.176 52.012 l 179.176 62.383 l 148.73 62.383 l h
180.082 52.012 m 182.141 52.012 l 182.141 62.383 l 180.082 62.379 l h
182.969 52.012 m 196.691 52.012 l 196.691 62.383 l 182.969 62.383 l h
182.969 52.012 m f
149.559 28.539 m 149.559 31.504 l 177.094 31.504 l 186.207 21.383 l 182.137
 18.605 l 146.574 18.574 l 151.309 28.539 l 149.559 28.539 l f
142.18 17.934 m 145.863 18.27 l 136.32 12.148 l 142.18 17.934 l f
145.477 27.816 m 150.176 27.816 l 146.047 18.945 l 142.332 18.574 l 145.477
 27.816 l f
138.168 42.426 m 138.168 41.875 l 138.512 41.875 l 138.512 41.301 l 135.68
 40.156 l 132.848 41.301 l 132.848 41.875 l 133.191 41.875 l 133.191 42.426
 l 133.754 42.426 l 133.754 41.879 l 137.617 41.879 l 137.617 42.426 l 138.168
 42.426 l f
137.633 38.961 m 137.633 38.961 137.633 35.371 137.633 34.461 c 137.633
 33.547 137.008 32.637 135.68 32.637 c 134.352 32.637 133.727 33.547 133.727
 34.461 c 133.727 35.371 133.727 38.961 133.727 38.961 c 137.633 38.961 
l f
138.531 30.859 m 132.824 30.859 l 132.824 31.508 l 133.184 31.508 l 133.184
 32.305 l 133.727 32.305 l 133.727 31.961 l 133.727 31.961 134.402 31.508
 135.68 31.508 c 136.969 31.508 137.633 31.961 137.633 31.961 c 137.633 
32.305 l 138.156 32.305 l 138.156 31.508 l 138.531 31.508 l 138.531 30.859
 l f
159.129 55.57 m 159.129 54.777 158.609 54.465 157.652 54.465 c 156.699 
54.465 156.219 54.777 156.219 55.57 c 156.219 56.363 156.219 59.797 156.219
 59.797 c 159.129 59.797 l 159.129 59.797 159.129 56.363 159.129 55.57 c
 f
165.41 55.57 m 165.41 54.777 164.891 54.465 163.938 54.465 c 162.98 54.465
 162.5 54.777 162.5 55.57 c 162.5 56.363 162.5 59.797 162.5 59.797 c 165.41
 59.797 l 165.41 59.797 165.41 56.363 165.41 55.57 c f
171.695 55.57 m 171.695 54.777 171.176 54.465 170.219 54.465 c 169.266 
54.465 168.781 54.777 168.781 55.57 c 168.781 56.363 168.781 59.797 168.781
 59.797 c 171.695 59.797 l 171.695 59.797 171.695 56.363 171.695 55.57 c
 f
177.977 55.57 m 177.977 54.777 177.457 54.465 176.5 54.465 c 175.547 54.465
 175.066 54.777 175.066 55.57 c 175.066 56.363 175.066 59.797 175.066 59.797
 c 177.977 59.797 l 177.977 59.797 177.977 56.363 177.977 55.57 c f
152.848 55.57 m 152.848 54.777 152.328 54.465 151.371 54.465 c 150.414 
54.465 149.934 54.777 149.934 55.57 c 149.934 56.363 149.934 59.797 149.934
 59.797 c 152.848 59.797 l 152.848 59.797 152.848 56.363 152.848 55.57 c
 f
159.129 35.641 m 159.129 34.836 158.609 34.52 157.652 34.52 c 156.699 34.52
 156.219 34.836 156.219 35.641 c 156.219 36.445 156.219 39.855 156.219 39.855
 c 159.129 39.855 l 159.129 39.855 159.129 36.445 159.129 35.641 c f
165.41 35.641 m 165.41 34.836 164.891 34.52 163.938 34.52 c 162.98 34.52
 162.5 34.836 162.5 35.641 c 162.5 36.445 162.5 39.855 162.5 39.855 c 165.41
 39.855 l 165.41 39.855 165.41 36.445 165.41 35.641 c f
171.691 35.641 m 171.691 34.836 171.176 34.52 170.215 34.52 c 169.266 34.52
 168.785 34.836 168.785 35.641 c 168.785 36.445 168.785 39.855 168.785 39.855
 c 171.691 39.855 l 171.691 39.855 171.691 36.445 171.691 35.641 c f
177.973 35.641 m 177.973 34.836 177.457 34.52 176.5 34.52 c 175.547 34.52
 175.066 34.836 175.066 35.641 c 175.066 36.445 175.066 39.855 175.066 39.855
 c 177.973 39.855 l 177.973 39.855 177.973 36.445 177.973 35.641 c f
152.852 35.641 m 152.852 34.836 152.328 34.52 151.371 34.52 c 150.418 34.52
 149.938 34.836 149.938 35.641 c 149.938 36.445 149.938 39.855 149.938 39.855
 c 152.852 39.855 l 152.852 39.855 152.852 36.445 152.852 35.641 c f
171.691 43.18 m 171.691 43.145 171.691 43.121 171.691 43.121 c 168.785 
43.121 l 168.785 43.121 168.785 43.145 168.785 43.18 c 168.785 48.766 l 
171.691 48.766 l 171.691 43.18 l f
177.973 43.18 m 177.973 43.145 177.973 43.121 177.973 43.121 c 175.066 
43.121 l 175.066 43.121 175.066 43.145 175.066 43.18 c 175.066 48.766 l 
177.973 48.766 l 177.973 43.18 l f
165.41 43.18 m 165.41 43.145 165.41 43.121 165.41 43.121 c 162.5 43.121
 l 162.5 43.121 162.5 43.145 162.5 43.18 c 162.5 48.766 l 165.41 48.766 
l 165.41 43.18 l f
159.129 43.18 m 159.129 43.145 159.129 43.121 159.129 43.121 c 156.219 
43.121 l 156.219 43.121 156.219 43.145 156.219 43.18 c 156.219 48.766 l 
159.129 48.766 l 159.129 43.18 l f
152.852 43.18 m 152.852 43.145 152.852 43.121 152.852 43.121 c 149.938 
43.121 l 149.938 43.121 149.938 43.145 149.938 43.18 c 149.938 48.766 l 
152.852 48.766 l 152.852 43.18 l f
188.156 55.66 m 188.156 54.867 187.637 54.559 186.68 54.559 c 185.727 54.559
 185.246 54.867 185.246 55.66 c 185.246 56.453 185.246 59.887 185.246 59.887
 c 188.156 59.887 l 188.156 59.887 188.156 56.453 188.156 55.66 c f
194.438 55.66 m 194.438 54.867 193.922 54.559 192.965 54.559 c 192.008 
54.559 191.527 54.867 191.527 55.66 c 191.527 56.453 191.527 59.887 191.527
 59.887 c 194.438 59.887 l 194.438 59.887 194.438 56.453 194.438 55.66 c
 f
186.68 34.559 m 185.727 34.559 185.246 34.867 185.246 35.664 c 185.246 
36.457 185.246 39.813 185.246 39.813 c 188.156 39.813 l 188.156 39.813 188.156
 36.457 188.156 35.664 c 188.156 34.867 187.637 34.559 186.68 34.559 c f
192.965 34.559 m 192.008 34.559 191.527 34.867 191.527 35.664 c 191.527
 36.457 191.527 39.813 191.527 39.813 c 194.438 39.813 l 194.438 39.813 
194.438 36.457 194.438 35.664 c 194.438 34.867 193.922 34.559 192.965 34.559
 c f
185.246 43.18 m 185.246 48.766 l 188.156 48.766 l 188.156 43.18 l 188.156
 43.145 188.156 43.121 188.156 43.121 c 185.246 43.121 l 185.246 43.121 
185.246 43.145 185.246 43.18 c f
191.527 43.18 m 191.527 48.766 l 194.438 48.766 l 194.438 43.18 l 194.438
 43.145 194.438 43.121 194.438 43.121 c 191.527 43.121 l 191.527 43.121 
191.527 43.145 191.527 43.18 c f
187.434 21 m 178.074 31.523 l 201.559 31.523 l 202.004 31.52 l 202.305 
31.102 l 193.121 24.867 l 192.949 24.242 192.574 23.484 191.809 22.926 c
 190.836 22.211 189.957 22.195 189.289 22.27 c h
189.777 23.074 m 190.898 23.055 192.266 23.949 192.367 25.496 c 192.398
 25.941 192.32 26.141 192.23 26.457 c 192.102 26.902 192.223 27.266 192.469
 27.566 c 192.77 27.93 193.047 28.242 194.254 28.242 c 195.879 28.25 l 195.879
 29.758 l 183.652 29.758 l 183.652 28.25 l 185.273 28.242 l 186.48 28.242
 186.758 27.93 187.059 27.566 c 187.305 27.266 187.426 26.902 187.301 26.457
 c 187.207 26.141 187.133 25.941 187.164 25.496 c 187.266 23.949 188.664
 23.055 189.777 23.074 c h
189.777 23.074 m f
146.145 33.926 m 145.594 33.926 145.332 34.727 145.332 35.527 c 145.332
 36.332 145.332 39.227 145.332 39.227 c 146.957 39.227 l 146.957 39.227 
146.957 36.332 146.957 35.527 c 146.957 34.727 146.695 33.926 146.145 33.926
 c f
146.145 42.742 m 145.594 42.742 145.332 43.543 145.332 44.344 c 145.332
 45.145 145.332 48.043 145.332 48.043 c 146.957 48.043 l 146.957 48.043 
146.957 45.145 146.957 44.344 c 146.957 43.543 146.695 42.742 146.145 42.742
 c f
146.145 54.09 m 145.594 54.09 145.332 54.887 145.332 55.691 c 145.332 56.492
 145.332 59.387 145.332 59.387 c 146.957 59.387 l 146.957 59.387 146.957
 56.492 146.957 55.691 c 146.957 54.887 146.695 54.09 146.145 54.09 c f
189.809 27.188 m 190.66 27.188 191.352 26.496 191.352 25.645 c 191.352 
24.789 190.66 24.098 189.809 24.098 c 188.953 24.098 188.262 24.789 188.262
 25.645 c 188.262 26.496 188.953 27.188 189.809 27.188 c f
113.797 17.934 m 110.117 18.27 l 119.656 12.148 l 113.797 17.934 l f
110.504 27.816 m 105.801 27.816 l 109.93 18.945 l 113.648 18.574 l 110.504
 27.816 l f
144.664 27.816 m 142.992 27.816 l 128 21.184 l 112.988 27.816 l 111.313
 27.816 l 114.438 18.574 l 141.543 18.574 l 144.664 27.816 l f
117.813 42.426 m 117.813 41.875 l 117.465 41.875 l 117.465 41.301 l 120.297
 40.156 l 123.133 41.301 l 123.133 41.875 l 122.785 41.875 l 122.785 42.426
 l 122.227 42.426 l 122.227 41.879 l 118.359 41.879 l 118.359 42.426 l 117.813
 42.426 l f
118.344 38.961 m 118.344 38.961 118.344 35.371 118.344 34.461 c 118.344
 33.547 118.969 32.637 120.297 32.637 c 121.625 32.637 122.254 33.547 122.254
 34.461 c 122.254 35.371 122.254 38.961 122.254 38.961 c 118.344 38.961 
l f
117.453 30.859 m 123.156 30.859 l 123.156 31.508 l 122.793 31.508 l 122.793
 32.305 l 122.254 32.305 l 122.254 31.961 l 122.254 31.961 121.574 31.508
 120.297 31.508 c 119.012 31.508 118.344 31.961 118.344 31.961 c 118.344
 32.305 l 117.824 32.305 l 117.824 31.508 l 117.453 31.508 l 117.453 30.859
 l f
128 0 m 130.98 0.07 131.207 3.031 131.207 3.031 c 124.77 3.031 l 124.77
 3.031 125 0.07 127.98 0 c 127.98 0.137 l 128 0 l f
96.852 55.57 m 96.852 54.777 97.367 54.465 98.324 54.465 c 99.281 54.465
 99.762 54.777 99.762 55.57 c 99.762 56.363 99.762 59.797 99.762 59.797 
c 96.852 59.797 l 96.852 59.797 96.852 56.363 96.852 55.57 c f
129.957 42.426 m 129.957 41.879 l 126.043 41.879 l 126.043 42.426 l 125.516
 42.426 l 125.516 41.875 l 125.168 41.875 l 125.168 41.301 l 128 40.156 
l 130.828 41.301 l 130.828 41.875 l 130.488 41.875 l 130.488 42.426 l 129.957
 42.426 l f
129.961 31.961 m 129.961 31.961 129.289 31.508 128 31.508 c 126.715 31.508
 126.043 31.961 126.043 31.961 c 126.043 32.305 l 125.52 32.305 l 125.52
 31.508 l 125.145 31.508 l 125.145 30.859 l 130.855 30.859 l 130.855 31.508
 l 130.48 31.508 l 130.48 32.305 l 129.961 32.305 l 129.961 31.961 l f
90.57 55.57 m 90.57 54.777 91.086 54.465 92.043 54.465 c 92.996 54.465 
93.477 54.777 93.477 55.57 c 93.477 56.363 93.477 59.797 93.477 59.797 c
 90.57 59.797 l 90.57 59.797 90.57 56.363 90.57 55.57 c f
128.008 32.637 m 129.336 32.637 129.961 33.547 129.961 34.461 c 129.961
 38.961 l 126.02 38.961 l 126.02 34.461 l 126.02 33.547 126.645 32.637 127.969
 32.637 c 128.008 32.637 l f
84.285 55.57 m 84.285 54.777 84.801 54.465 85.758 54.465 c 86.715 54.465
 87.195 54.777 87.195 55.57 c 87.195 56.363 87.195 59.797 87.195 59.797 
c 84.285 59.797 l 84.285 59.797 84.285 56.363 84.285 55.57 c f
78 55.57 m 78 54.777 78.52 54.465 79.477 54.465 c 80.434 54.465 80.91 54.777
 80.91 55.57 c 80.91 56.363 80.91 59.797 80.91 59.797 c 78 59.797 l 78 59.797
 78 56.363 78 55.57 c f
103.133 55.57 m 103.133 54.777 103.652 54.465 104.609 54.465 c 105.563 
54.465 106.043 54.777 106.043 55.57 c 106.043 56.363 106.043 59.797 106.043
 59.797 c 103.133 59.797 l 103.133 59.797 103.133 56.363 103.133 55.57 c
 f
96.852 35.641 m 96.852 34.836 97.367 34.52 98.324 34.52 c 99.277 34.52 
99.758 34.836 99.758 35.641 c 99.758 36.445 99.758 39.855 99.758 39.855 
c 96.852 39.855 l 96.852 39.855 96.852 36.445 96.852 35.641 c f
90.57 35.641 m 90.57 34.836 91.086 34.52 92.043 34.52 c 92.996 34.52 93.477
 34.836 93.477 35.641 c 93.477 36.445 93.477 39.855 93.477 39.855 c 90.57
 39.855 l 90.57 39.855 90.57 36.445 90.57 35.641 c f
84.285 35.641 m 84.285 34.836 84.805 34.52 85.762 34.52 c 86.715 34.52 
87.195 34.836 87.195 35.641 c 87.195 36.445 87.195 39.855 87.195 39.855 
c 84.285 39.855 l 84.285 39.855 84.285 36.445 84.285 35.641 c f
78.004 35.641 m 78.004 34.836 78.523 34.52 79.477 34.52 c 80.434 34.52 
80.914 34.836 80.914 35.641 c 80.914 36.445 80.914 39.855 80.914 39.855 
c 78.004 39.855 l 78.004 39.855 78.004 36.445 78.004 35.641 c f
103.133 35.641 m 103.133 34.836 103.648 34.52 104.605 34.52 c 105.559 34.52
 106.039 34.836 106.039 35.641 c 106.039 36.445 106.039 39.855 106.039 39.855
 c 103.133 39.855 l 103.133 39.855 103.133 36.445 103.133 35.641 c f
84.285 43.18 m 84.285 43.145 84.285 43.121 84.285 43.121 c 87.195 43.121
 l 87.195 43.121 87.195 43.145 87.195 43.18 c 87.195 48.766 l 84.285 48.766
 l 84.285 43.18 l f
78.004 43.18 m 78.004 43.145 78.004 43.121 78.004 43.121 c 80.914 43.121
 l 80.914 43.121 80.914 43.145 80.914 43.18 c 80.914 48.766 l 78.004 48.766
 l 78.004 43.18 l f
90.57 43.18 m 90.57 43.145 90.57 43.121 90.57 43.121 c 93.477 43.121 l 
93.477 43.121 93.477 43.145 93.477 43.18 c 93.477 48.766 l 90.57 48.766 
l 90.57 43.18 l f
96.852 43.18 m 96.852 43.145 96.852 43.121 96.852 43.121 c 99.758 43.121
 l 99.758 43.121 99.758 43.145 99.758 43.18 c 99.758 48.766 l 96.852 48.766
 l 96.852 43.18 l f
103.133 43.18 m 103.133 43.145 103.133 43.121 103.133 43.121 c 106.039 
43.121 l 106.039 43.121 106.039 43.145 106.039 43.18 c 106.039 48.766 l 
103.133 48.766 l 103.133 43.18 l f
67.824 55.66 m 67.824 54.867 68.34 54.559 69.297 54.559 c 70.254 54.559
 70.73 54.867 70.73 55.66 c 70.73 56.453 70.73 59.887 70.73 59.887 c 67.824
 59.887 l 67.824 59.887 67.824 56.453 67.824 55.66 c f
61.539 55.66 m 61.539 54.867 62.059 54.559 63.016 54.559 c 63.973 54.559
 64.453 54.867 64.453 55.66 c 64.453 56.453 64.453 59.887 64.453 59.887 
c 61.539 59.887 l 61.539 59.887 61.539 56.453 61.539 55.66 c f
69.297 34.559 m 70.254 34.559 70.73 34.867 70.73 35.664 c 70.73 36.457 
70.73 39.813 70.73 39.813 c 67.824 39.813 l 67.824 39.813 67.824 36.457 
67.824 35.664 c 67.824 34.867 68.34 34.559 69.297 34.559 c f
63.016 34.559 m 63.973 34.559 64.453 34.867 64.453 35.664 c 64.453 36.457
 64.453 39.813 64.453 39.813 c 61.539 39.813 l 61.539 39.813 61.539 36.457
 61.539 35.664 c 61.539 34.867 62.059 34.559 63.016 34.559 c f
70.73 43.18 m 70.73 48.766 l 67.824 48.766 l 67.824 43.18 l 67.824 43.145
 67.824 43.121 67.824 43.121 c 70.73 43.121 l 70.73 43.121 70.73 43.145 
70.73 43.18 c f
64.453 43.18 m 64.453 48.766 l 61.539 48.766 l 61.539 43.18 l 61.539 43.145
 61.539 43.121 61.539 43.121 c 64.453 43.121 l 64.453 43.121 64.453 43.145
 64.453 43.18 c f
106.418 28.539 m 106.418 31.504 l 78.883 31.504 l 69.773 21.383 l 73.844
 18.605 l 109.402 18.574 l 104.672 28.539 l 106.418 28.539 l f
68.543 21 m 66.688 22.27 l 66.02 22.195 65.145 22.211 64.172 22.926 c 63.406
 23.484 63.031 24.242 62.855 24.867 c 53.672 31.102 l 53.977 31.52 l 54.418
 31.523 l 77.902 31.523 l h
66.199 23.074 m 67.32 23.055 68.715 23.949 68.816 25.496 c 68.848 25.941
 68.77 26.141 68.68 26.457 c 68.551 26.902 68.672 27.266 68.918 27.566 c
 69.219 27.93 69.496 28.242 70.707 28.242 c 72.324 28.25 l 72.324 29.758
 l 60.102 29.758 l 60.102 28.25 l 61.723 28.242 l 62.934 28.242 63.211 27.93
 63.512 27.566 c 63.754 27.266 63.875 26.902 63.75 26.457 c 63.656 26.141
 63.582 25.941 63.609 25.496 c 63.711 23.949 65.078 23.055 66.199 23.074
 c h
66.199 23.074 m f
121.957 3.746 m 120.613 4.535 l 120.613 8.055 l 118.754 8.543 l 118.754
 12.035 l 121.68 10.723 l 114.832 17.934 l 141.145 17.934 l 134.297 10.723
 l 137.223 12.035 l 137.223 8.543 l 135.367 8.055 l 135.367 4.535 l 134.02
 3.746 l h
122.316 4.328 m 133.66 4.328 l 133.629 5.816 l 132.402 7.574 l 123.574 
7.574 l 122.348 5.816 l h
122.59 8.301 m 133.387 8.301 l 133.387 9.734 l 122.59 9.734 l h
121.848 8.398 m 121.848 9.941 l 119.332 10.988 l 119.332 9.02 l h
134.133 8.398 m 136.645 9.02 l 136.645 10.988 l 134.133 9.941 l h
134.133 8.398 m f
109.832 33.926 m 110.383 33.926 110.645 34.727 110.645 35.527 c 110.645
 36.332 110.645 39.227 110.645 39.227 c 109.02 39.227 l 109.02 39.227 109.02
 36.332 109.02 35.527 c 109.02 34.727 109.281 33.926 109.832 33.926 c f
109.832 42.742 m 110.383 42.742 110.645 43.543 110.645 44.344 c 110.645
 45.145 110.645 48.043 110.645 48.043 c 109.02 48.043 l 109.02 48.043 109.02
 45.145 109.02 44.344 c 109.02 43.543 109.281 42.742 109.832 42.742 c f
109.832 54.09 m 110.383 54.09 110.645 54.887 110.645 55.691 c 110.645 56.492
 110.645 59.387 110.645 59.387 c 109.02 59.387 l 109.02 59.387 109.02 56.492
 109.02 55.691 c 109.02 54.887 109.281 54.09 109.832 54.09 c f
66.168 27.188 m 65.316 27.188 64.625 26.496 64.625 25.645 c 64.625 24.789
 65.316 24.098 66.168 24.098 c 67.023 24.098 67.719 24.789 67.719 25.645
 c 67.719 26.496 67.023 27.188 66.168 27.188 c f
0 0.278431 0.423529 rg
3.168 73.461 m 4.133 73.461 l 4.535 73.461 5.082 73.445 5.289 73.824 c 
5.328 73.824 l 5.328 72.445 l 5.289 72.445 l 5.133 72.52 4.926 72.52 4.719
 72.52 c 3.168 72.52 l 3.168 70.098 l 3.582 70.023 4.039 70.012 4.496 70.012
 c 5.094 70.012 5.629 70.059 6.031 70.531 c 6.07 70.531 l 6.07 69.008 l 
6.031 69.008 l 5.863 69.098 5.641 69.07 5.422 69.07 c 1.254 69.07 l 1.254
 69.109 l 1.918 69.359 1.84 70.309 1.84 70.906 c 1.84 75.813 l 1.84 76.402
 1.918 77.363 1.254 77.598 c 1.254 77.637 l 6.68 77.637 l 7.27 75.93 l 7.23
 75.93 l 6.578 76.504 5.684 76.777 4.82 76.699 c 3.168 76.543 l 3.168 73.461
 l f*
15.129 69.152 m 14.504 68.957 13.84 68.863 13.188 68.863 c 11.598 68.863
 9.922 69.492 9.922 71.129 c 9.922 73.887 14.398 73.523 14.398 75.555 c 
14.398 76.465 13.281 76.91 12.535 76.91 c 11.523 76.91 10.453 76.488 9.688
 75.828 c 10.063 77.457 l 10.805 77.727 11.598 77.844 12.395 77.844 c 14.426
 77.844 15.883 76.543 15.883 75.152 c 15.883 72.742 11.402 72.77 11.402 
70.984 c 11.402 70.086 12.34 69.801 13.086 69.801 c 13.813 69.801 14.621
 70.098 15.129 70.621 c 15.129 69.152 l f*
25.379 77.637 m 26.109 75.984 l 26.07 75.984 l 25.266 76.465 24.445 76.754
 23.496 76.699 c 20.758 76.543 l 25.449 69.07 l 19.691 69.07 l 19.027 70.57
 l 19.07 70.57 l 19.746 70.125 20.211 69.957 21.02 70.012 c 23.234 70.141
 l 18.523 77.637 l 25.379 77.637 l f*
31.875 70.012 m 33.047 70.012 l 33.477 70.012 33.996 70.074 34.164 70.531
 c 34.207 70.531 l 34.621 68.98 l 34.582 68.98 l 34.414 69.059 34.207 69.07
 33.984 69.07 c 28.801 69.07 l 28.633 69.047 28.465 69.047 28.309 68.98 
c 28.27 68.98 l 27.816 70.531 l 27.852 70.531 l 28.258 70.152 28.844 70.012
 29.402 70.012 c 30.547 70.012 l 30.547 75.813 l 30.547 76.402 30.625 77.348
 29.973 77.598 c 29.973 77.637 l 32.551 77.637 l 32.551 77.598 l 31.859 
77.195 31.875 76.688 31.875 75.945 c 31.875 70.012 l f*
38.824 73.461 m 39.789 73.461 l 40.195 73.461 40.738 73.445 40.949 73.824
 c 40.984 73.824 l 40.984 72.445 l 40.949 72.445 l 40.793 72.52 40.586 72.52
 40.375 72.52 c 38.824 72.52 l 38.824 70.098 l 39.242 70.023 39.699 70.012
 40.152 70.012 c 40.754 70.012 41.285 70.059 41.688 70.531 c 41.727 70.531
 l 41.727 69.008 l 41.688 69.008 l 41.52 69.098 41.301 69.07 41.078 69.07
 c 36.91 69.07 l 36.91 69.109 l 37.574 69.359 37.5 70.309 37.5 70.906 c 
37.5 75.813 l 37.5 76.402 37.574 77.363 36.91 77.598 c 36.91 77.637 l 42.34
 77.637 l 42.926 75.93 l 42.887 75.93 l 42.234 76.504 41.34 76.777 40.477
 76.699 c 38.824 76.543 l 38.824 73.461 l f*
45.723 69.07 m 45.723 69.109 l 46.387 69.359 46.293 70.309 46.293 70.906
 c 46.293 75.813 l 46.293 76.402 46.387 77.363 45.723 77.598 c 45.723 77.637
 l 48.207 77.637 l 48.207 77.598 l 47.543 77.363 47.621 76.414 47.621 75.813
 c 47.621 69.984 l 47.922 69.93 48.207 69.891 48.508 69.879 c 49.379 69.84
 50.188 70.387 50.188 71.324 c 50.188 72.547 48.977 73.027 47.934 73.184
 c 49.133 75.02 l 50.719 76.984 l 51.109 77.469 51.543 77.637 52.23 77.637
 c 53.43 77.637 l 52.684 77.168 51.867 76.488 51.316 75.813 c 49.441 73.461
 l 50.512 73.211 51.512 72.313 51.512 71.164 c 51.512 69.984 50.563 69.07
 48.82 69.07 c 45.723 69.07 l f
61.352 73.461 m 61.352 75.813 l 61.352 76.402 61.441 77.348 60.777 77.598
 c 60.777 77.637 l 63.266 77.637 l 63.266 77.598 l 62.602 77.348 62.676 
76.402 62.676 75.813 c 62.676 70.895 l 62.676 70.309 62.602 69.359 63.266
 69.109 c 63.266 69.07 l 60.777 69.07 l 60.777 69.109 l 61.441 69.359 61.352
 70.309 61.352 70.906 c 61.352 72.52 l 56.652 72.52 l 56.652 70.906 l 56.652
 70.309 56.574 69.359 57.227 69.109 c 57.227 69.07 l 54.75 69.07 l 54.75
 69.109 l 55.414 69.359 55.324 70.309 55.324 70.895 c 55.324 75.813 l 55.324
 76.402 55.402 77.348 54.75 77.598 c 54.75 77.637 l 57.227 77.637 l 57.227
 77.598 l 56.574 77.348 56.652 76.402 56.652 75.813 c 56.652 73.461 l 61.352
 73.461 l f
68.93 68.645 m 72.465 67.574 l 71.75 66.625 l h
71.934 74.422 m 72.637 76.258 l 72.988 77.168 73.094 77.313 72.453 77.598
 c 72.453 77.637 l 75.125 77.637 l 75.125 77.598 l 74.379 77.223 74.148 
76.488 73.844 75.75 c 71.141 69.07 l 69.086 69.07 l 69.086 69.109 l 69.707
 69.305 69.461 69.852 69.277 70.32 c 67.105 75.75 l 66.805 76.488 66.598
 77.223 65.844 77.598 c 65.844 77.637 l 68.238 77.637 l 68.238 77.598 l 
67.613 77.363 67.703 76.984 67.977 76.258 c 68.652 74.422 l h
71.555 73.461 m 68.992 73.461 l 70.281 70.18 l 71.555 73.461 l f*
84.207 77.637 m 84.938 75.984 l 84.898 75.984 l 84.094 76.465 83.27 76.754
 82.32 76.699 c 79.59 76.543 l 84.273 69.07 l 78.52 69.07 l 77.859 70.57
 l 77.898 70.57 l 78.574 70.125 79.043 69.957 79.848 70.012 c 82.063 70.141
 l 77.348 77.637 l 84.207 77.637 l f*
91.434 73.887 m 94.633 69.07 l 92.355 69.07 l 92.355 69.109 l 93.082 69.465
 92.781 70.086 92.563 70.414 c 90.949 72.832 l 88.867 69.434 l 88.695 69.164
 88.305 69.07 87.891 69.07 c 86.703 69.07 l 87.332 69.406 87.59 69.84 87.941
 70.414 c 90.102 73.887 l 90.102 75.813 l 90.102 76.426 90.191 77.273 89.559
 77.598 c 89.559 77.637 l 92.094 77.637 l 92.094 77.598 l 91.434 77.117 
91.434 76.727 91.434 75.945 c 91.434 73.887 l f
103.035 75.801 m 103.035 76.387 103.117 77.348 102.449 77.598 c 102.449
 77.637 l 104.949 77.637 l 104.949 77.598 l 104.289 77.348 104.363 76.402
 104.363 75.801 c 104.363 70.895 l 104.363 70.309 104.289 69.344 104.949
 69.109 c 104.949 69.07 l 102.449 69.07 l 102.449 69.109 l 103.117 69.359
 103.035 70.309 103.035 70.895 c h
104.531 73.184 m 107.426 77.078 l 107.656 77.391 108.258 77.637 108.895
 77.637 c 110.117 77.637 l 110.117 77.598 l 109.453 77.273 108.961 76.91
 108.555 76.375 c 105.926 72.926 l 108.922 69.082 l 108.922 69.07 l 106.578
 69.07 l 106.578 69.109 l 107.449 69.5 106.695 70.32 106.238 70.922 c 104.531
 73.184 l f*
114.996 68.645 m 118.535 67.574 l 117.82 66.625 l h
118 74.422 m 118.707 76.258 l 119.059 77.168 119.16 77.313 118.523 77.598
 c 118.523 77.637 l 121.191 77.637 l 121.191 77.598 l 120.449 77.223 120.215
 76.488 119.914 75.75 c 117.211 69.07 l 115.152 69.07 l 115.152 69.109 l
 115.777 69.305 115.531 69.852 115.348 70.32 c 113.172 75.75 l 112.875 76.488
 112.664 77.223 111.91 77.598 c 111.91 77.637 l 114.309 77.637 l 114.309
 77.598 l 113.68 77.363 113.773 76.984 114.043 76.258 c 114.723 74.422 l
 h
117.625 73.461 m 115.059 73.461 l 116.352 70.18 l 117.625 73.461 l f*
123.809 69.07 m 123.809 69.109 l 124.473 69.359 124.379 70.309 124.379 
70.906 c 124.379 75.813 l 124.379 76.402 124.473 77.363 123.809 77.598 c
 123.809 77.637 l 126.293 77.637 l 126.293 77.598 l 125.633 77.363 125.707
 76.414 125.707 75.813 c 125.707 69.984 l 126.008 69.93 126.293 69.891 126.594
 69.879 c 127.465 69.84 128.273 70.387 128.273 71.324 c 128.273 72.547 127.063
 73.027 126.023 73.184 c 127.219 75.02 l 128.805 76.984 l 129.195 77.469
 129.629 77.637 130.316 77.637 c 131.516 77.637 l 130.773 77.168 129.953
 76.488 129.402 75.813 c 127.531 73.461 l 128.598 73.211 129.602 72.313 
129.602 71.164 c 129.602 69.984 128.648 69.07 126.906 69.07 c 123.809 69.07
 l f
137.59 68.852 m 134.855 68.824 132.707 70.855 132.707 73.328 c 132.707 
75.996 134.883 77.844 137.461 77.844 c 140.051 77.844 142.25 75.918 142.25
 73.266 c 142.25 70.922 140.324 68.875 137.59 68.852 c h
137.5 69.789 m 139.555 69.789 140.77 71.621 140.77 73.523 c 140.77 75.461
 139.5 76.91 137.527 76.91 c 135.48 76.91 134.195 75.035 134.195 73.211 
c 134.195 71.246 135.48 69.789 137.5 69.789 c f*
147.117 76.582 m 147.117 70.906 l 147.117 70.32 147.027 69.359 147.691 
69.109 c 147.691 69.07 l 145.203 69.07 l 145.203 69.109 l 145.867 69.359
 145.789 70.309 145.789 70.906 c 145.789 75.813 l 145.789 76.402 145.867
 77.363 145.203 77.598 c 145.203 77.637 l 150.555 77.637 l 151.23 75.906
 l 151.191 75.906 l 150.539 76.453 149.773 76.754 148.887 76.703 c 147.117
 76.582 l f*
157.801 73.887 m 161.004 69.07 l 158.723 69.07 l 158.723 69.109 l 159.453
 69.465 159.156 70.086 158.93 70.414 c 157.32 72.832 l 155.238 69.434 l 
155.066 69.164 154.676 69.07 154.258 69.07 c 153.074 69.07 l 153.699 69.406
 153.961 69.84 154.313 70.414 c 156.473 73.887 l 156.473 75.813 l 156.473
 76.426 156.566 77.273 155.926 77.598 c 155.926 77.637 l 158.465 77.637 
l 158.465 77.598 l 157.801 77.117 157.801 76.727 157.801 75.945 c 157.801
 73.887 l f
174.781 77.637 m 176.695 77.637 l 176.695 77.598 l 176.031 77.348 176.113
 76.402 176.113 75.813 c 176.113 70.906 l 176.113 70.309 176.031 69.359 
176.695 69.109 c 176.684 69.07 l 174.211 69.07 l 174.211 69.109 l 174.859
 69.359 174.781 70.309 174.781 70.895 c 174.781 74.813 l 174.781 75.281 
174.793 75.605 174.508 75.996 c 174.078 76.609 173.34 76.91 172.605 76.91
 c 171.266 76.91 170.539 76.102 170.539 74.371 c 170.539 70.895 l 170.539
 70.309 170.461 69.359 171.113 69.109 c 171.113 69.07 l 168.637 69.07 l 
168.637 69.109 l 169.301 69.359 169.211 70.309 169.211 70.895 c 169.211 
74.371 l 169.211 75.305 169.184 76.18 169.875 76.934 c 170.461 77.574 171.371
 77.844 172.23 77.844 c 173.141 77.844 174.211 77.531 174.781 76.777 c 174.781
 77.637 l f*
181.316 70.906 m 185.781 76.57 l 186.363 77.313 186.754 77.742 187.68 78.051
 c 187.68 70.75 l 187.68 70.023 187.68 69.5 188.359 69.109 c 188.359 69.07
 l 186.066 69.07 l 186.066 69.109 l 186.754 69.5 186.742 70.023 186.742 
70.75 c 186.742 75.688 l 181.98 69.672 l 181.797 69.41 l 181.707 69.305 
181.656 69.238 181.602 69.082 c 181.602 69.07 l 179.699 69.07 l 179.699 
69.109 l 180.379 69.5 180.379 70.023 180.379 70.75 c 180.379 75.945 l 180.379
 76.672 180.379 77.195 179.688 77.598 c 179.688 77.637 l 181.992 77.637 
l 181.992 77.598 l 181.305 77.195 181.316 76.672 181.316 75.945 c 181.316
 70.906 l f
191.77 75.813 m 191.77 76.402 191.844 77.363 191.195 77.598 c 191.195 77.637
 l 193.668 77.637 l 193.668 77.598 l 193.02 77.348 193.094 76.402 193.094
 75.813 c 193.094 70.906 l 193.094 70.32 193.02 69.359 193.668 69.109 c 
193.668 69.07 l 191.195 69.07 l 191.195 69.109 l 191.855 69.359 191.77 70.309
 191.77 70.906 c 191.77 75.813 l f
200.277 76.102 m 198.207 70.438 l 198.102 70.152 197.832 69.516 197.855
 69.227 c 197.871 69.07 l 195.969 69.07 l 195.969 69.109 l 196.539 69.555
 196.738 70.309 196.984 70.973 c 198.949 76.297 l 199.328 77.324 199.625
 77.43 200.539 78.027 c 203.973 69.07 l 202.035 69.07 l 202.035 69.109 l
 202.84 69.434 202.398 70.508 202.047 71.43 c 200.277 76.102 l f
208.527 73.461 m 209.492 73.461 l 209.895 73.461 210.441 73.445 210.652
 73.824 c 210.691 73.824 l 210.691 72.445 l 210.652 72.445 l 210.492 72.52
 210.285 72.52 210.078 72.52 c 208.527 72.52 l 208.527 70.098 l 208.945 
70.023 209.398 70.012 209.855 70.012 c 210.453 70.012 210.988 70.059 211.391
 70.531 c 211.43 70.531 l 211.43 69.008 l 211.391 69.008 l 211.223 69.098
 211.004 69.07 210.781 69.07 c 206.613 69.07 l 206.613 69.109 l 207.277 
69.359 207.199 70.309 207.199 70.906 c 207.199 75.813 l 207.199 76.402 207.277
 77.363 206.613 77.598 c 206.613 77.637 l 212.043 77.637 l 212.629 75.93
 l 212.59 75.93 l 211.938 76.504 211.043 76.777 210.184 76.699 c 208.527
 76.543 l 208.527 73.461 l f*
215.422 69.07 m 215.422 69.109 l 216.086 69.359 216 70.309 216 70.906 c
 216 75.813 l 216 76.402 216.086 77.363 215.422 77.598 c 215.422 77.637 
l 217.91 77.637 l 217.91 77.598 l 217.246 77.363 217.324 76.414 217.324 
75.813 c 217.324 69.984 l 217.621 69.93 217.91 69.891 218.211 69.879 c 219.082
 69.84 219.887 70.387 219.887 71.324 c 219.887 72.547 218.676 73.027 217.637
 73.184 c 218.832 75.02 l 220.422 76.984 l 220.813 77.469 221.242 77.637
 221.934 77.637 c 223.129 77.637 l 222.387 77.168 221.566 76.488 221.023
 75.813 c 219.148 73.461 l 220.215 73.211 221.215 72.313 221.215 71.164 
c 221.215 69.984 220.266 69.07 218.52 69.07 c 215.422 69.07 l f
229.598 69.152 m 228.969 68.957 228.305 68.863 227.656 68.863 c 226.066
 68.863 224.391 69.492 224.391 71.129 c 224.391 73.887 228.867 73.523 228.867
 75.555 c 228.867 76.465 227.746 76.91 227.008 76.91 c 225.992 76.91 224.922
 76.488 224.152 75.828 c 224.531 77.457 l 225.277 77.727 226.066 77.844 
226.863 77.844 c 228.895 77.844 230.352 76.543 230.352 75.152 c 230.352 
72.742 225.871 72.77 225.871 70.984 c 225.871 70.086 226.813 69.801 227.551
 69.801 c 228.281 69.801 229.09 70.098 229.598 70.621 c 229.598 69.152 l
 f*
233.926 75.813 m 233.926 76.402 234.008 77.363 233.355 77.598 c 233.355
 77.637 l 235.828 77.637 l 235.828 77.598 l 235.18 77.348 235.254 76.402
 235.254 75.813 c 235.254 70.906 l 235.254 70.32 235.18 69.359 235.828 69.109
 c 235.828 69.07 l 233.355 69.07 l 233.355 69.109 l 234.02 69.359 233.926
 70.309 233.926 70.906 c 233.926 75.813 l f
241.918 70.012 m 243.09 70.012 l 243.516 70.012 244.039 70.074 244.207 
70.531 c 244.246 70.531 l 244.664 68.98 l 244.625 68.98 l 244.457 69.059
 244.246 69.07 244.027 69.07 c 238.844 69.07 l 238.676 69.047 238.508 69.047
 238.352 68.98 c 238.313 68.98 l 237.855 70.531 l 237.895 70.531 l 238.297
 70.152 238.883 70.012 239.445 70.012 c 240.59 70.012 l 240.59 75.813 l 
240.59 76.402 240.668 77.348 240.016 77.598 c 240.016 77.637 l 242.594 77.637
 l 242.594 77.598 l 241.906 77.195 241.918 76.688 241.918 75.945 c 241.918
 70.012 l f*
250.719 73.887 m 253.918 69.07 l 251.641 69.07 l 251.641 69.109 l 252.371
 69.465 252.074 70.086 251.852 70.414 c 250.234 72.832 l 248.152 69.434 
l 247.984 69.164 247.594 69.07 247.176 69.07 c 245.992 69.07 l 246.617 69.406
 246.879 69.84 247.23 70.414 c 249.387 73.887 l 249.387 75.813 l 249.387
 76.426 249.48 77.273 248.844 77.598 c 248.844 77.637 l 251.383 77.637 l
 251.383 77.598 l 250.719 77.117 250.719 76.727 250.719 75.945 c 250.719
 73.887 l f
0 83.285 255.117 1.027 re f
0 62.398 255.117 1.023 re f
Q Q
showpage
%%Trailer
end
%%EOF
