%!PS-Adobe-3.0 EPSF-3.0
%%Creator: cairo 1.16.0 (https://cairographics.org)
%%CreationDate: Mon Dec 16 01:49:08 2019
%%Pages: 1
%%DocumentData: Clean7Bit
%%LanguageLevel: 2
%%BoundingBox: 0 0 134 88
%%EndComments
%%BeginProlog
50 dict begin
/q { gsave } bind def
/Q { grestore } bind def
/cm { 6 array astore concat } bind def
/w { setlinewidth } bind def
/J { setlinecap } bind def
/j { setlinejoin } bind def
/M { setmiterlimit } bind def
/d { setdash } bind def
/m { moveto } bind def
/l { lineto } bind def
/c { curveto } bind def
/h { closepath } bind def
/re { exch dup neg 3 1 roll 5 3 roll moveto 0 rlineto
      0 exch rlineto 0 rlineto closepath } bind def
/S { stroke } bind def
/f { fill } bind def
/f* { eofill } bind def
/n { newpath } bind def
/W { clip } bind def
/W* { eoclip } bind def
/BT { } bind def
/ET { } bind def
/BDC { mark 3 1 roll /BDC pdfmark } bind def
/EMC { mark /EMC pdfmark } bind def
/cairo_store_point { /cairo_point_y exch def /cairo_point_x exch def } def
/Tj { show currentpoint cairo_store_point } bind def
/TJ {
  {
    dup
    type /stringtype eq
    { show } { -0.001 mul 0 cairo_font_matrix dtransform rmoveto } ifelse
  } forall
  currentpoint cairo_store_point
} bind def
/cairo_selectfont { cairo_font_matrix aload pop pop pop 0 0 6 array astore
    cairo_font exch selectfont cairo_point_x cairo_point_y moveto } bind def
/Tf { pop /cairo_font exch def /cairo_font_matrix where
      { pop cairo_selectfont } if } bind def
/Td { matrix translate cairo_font_matrix matrix concatmatrix dup
      /cairo_font_matrix exch def dup 4 get exch 5 get cairo_store_point
      /cairo_font where { pop cairo_selectfont } if } bind def
/Tm { 2 copy 8 2 roll 6 array astore /cairo_font_matrix exch def
      cairo_store_point /cairo_font where { pop cairo_selectfont } if } bind def
/g { setgray } bind def
/rg { setrgbcolor } bind def
/d1 { setcachedevice } bind def
/cairo_data_source {
  CairoDataIndex CairoData length lt
    { CairoData CairoDataIndex get /CairoDataIndex CairoDataIndex 1 add def }
    { () } ifelse
} def
/cairo_flush_ascii85_file { cairo_ascii85_file status { cairo_ascii85_file flushfile } if } def
/cairo_image { image cairo_flush_ascii85_file } def
/cairo_imagemask { imagemask cairo_flush_ascii85_file } def
%%EndProlog
%%BeginSetup
%%EndSetup
%%Page: 1 1
%%BeginPageSetup
%%PageBoundingBox: 0 0 134 88
%%EndPageSetup
q 0 0 134 88 rectclip
1 0 0 -1 0 88 cm q
q
0 0 134 88 re W n
  q
1 g
47.918 52.539 m 48.746 52.539 49.379 52.035 49.379 51.258 c 49.379 50.738
 49.094 49.984 47.977 49.984 c 47.16 49.984 l 47.137 52.539 l h
47.965 53.785 m 47.113 53.785 l 47.102 57.035 l 45.531 57.035 l 45.613 
48.738 l 47.953 48.738 l 50.125 48.738 50.988 49.73 50.988 51.27 c 50.988
 52.961 49.57 53.785 47.965 53.785 c f
56.617 57.035 m 52.094 57.035 l 52.18 48.738 l 56.617 48.738 l 56.617 50.059
 l 53.715 50.059 l 53.691 52.191 l 56.566 52.191 l 56.566 53.438 l 53.68
 53.438 l 53.664 55.719 l 56.617 55.719 l h
56.617 57.035 m f
60.828 55.719 m 62.629 55.719 63.84 54.688 63.84 52.828 c 63.84 51.242 
62.773 50.059 61.141 50.059 c 59.883 50.059 l 59.832 55.719 l h
61.141 57.035 m 58.285 57.035 l 58.359 48.738 l 61.094 48.738 l 63.719 
48.738 65.445 50.379 65.445 52.84 c 65.445 55.367 63.348 57.035 61.141 57.035
 c f
69.707 50.344 m 69.684 50.344 l 68.641 53.582 l 70.664 53.582 l h
67.258 57.203 m 65.832 56.773 l 69.023 48.738 l 70.438 48.738 l 73.398 
56.773 l 71.902 57.203 l 71.086 54.828 l 68.195 54.828 l h
67.258 57.203 m f
78.312 55.957 m 78.758 55.957 79.168 55.871 79.488 55.742 c 79.551 52.828
 l 81.156 52.828 l 81.098 56.605 l 80.184 56.977 79.227 57.203 78.312 57.203
 c 75.797 57.203 73.863 55.418 73.863 52.887 c 73.863 50.465 75.844 48.57
 78.312 48.57 c 79.383 48.57 80.293 48.797 81 49.18 c 80.438 50.332 l 79.812
 50.031 79.168 49.816 78.312 49.816 c 76.922 49.816 75.473 50.969 75.473
 52.887 c 75.473 54.699 76.598 55.957 78.312 55.957 c f
84 52.887 m 84 54.699 85.125 55.957 86.84 55.957 c 88.555 55.957 89.684
 54.531 89.684 52.887 c 89.684 51.125 88.555 49.816 86.84 49.816 c 85.449
 49.816 84 50.969 84 52.887 c 82.391 52.887 m 82.391 50.465 84.371 48.57
 86.84 48.57 c 89.527 48.57 91.293 50.465 91.293 52.887 c 91.293 55.309 
89.359 57.203 86.84 57.203 c 84.324 57.203 82.391 55.418 82.391 52.887 c
 f
96.879 55.957 m 97.324 55.957 97.73 55.871 98.055 55.742 c 98.113 52.828
 l 99.723 52.828 l 99.664 56.605 l 98.75 56.977 97.789 57.203 96.879 57.203
 c 94.359 57.203 92.43 55.418 92.43 52.887 c 92.43 50.465 94.41 48.57 96.879
 48.57 c 97.945 48.57 98.859 48.797 99.566 49.18 c 99.004 50.332 l 98.379
 50.031 97.73 49.816 96.879 49.816 c 95.488 49.816 94.039 50.969 94.039 
52.887 c 94.039 54.699 95.164 55.957 96.879 55.957 c f
101.492 48.738 m 103.027 48.738 l 102.957 57.035 l 101.422 57.035 l h
101.492 48.738 m f
108.895 55.887 m 109.961 55.887 110.477 55.633 110.98 55.344 c 111.594 
56.402 l 110.824 56.941 109.902 57.203 108.953 57.203 c 106.484 57.203 104.648
 55.395 104.648 52.91 c 104.648 50.355 106.438 48.57 108.895 48.57 c 109.891
 48.57 110.836 48.895 111.605 49.531 c 110.934 50.598 l 110.418 50.164 109.613
 49.891 108.941 49.891 c 107.324 49.891 106.258 51.172 106.258 52.84 c 106.258
 54.422 107.348 55.887 108.895 55.887 c f
112.816 48.738 m 114.352 48.738 l 114.328 52.609 l 114.387 52.609 l 117.781
 48.57 l 118.922 49.48 l 115.957 52.754 l 118.883 56.316 l 117.637 57.203
 l 114.352 53.031 l 114.328 53.031 l 114.289 57.035 l 112.758 57.035 l h
112.816 48.738 m f
123.703 46.266 m 125.324 46.266 l 123.645 47.945 l 122.648 47.945 l h
123.5 50.344 m 123.477 50.344 l 122.434 53.582 l 124.461 53.582 l h
121.055 57.203 m 119.625 56.773 l 122.816 48.738 l 124.23 48.738 l 127.195
 56.773 l 125.695 57.203 l 124.879 54.828 l 121.988 54.828 l h
121.055 57.203 m f
45.637 62.738 m 50.23 62.738 l 50.219 64.055 l 47.172 64.055 l 47.16 66.191
 l 50.184 66.191 l 50.172 67.512 l 47.137 67.512 l 47.125 71.035 l 45.555
 71.035 l h
45.637 62.738 m f
54.305 64.344 m 54.281 64.344 l 53.238 67.582 l 55.266 67.582 l h
51.859 71.203 m 50.43 70.773 l 53.621 62.738 l 55.035 62.738 l 58 70.773
 l 56.5 71.203 l 55.684 68.828 l 52.793 68.828 l h
51.859 71.203 m f
59.16 62.738 m 60.695 62.738 l 60.672 66.609 l 60.73 66.609 l 64.125 62.57
 l 65.266 63.48 l 62.301 66.754 l 65.23 70.316 l 63.98 71.203 l 60.695 67.031
 l 60.672 67.031 l 60.637 71.035 l 59.102 71.035 l h
59.16 62.738 m f
69.75 69.887 m 70.961 69.887 71.594 69.094 71.605 67.953 c 71.656 62.738
 l 73.191 62.738 l 73.145 68.039 l 73.105 70.078 71.703 71.203 69.723 71.203
 c 67.758 71.203 66.379 70.113 66.379 67.953 c 66.379 66.215 66.414 64.477
 66.426 62.738 c 67.961 62.738 l 67.949 64.512 67.914 66.266 67.914 68.039
 c 67.914 69.199 68.73 69.887 69.75 69.887 c f
79.887 71.035 m 75.102 71.035 l 75.176 62.738 l 76.711 62.738 l 76.637 
69.719 l 79.887 69.719 l h
79.887 71.035 m f
81.84 64.055 m 79.512 64.055 l 79.523 62.738 l 85.676 62.738 l 85.664 64.055
 l 83.375 64.055 l 83.312 71.035 l 81.777 71.035 l h
81.84 64.055 m f
89.133 64.344 m 89.109 64.344 l 88.066 67.582 l 90.094 67.582 l h
86.688 71.203 m 85.258 70.773 l 88.449 62.738 l 89.863 62.738 l 92.828 
70.773 l 91.328 71.203 l 90.512 68.828 l 87.621 68.828 l h
86.688 71.203 m f
46.324 78.805 m 47.125 78.805 l 49.008 84.066 l 51.031 78.805 l 51.871 
78.805 l 52.859 85.035 l 52.102 85.164 l 51.312 79.832 l 51.293 79.832 l
 49.355 85.035 l 48.621 85.035 l 46.809 79.832 l 46.793 79.832 l 45.938 
85.164 l 45.188 85.035 l h
46.324 78.805 m f
55.238 84.621 m 55.68 84.621 56.023 84.316 56.301 83.965 c 56.34 82.695
 l 55.086 82.867 54.438 83.094 54.438 83.855 c 54.438 84.359 54.734 84.621
 55.238 84.621 c 57.293 84.621 m 57.445 84.621 57.555 84.551 57.672 84.469
 c 57.867 84.84 l 57.617 85.047 57.348 85.164 57.031 85.164 c 56.625 85.164
 56.402 84.805 56.363 84.414 c 56.016 84.84 55.594 85.164 55.016 85.164 
c 54.223 85.164 53.719 84.621 53.719 83.867 c 53.719 82.59 55.355 82.309
 56.34 82.266 c 56.348 82.074 56.355 81.887 56.355 81.695 c 56.355 81.309
 56.148 81.02 55.672 81.02 c 55.32 81.02 55.016 81.141 54.375 81.645 c 54.078
 81.176 l 54.969 80.598 55.277 80.43 55.914 80.43 c 56.672 80.43 57.039 
80.867 57.039 81.562 c 57.039 82.418 56.969 83.191 56.969 83.984 c 56.969
 84.309 57.016 84.621 57.293 84.621 c f
59.875 85.164 m 59.344 85.164 58.879 84.98 58.473 84.723 c 58.777 84.242
 l 59.031 84.418 59.383 84.625 59.77 84.625 c 60.164 84.625 60.645 84.406
 60.645 83.902 c 60.645 82.785 58.562 83.27 58.562 81.77 c 58.562 80.922
 59.254 80.43 60.074 80.43 c 60.578 80.43 61.047 80.582 61.379 80.805 c 
61.047 81.266 l 60.785 81.121 60.508 80.969 60.191 80.969 c 59.66 80.969
 59.281 81.176 59.281 81.715 c 59.281 82.68 61.363 82.281 61.363 83.805 
c 61.363 84.668 60.617 85.164 59.875 85.164 c f
63.688 84.621 m 64.129 84.621 64.469 84.316 64.75 83.965 c 64.785 82.695
 l 63.535 82.867 62.887 83.094 62.887 83.855 c 62.887 84.359 63.184 84.621
 63.688 84.621 c 65.738 84.621 m 65.895 84.621 66 84.551 66.117 84.469 c
 66.316 84.84 l 66.062 85.047 65.793 85.164 65.48 85.164 c 65.074 85.164
 64.848 84.805 64.812 84.414 c 64.461 84.84 64.039 85.164 63.461 85.164 
c 62.672 85.164 62.168 84.621 62.168 83.867 c 62.168 82.59 63.805 82.309
 64.785 82.266 c 64.793 82.074 64.805 81.887 64.805 81.695 c 64.805 81.309
 64.598 81.02 64.117 81.02 c 63.77 81.02 63.461 81.141 62.824 81.645 c 62.527
 81.176 l 63.418 80.598 63.723 80.43 64.363 80.43 c 65.117 80.43 65.488 
80.867 65.488 81.562 c 65.488 82.418 65.418 83.191 65.418 83.984 c 65.418
 84.309 65.461 84.621 65.738 84.621 c f
69.035 81.129 m 68.738 81.129 68.262 81.371 67.875 82.094 c 67.84 85.035
 l 67.121 85.035 l 67.156 80.555 l 67.895 80.555 l 67.883 81.426 l 67.902
 81.445 l 68.047 81.051 68.504 80.43 69.145 80.43 c 69.289 80.43 69.414 
80.445 69.531 80.488 c 69.316 81.176 l 69.242 81.148 69.137 81.129 69.035
 81.129 c f
70.121 86.621 m 70.816 86.621 71.023 86.461 71.211 86.035 c 71.699 84.965
 l 70.031 80.645 l 70.805 80.426 l 72.051 84.074 l 72.066 84.074 l 73.426
 80.426 l 74.137 80.645 l 72.141 85.594 l 71.637 86.828 71.375 87.16 70.41
 87.16 c 70.121 87.16 l h
70.121 86.621 m f
75.086 78.285 m 75.797 78.285 l 75.762 82.715 l 78.066 80.328 l 78.543 
80.797 l 76.652 82.613 l 78.598 84.773 l 78.031 85.234 l 75.762 82.73 l 
75.734 85.039 l 75.031 85.039 l h
75.086 78.285 m f
79.859 82.793 m 79.859 84.035 80.461 84.621 81.191 84.621 c 81.867 84.621
 82.594 84.035 82.594 82.793 c 82.594 81.555 81.992 80.969 81.262 80.969
 c 80.586 80.969 79.859 81.555 79.859 82.793 c 79.086 82.793 m 79.086 81.633
 79.848 80.426 81.273 80.426 c 82.586 80.426 83.371 81.316 83.371 82.793
 c 83.371 83.957 82.594 85.164 81.18 85.164 c 79.859 85.164 79.086 84.281
 79.086 82.793 c f
88.016 80.645 m 86.207 85.035 l 85.504 85.035 l 83.855 80.625 l 84.605 
80.426 l 85.871 84.172 l 85.891 84.172 l 87.297 80.426 l h
88.016 80.645 m f
90.023 84.621 m 90.465 84.621 90.809 84.316 91.086 83.965 c 91.125 82.695
 l 89.871 82.867 89.223 83.094 89.223 83.855 c 89.223 84.359 89.52 84.621
 90.023 84.621 c 92.078 84.621 m 92.23 84.621 92.34 84.551 92.457 84.469
 c 92.652 84.84 l 92.402 85.047 92.133 85.164 91.816 85.164 c 91.41 85.164
 91.188 84.805 91.148 84.414 c 90.797 84.84 90.375 85.164 89.801 85.164 
c 89.008 85.164 88.504 84.621 88.504 83.867 c 88.504 82.59 90.141 82.309
 91.125 82.266 c 91.133 82.074 91.141 81.887 91.141 81.695 c 91.141 81.309
 90.934 81.02 90.457 81.02 c 90.105 81.02 89.801 81.141 89.16 81.645 c 88.863
 81.176 l 89.754 80.598 90.059 80.43 90.699 80.43 c 91.457 80.43 91.824 
80.867 91.824 81.562 c 91.824 82.418 91.754 83.191 91.754 83.984 c 91.754
 84.309 91.797 84.621 92.078 84.621 c f
95.84 83.801 m 95.84 83.453 95.848 83.129 95.848 82.777 c 95.867 80.551
 l 96.586 80.551 l 96.566 82.57 l 96.566 82.965 96.559 83.363 96.559 83.801
 c 96.559 84.297 96.875 84.516 97.379 84.516 c 97.844 84.516 98.258 84.254
 98.719 83.688 c 98.754 80.551 l 99.477 80.551 l 99.441 85.035 l 98.719 
85.035 l 98.746 84.316 l 98.727 84.316 l 98.34 84.855 97.746 85.16 97.207
 85.16 c 96.172 85.16 95.84 84.629 95.84 83.801 c f
102.949 81.074 m 102.48 81.074 102.066 81.336 101.609 81.902 c 101.574 
85.035 l 100.852 85.035 l 100.887 80.555 l 101.609 80.555 l 101.582 81.273
 l 101.602 81.273 l 101.988 80.734 102.582 80.426 103.121 80.426 c 104.156
 80.426 104.488 80.957 104.488 81.785 c 104.488 82.137 104.48 82.461 104.48
 82.812 c 104.461 85.035 l 103.742 85.035 l 103.762 83.02 l 103.762 82.625
 103.77 82.227 103.77 81.785 c 103.77 81.293 103.453 81.074 102.949 81.074
 c f
105.863 80.551 m 106.582 80.551 l 106.547 85.035 l 105.828 85.035 l h
105.828 78.809 m 106.602 78.809 l 106.602 79.617 l 105.828 79.617 l h
105.828 78.809 m f
111.609 80.645 m 109.797 85.035 l 109.098 85.035 l 107.449 80.625 l 108.195
 80.426 l 109.465 84.172 l 109.484 84.172 l 110.887 80.426 l h
111.609 80.645 m f
115.113 82.211 m 115.113 81.57 114.844 80.969 114.113 80.969 c 113.43 80.969
 113.016 81.598 112.891 82.211 c h
112.828 82.695 m 112.828 82.848 l 112.828 83.785 113.18 84.621 114.098 
84.621 c 114.609 84.621 114.988 84.324 115.375 83.973 c 115.727 84.359 l
 115.266 84.82 114.691 85.164 114.016 85.164 c 112.766 85.164 112.055 84.273
 112.055 82.797 c 112.055 81.57 112.906 80.426 114.105 80.426 c 115.312 
80.426 115.836 81.348 115.836 82.551 c 115.836 82.695 l h
112.828 82.695 m f
118.84 81.129 m 118.543 81.129 118.066 81.371 117.68 82.094 c 117.641 85.035
 l 116.922 85.035 l 116.957 80.555 l 117.695 80.555 l 117.688 81.426 l 117.707
 81.445 l 117.852 81.051 118.309 80.43 118.949 80.43 c 119.094 80.43 119.219
 80.445 119.336 80.488 c 119.117 81.176 l 119.047 81.148 118.938 81.129 
118.84 81.129 c f
123.152 85.035 m 119.902 85.035 l 119.746 84.656 l 122.27 81.199 l 119.965
 81.199 l 119.965 80.555 l 123.141 80.555 l 123.297 80.879 l 120.746 84.441
 l 123.152 84.441 l h
123.152 85.035 m f
124.203 80.551 m 124.922 80.551 l 124.887 85.035 l 124.164 85.035 l h
124.164 78.809 m 124.941 78.809 l 124.941 79.617 l 124.164 79.617 l h
124.164 78.809 m f
125.801 80.551 m 126.574 80.551 l 126.594 78.898 l 127.312 78.898 l 127.297
 80.551 l 128.52 80.551 l 128.52 81.094 l 127.289 81.094 l 127.27 82.93 
l 127.262 83.184 127.262 83.398 127.262 83.57 c 127.262 83.992 l 127.262
 84.363 127.359 84.57 127.676 84.57 c 127.918 84.57 128.223 84.414 128.395
 84.309 c 128.629 84.777 l 128.332 84.984 127.898 85.16 127.504 85.16 c 
126.809 85.16 126.539 84.738 126.539 84.02 c 126.539 83.496 l 126.539 83.297
 126.539 83.047 126.551 82.734 c 126.566 81.094 l 125.801 81.094 l h
125.801 80.551 m f
130.684 84.621 m 131.125 84.621 131.469 84.316 131.746 83.965 c 131.781
 82.695 l 130.531 82.867 129.883 83.094 129.883 83.855 c 129.883 84.359 
130.18 84.621 130.684 84.621 c 132.738 84.621 m 132.891 84.621 133 84.551
 133.113 84.469 c 133.312 84.84 l 133.062 85.047 132.789 85.164 132.477 
85.164 c 132.07 85.164 131.848 84.805 131.809 84.414 c 131.457 84.84 131.035
 85.164 130.461 85.164 c 129.668 85.164 129.164 84.621 129.164 83.867 c 
129.164 82.59 130.801 82.309 131.781 82.266 c 131.793 82.074 131.801 81.887
 131.801 81.695 c 131.801 81.309 131.594 81.02 131.117 81.02 c 130.766 81.02
 130.461 81.141 129.82 81.645 c 129.523 81.176 l 130.414 80.598 130.719 
80.43 131.359 80.43 c 132.117 80.43 132.484 80.867 132.484 81.562 c 132.484
 82.418 132.414 83.191 132.414 83.984 c 132.414 84.309 132.457 84.621 132.738
 84.621 c f
32.816 0 m 32.816 83.84 l 1.199 83.84 l 1.199 0 l 0 0 l 0 85.039 l 34.016
 85.039 l 34.016 0 l h
32.816 0 m f
26.633 48.559 m 25.641 48.559 24.84 49.352 24.84 50.324 c 24.84 66.32 l
 24.84 67.77 24.301 69.078 23.383 70.133 c 23.383 50.297 l 23.383 49.441
 22.746 48.719 21.883 48.598 c 21.031 48.473 20.176 48.973 19.969 49.812
 c 17.039 61.695 17.012 61.789 17.012 61.789 c 17.012 61.789 16.992 61.695
 14.047 49.812 c 13.836 48.973 12.988 48.473 12.133 48.598 c 11.273 48.719
 10.641 49.441 10.641 50.297 c 10.641 70.133 l 9.719 69.078 9.176 67.77 
9.176 66.32 c 9.176 50.324 l 9.176 49.352 8.375 48.559 7.383 48.559 c 6.395
 48.559 5.672 49.352 5.672 50.324 c 5.672 66.32 l 5.672 71.945 10.676 75.879
 17.008 75.879 c 23.344 75.879 28.348 71.945 28.348 66.32 c 28.348 50.324
 l 28.348 49.352 27.621 48.559 26.633 48.559 c 13.969 72.297 m 13.969 62.188
 l 13.977 62.234 14.113 62.832 16.043 70.262 c 16.133 70.613 16.43 71 17.016
 71 c 17.617 71 17.883 70.66 17.988 70.262 c 18.582 67.969 20.047 62.219
 20.047 62.219 c 20.047 72.297 l 19.113 72.609 18.09 72.781 17.008 72.781
 c 15.93 72.781 14.902 72.609 13.969 72.297 c f
  Q
Q
Q Q
showpage
%%Trailer
end
%%EOF
