%!PS-Adobe-3.0 EPSF-3.0
%%Creator: cairo 1.16.0 (https://cairographics.org)
%%CreationDate: Mon Dec 16 01:49:04 2019
%%Pages: 1
%%DocumentData: Clean7Bit
%%LanguageLevel: 2
%%BoundingBox: 0 0 179 88
%%EndComments
%%BeginProlog
50 dict begin
/q { gsave } bind def
/Q { grestore } bind def
/cm { 6 array astore concat } bind def
/w { setlinewidth } bind def
/J { setlinecap } bind def
/j { setlinejoin } bind def
/M { setmiterlimit } bind def
/d { setdash } bind def
/m { moveto } bind def
/l { lineto } bind def
/c { curveto } bind def
/h { closepath } bind def
/re { exch dup neg 3 1 roll 5 3 roll moveto 0 rlineto
      0 exch rlineto 0 rlineto closepath } bind def
/S { stroke } bind def
/f { fill } bind def
/f* { eofill } bind def
/n { newpath } bind def
/W { clip } bind def
/W* { eoclip } bind def
/BT { } bind def
/ET { } bind def
/BDC { mark 3 1 roll /BDC pdfmark } bind def
/EMC { mark /EMC pdfmark } bind def
/cairo_store_point { /cairo_point_y exch def /cairo_point_x exch def } def
/Tj { show currentpoint cairo_store_point } bind def
/TJ {
  {
    dup
    type /stringtype eq
    { show } { -0.001 mul 0 cairo_font_matrix dtransform rmoveto } ifelse
  } forall
  currentpoint cairo_store_point
} bind def
/cairo_selectfont { cairo_font_matrix aload pop pop pop 0 0 6 array astore
    cairo_font exch selectfont cairo_point_x cairo_point_y moveto } bind def
/Tf { pop /cairo_font exch def /cairo_font_matrix where
      { pop cairo_selectfont } if } bind def
/Td { matrix translate cairo_font_matrix matrix concatmatrix dup
      /cairo_font_matrix exch def dup 4 get exch 5 get cairo_store_point
      /cairo_font where { pop cairo_selectfont } if } bind def
/Tm { 2 copy 8 2 roll 6 array astore /cairo_font_matrix exch def
      cairo_store_point /cairo_font where { pop cairo_selectfont } if } bind def
/g { setgray } bind def
/rg { setrgbcolor } bind def
/d1 { setcachedevice } bind def
/cairo_data_source {
  CairoDataIndex CairoData length lt
    { CairoData CairoDataIndex get /CairoDataIndex CairoDataIndex 1 add def }
    { () } ifelse
} def
/cairo_flush_ascii85_file { cairo_ascii85_file status { cairo_ascii85_file flushfile } if } def
/cairo_image { image cairo_flush_ascii85_file } def
/cairo_imagemask { imagemask cairo_flush_ascii85_file } def
%%EndProlog
%%BeginSetup
%%EndSetup
%%Page: 1 1
%%BeginPageSetup
%%PageBoundingBox: 0 0 179 88
%%EndPageSetup
q 0 0 179 88 rectclip
1 0 0 -1 0 88 cm q
1 g
50.059 57.035 m 45.539 57.035 l 45.625 48.738 l 50.059 48.738 l 50.059 
50.059 l 47.156 50.059 l 47.133 52.191 l 50.012 52.191 l 50.012 53.438 l
 47.121 53.438 l 47.109 55.719 l 50.059 55.719 l h
50.059 57.035 m f
51.789 48.738 m 53.324 48.738 l 53.301 52.609 l 53.363 52.609 l 56.754 
48.57 l 57.895 49.48 l 54.934 52.754 l 57.859 56.316 l 56.613 57.203 l 53.324
 53.031 l 53.301 53.031 l 53.266 57.035 l 51.73 57.035 l h
51.789 48.738 m f
q
0 0 179 88 re W n
  q
1 g
59.98 52.887 m 59.98 54.699 61.105 55.957 62.82 55.957 c 64.535 55.957 
65.664 54.531 65.664 52.887 c 65.664 51.125 64.535 49.816 62.82 49.816 c
 61.43 49.816 59.98 50.969 59.98 52.887 c 58.375 52.887 m 58.375 50.465 
60.352 48.57 62.82 48.57 c 65.508 48.57 67.273 50.465 67.273 52.887 c 67.273
 55.309 65.34 57.203 62.82 57.203 c 60.305 57.203 58.375 55.418 58.375 52.887
 c f
68.828 49 m 70.258 48.57 l 74.129 54.926 l 74.152 54.926 l 74.059 48.738
 l 75.594 48.738 l 75.52 56.773 l 73.977 57.203 l 70.195 50.883 l 70.172
 50.906 l 70.293 57.035 l 68.758 57.035 l h
68.828 49 m f
78.68 52.887 m 78.68 54.699 79.805 55.957 81.52 55.957 c 83.234 55.957 
84.363 54.531 84.363 52.887 c 84.363 51.125 83.234 49.816 81.52 49.816 c
 80.129 49.816 78.68 50.969 78.68 52.887 c 77.074 52.887 m 77.074 50.465
 79.051 48.57 81.52 48.57 c 84.207 48.57 85.973 50.465 85.973 52.887 c 85.973
 55.309 84.039 57.203 81.52 57.203 c 79.004 57.203 77.074 55.418 77.074 
52.887 c f
88.387 48.738 m 89.957 48.738 l 91.973 55.371 l 91.996 55.371 l 94.301 
48.738 l 95.871 48.738 l 97.094 57.035 l 95.535 57.203 l 94.91 50.656 l 
94.887 50.656 l 92.777 57.035 l 91.191 57.035 l 89.285 50.656 l 89.262 50.656
 l 88.398 57.203 l 86.926 57.035 l h
88.387 48.738 m f
98.676 48.738 m 100.211 48.738 l 100.141 57.035 l 98.605 57.035 l h
98.676 48.738 m f
106.078 55.887 m 107.148 55.887 107.66 55.633 108.164 55.344 c 108.777 
56.402 l 108.012 56.941 107.086 57.203 106.141 57.203 c 103.668 57.203 101.832
 55.395 101.832 52.91 c 101.832 50.355 103.621 48.57 106.078 48.57 c 107.074
 48.57 108.023 48.895 108.789 49.531 c 108.117 50.598 l 107.602 50.164 106.797
 49.891 106.125 49.891 c 104.508 49.891 103.441 51.172 103.441 52.84 c 103.441
 54.422 104.531 55.887 106.078 55.887 c f
110 48.738 m 111.535 48.738 l 111.512 52.609 l 111.57 52.609 l 114.965 
48.57 l 116.105 49.48 l 113.145 52.754 l 116.07 56.316 l 114.82 57.203 l
 111.535 53.031 l 111.512 53.031 l 111.477 57.035 l 109.941 57.035 l h
110 48.738 m f
118.188 52.887 m 118.188 54.699 119.316 55.957 121.031 55.957 c 122.746
 55.957 123.875 54.531 123.875 52.887 c 123.875 51.125 122.746 49.816 121.031
 49.816 c 119.641 49.816 118.188 50.969 118.188 52.887 c 116.582 52.887 
m 116.582 50.465 118.562 48.57 121.031 48.57 c 123.719 48.57 125.48 50.465
 125.48 52.887 c 125.48 55.309 123.551 57.203 121.031 57.203 c 118.512 57.203
 116.582 55.418 116.582 52.887 c f
127.086 53.344 3.156 1.316 re f
133.477 57.207 m 132.66 57.207 131.93 56.988 131.219 56.566 c 131.82 55.395
 l 132.207 55.672 132.816 55.957 133.285 55.957 c 134.148 55.957 134.617
 55.43 134.617 54.758 c 134.617 53.113 131.207 53.801 131.207 50.98 c 131.207
 49.625 132.312 48.57 133.98 48.57 c 134.809 48.57 135.598 48.848 136.316
 49.266 c 135.672 50.367 l 135.156 50.094 134.711 49.816 134.098 49.816 
c 133.391 49.816 132.746 50.199 132.746 50.934 c 132.746 52.551 136.223 
52.047 136.223 54.695 c 136.223 56.113 135.07 57.207 133.477 57.207 c f
140.129 52.539 m 140.953 52.539 141.59 52.035 141.59 51.258 c 141.59 50.738
 141.301 49.984 140.188 49.984 c 139.371 49.984 l 139.348 52.539 l h
140.176 53.785 m 139.324 53.785 l 139.312 57.035 l 137.742 57.035 l 137.824
 48.738 l 140.164 48.738 l 142.336 48.738 143.199 49.73 143.199 51.27 c 
143.199 52.961 141.781 53.785 140.176 53.785 c f
146.859 52.469 m 147.301 52.469 148.227 52.277 148.227 51.184 c 148.227
 50.379 147.602 49.984 146.824 49.984 c 145.934 49.984 l 145.91 52.469 l
 h
146.367 53.715 m 145.887 53.715 l 145.875 57.035 l 144.305 57.035 l 144.387
 48.738 l 147.016 48.738 l 149.027 48.738 149.832 49.828 149.832 51.137 
c 149.832 52.191 149.195 52.945 148.227 53.293 c 150.59 56.391 l 149.223
 57.203 l 146.918 54 l 146.785 53.812 146.594 53.715 146.367 53.715 c f
155.336 46.266 m 156.957 46.266 l 155.277 47.945 l 154.281 47.945 l h
155.133 50.344 m 155.109 50.344 l 154.066 53.582 l 156.094 53.582 l h
152.688 57.203 m 151.258 56.773 l 154.449 48.738 l 155.863 48.738 l 158.828
 56.773 l 157.328 57.203 l 156.512 54.828 l 153.621 54.828 l h
152.688 57.203 m f
158.703 49.059 m 160.25 48.57 l 162.371 55.094 l 162.395 55.094 l 164.781
 48.57 l 166.27 49.059 l 163.105 57.039 l 161.664 57.039 l h
158.703 49.059 m f
167.406 49 m 168.836 48.57 l 172.707 54.926 l 172.734 54.926 l 172.637 
48.738 l 174.172 48.738 l 174.102 56.773 l 172.555 57.203 l 168.773 50.883
 l 168.75 50.906 l 168.871 57.035 l 167.336 57.035 l h
167.406 49 m f
176.145 48.738 m 177.68 48.738 l 177.605 57.035 l 176.07 57.035 l h
177.043 46.266 m 178.664 46.266 l 176.984 47.945 l 175.988 47.945 l h
177.043 46.266 m f
45.637 62.738 m 50.23 62.738 l 50.219 64.055 l 47.172 64.055 l 47.16 66.191
 l 50.184 66.191 l 50.172 67.512 l 47.137 67.512 l 47.125 71.035 l 45.555
 71.035 l h
45.637 62.738 m f
54.305 64.344 m 54.281 64.344 l 53.238 67.582 l 55.262 67.582 l h
51.855 71.203 m 50.43 70.773 l 53.621 62.738 l 55.035 62.738 l 58 70.773
 l 56.5 71.203 l 55.684 68.828 l 52.793 68.828 l h
51.855 71.203 m f
59.16 62.738 m 60.695 62.738 l 60.672 66.609 l 60.73 66.609 l 64.125 62.57
 l 65.266 63.48 l 62.301 66.754 l 65.227 70.316 l 63.98 71.203 l 60.695 
67.031 l 60.672 67.031 l 60.637 71.035 l 59.102 71.035 l h
59.16 62.738 m f
69.75 69.887 m 70.961 69.887 71.594 69.094 71.605 67.953 c 71.656 62.738
 l 73.191 62.738 l 73.141 68.039 l 73.105 70.078 71.703 71.203 69.723 71.203
 c 67.758 71.203 66.379 70.113 66.379 67.953 c 66.379 66.215 66.414 64.477
 66.426 62.738 c 67.961 62.738 l 67.949 64.512 67.914 66.266 67.914 68.039
 c 67.914 69.199 68.727 69.887 69.75 69.887 c f
79.887 71.035 m 75.102 71.035 l 75.176 62.738 l 76.711 62.738 l 76.637 
69.719 l 79.887 69.719 l h
79.887 71.035 m f
81.836 64.055 m 79.512 64.055 l 79.523 62.738 l 85.676 62.738 l 85.664 
64.055 l 83.375 64.055 l 83.312 71.035 l 81.777 71.035 l h
81.836 64.055 m f
89.133 64.344 m 89.109 64.344 l 88.066 67.582 l 90.094 67.582 l h
86.688 71.203 m 85.258 70.773 l 88.449 62.738 l 89.863 62.738 l 92.828 
70.773 l 91.328 71.203 l 90.512 68.828 l 87.621 68.828 l h
86.688 71.203 m f
46.324 78.805 m 47.125 78.805 l 49.004 84.066 l 51.031 78.805 l 51.867 
78.805 l 52.859 85.035 l 52.102 85.164 l 51.312 79.832 l 51.293 79.832 l
 49.355 85.035 l 48.617 85.035 l 46.809 79.832 l 46.789 79.832 l 45.934 
85.164 l 45.188 85.035 l h
46.324 78.805 m f
55.238 84.621 m 55.68 84.621 56.023 84.316 56.301 83.965 c 56.34 82.695
 l 55.086 82.867 54.438 83.094 54.438 83.855 c 54.438 84.359 54.734 84.621
 55.238 84.621 c 57.293 84.621 m 57.445 84.621 57.555 84.551 57.672 84.469
 c 57.867 84.84 l 57.617 85.047 57.348 85.164 57.031 85.164 c 56.625 85.164
 56.402 84.805 56.363 84.414 c 56.016 84.84 55.594 85.164 55.016 85.164 
c 54.223 85.164 53.719 84.621 53.719 83.867 c 53.719 82.59 55.355 82.309
 56.34 82.266 c 56.348 82.074 56.355 81.887 56.355 81.695 c 56.355 81.309
 56.148 81.02 55.672 81.02 c 55.32 81.02 55.016 81.141 54.375 81.645 c 54.078
 81.176 l 54.969 80.598 55.277 80.43 55.914 80.43 c 56.672 80.43 57.039 
80.867 57.039 81.562 c 57.039 82.418 56.969 83.191 56.969 83.984 c 56.969
 84.309 57.012 84.621 57.293 84.621 c f
59.875 85.164 m 59.344 85.164 58.875 84.98 58.473 84.723 c 58.777 84.242
 l 59.031 84.418 59.383 84.625 59.77 84.625 c 60.164 84.625 60.641 84.406
 60.641 83.902 c 60.641 82.785 58.562 83.27 58.562 81.77 c 58.562 80.922
 59.254 80.43 60.074 80.43 c 60.578 80.43 61.047 80.582 61.379 80.805 c 
61.047 81.266 l 60.785 81.121 60.508 80.969 60.191 80.969 c 59.66 80.969
 59.281 81.176 59.281 81.715 c 59.281 82.68 61.363 82.281 61.363 83.805 
c 61.363 84.668 60.613 85.164 59.875 85.164 c f
63.688 84.621 m 64.129 84.621 64.469 84.316 64.75 83.965 c 64.785 82.695
 l 63.535 82.867 62.887 83.094 62.887 83.855 c 62.887 84.359 63.184 84.621
 63.688 84.621 c 65.738 84.621 m 65.895 84.621 66 84.551 66.117 84.469 c
 66.316 84.84 l 66.062 85.047 65.793 85.164 65.48 85.164 c 65.074 85.164
 64.848 84.805 64.812 84.414 c 64.461 84.84 64.039 85.164 63.461 85.164 
c 62.668 85.164 62.164 84.621 62.164 83.867 c 62.164 82.59 63.805 82.309
 64.785 82.266 c 64.793 82.074 64.805 81.887 64.805 81.695 c 64.805 81.309
 64.598 81.02 64.117 81.02 c 63.77 81.02 63.461 81.141 62.82 81.645 c 62.527
 81.176 l 63.418 80.598 63.723 80.43 64.363 80.43 c 65.117 80.43 65.488 
80.867 65.488 81.562 c 65.488 82.418 65.414 83.191 65.414 83.984 c 65.414
 84.309 65.461 84.621 65.738 84.621 c f
69.035 81.129 m 68.738 81.129 68.262 81.371 67.875 82.094 c 67.84 85.035
 l 67.121 85.035 l 67.156 80.555 l 67.895 80.555 l 67.883 81.426 l 67.902
 81.445 l 68.047 81.051 68.504 80.43 69.145 80.43 c 69.289 80.43 69.414 
80.445 69.531 80.488 c 69.316 81.176 l 69.242 81.148 69.137 81.129 69.035
 81.129 c f
70.121 86.621 m 70.816 86.621 71.023 86.461 71.211 86.035 c 71.699 84.965
 l 70.031 80.645 l 70.805 80.426 l 72.051 84.074 l 72.066 84.074 l 73.426
 80.426 l 74.137 80.645 l 72.137 85.594 l 71.637 86.828 71.375 87.16 70.41
 87.16 c 70.121 87.16 l h
70.121 86.621 m f
75.086 78.285 m 75.797 78.285 l 75.762 82.715 l 78.066 80.328 l 78.543 
80.797 l 76.652 82.613 l 78.598 84.773 l 78.027 85.234 l 75.762 82.73 l 
75.734 85.039 l 75.031 85.039 l h
75.086 78.285 m f
79.859 82.793 m 79.859 84.035 80.461 84.621 81.191 84.621 c 81.867 84.621
 82.594 84.035 82.594 82.793 c 82.594 81.555 81.992 80.969 81.262 80.969
 c 80.586 80.969 79.859 81.555 79.859 82.793 c 79.086 82.793 m 79.086 81.633
 79.848 80.426 81.27 80.426 c 82.586 80.426 83.367 81.316 83.367 82.793 
c 83.367 83.957 82.594 85.164 81.18 85.164 c 79.859 85.164 79.086 84.281
 79.086 82.793 c f
88.016 80.645 m 86.207 85.035 l 85.504 85.035 l 83.855 80.625 l 84.602 
80.426 l 85.871 84.172 l 85.891 84.172 l 87.297 80.426 l h
88.016 80.645 m f
90.023 84.621 m 90.465 84.621 90.809 84.316 91.086 83.965 c 91.121 82.695
 l 89.871 82.867 89.223 83.094 89.223 83.855 c 89.223 84.359 89.52 84.621
 90.023 84.621 c 92.078 84.621 m 92.23 84.621 92.336 84.551 92.453 84.469
 c 92.652 84.84 l 92.402 85.047 92.133 85.164 91.816 85.164 c 91.41 85.164
 91.184 84.805 91.148 84.414 c 90.797 84.84 90.375 85.164 89.801 85.164 
c 89.008 85.164 88.504 84.621 88.504 83.867 c 88.504 82.59 90.141 82.309
 91.121 82.266 c 91.133 82.074 91.141 81.887 91.141 81.695 c 91.141 81.309
 90.934 81.02 90.457 81.02 c 90.105 81.02 89.801 81.141 89.16 81.645 c 88.863
 81.176 l 89.754 80.598 90.059 80.43 90.699 80.43 c 91.457 80.43 91.824 
80.867 91.824 81.562 c 91.824 82.418 91.754 83.191 91.754 83.984 c 91.754
 84.309 91.797 84.621 92.078 84.621 c f
95.836 83.801 m 95.836 83.453 95.848 83.129 95.848 82.777 c 95.863 80.551
 l 96.586 80.551 l 96.566 82.57 l 96.566 82.965 96.559 83.363 96.559 83.801
 c 96.559 84.297 96.875 84.516 97.379 84.516 c 97.844 84.516 98.258 84.254
 98.719 83.688 c 98.754 80.551 l 99.473 80.551 l 99.441 85.035 l 98.719 
85.035 l 98.746 84.316 l 98.727 84.316 l 98.34 84.855 97.746 85.16 97.207
 85.16 c 96.172 85.16 95.836 84.629 95.836 83.801 c f
102.949 81.074 m 102.48 81.074 102.066 81.336 101.609 81.902 c 101.574 
85.035 l 100.852 85.035 l 100.887 80.555 l 101.609 80.555 l 101.582 81.273
 l 101.598 81.273 l 101.984 80.734 102.582 80.426 103.121 80.426 c 104.156
 80.426 104.488 80.957 104.488 81.785 c 104.488 82.137 104.48 82.461 104.48
 82.812 c 104.461 85.035 l 103.742 85.035 l 103.762 83.02 l 103.762 82.625
 103.77 82.227 103.77 81.785 c 103.77 81.293 103.453 81.074 102.949 81.074
 c f
105.863 80.551 m 106.582 80.551 l 106.547 85.035 l 105.828 85.035 l h
105.828 78.809 m 106.602 78.809 l 106.602 79.617 l 105.828 79.617 l h
105.828 78.809 m f
111.609 80.645 m 109.797 85.035 l 109.094 85.035 l 107.449 80.625 l 108.195
 80.426 l 109.465 84.172 l 109.484 84.172 l 110.887 80.426 l h
111.609 80.645 m f
115.113 82.211 m 115.113 81.57 114.844 80.969 114.113 80.969 c 113.43 80.969
 113.016 81.598 112.891 82.211 c h
112.828 82.695 m 112.828 82.848 l 112.828 83.785 113.18 84.621 114.098 
84.621 c 114.609 84.621 114.988 84.324 115.375 83.973 c 115.727 84.359 l
 115.266 84.82 114.691 85.164 114.016 85.164 c 112.766 85.164 112.051 84.273
 112.051 82.797 c 112.051 81.57 112.906 80.426 114.105 80.426 c 115.312 
80.426 115.832 81.348 115.832 82.551 c 115.832 82.695 l h
112.828 82.695 m f
118.84 81.129 m 118.543 81.129 118.066 81.371 117.68 82.094 c 117.641 85.035
 l 116.922 85.035 l 116.957 80.555 l 117.695 80.555 l 117.688 81.426 l 117.703
 81.445 l 117.848 81.051 118.309 80.43 118.949 80.43 c 119.094 80.43 119.219
 80.445 119.336 80.488 c 119.117 81.176 l 119.047 81.148 118.938 81.129 
118.84 81.129 c f
123.148 85.035 m 119.898 85.035 l 119.746 84.656 l 122.27 81.199 l 119.965
 81.199 l 119.965 80.555 l 123.141 80.555 l 123.293 80.879 l 120.746 84.441
 l 123.148 84.441 l h
123.148 85.035 m f
124.203 80.551 m 124.922 80.551 l 124.887 85.035 l 124.164 85.035 l h
124.164 78.809 m 124.938 78.809 l 124.938 79.617 l 124.164 79.617 l h
124.164 78.809 m f
125.801 80.551 m 126.574 80.551 l 126.594 78.898 l 127.312 78.898 l 127.297
 80.551 l 128.52 80.551 l 128.52 81.094 l 127.285 81.094 l 127.27 82.93 
l 127.258 83.184 127.258 83.398 127.258 83.57 c 127.258 83.992 l 127.258
 84.363 127.359 84.57 127.676 84.57 c 127.918 84.57 128.223 84.414 128.395
 84.309 c 128.629 84.777 l 128.332 84.984 127.902 85.16 127.504 85.16 c 
126.809 85.16 126.539 84.738 126.539 84.02 c 126.539 83.496 l 126.539 83.297
 126.539 83.047 126.551 82.734 c 126.566 81.094 l 125.801 81.094 l h
125.801 80.551 m f
130.684 84.621 m 131.125 84.621 131.469 84.316 131.746 83.965 c 131.781
 82.695 l 130.531 82.867 129.883 83.094 129.883 83.855 c 129.883 84.359 
130.18 84.621 130.684 84.621 c 132.734 84.621 m 132.891 84.621 132.996 84.551
 133.113 84.469 c 133.312 84.84 l 133.062 85.047 132.789 85.164 132.477 
85.164 c 132.07 85.164 131.844 84.805 131.809 84.414 c 131.457 84.84 131.035
 85.164 130.457 85.164 c 129.668 85.164 129.164 84.621 129.164 83.867 c 
129.164 82.59 130.801 82.309 131.781 82.266 c 131.789 82.074 131.801 81.887
 131.801 81.695 c 131.801 81.309 131.594 81.02 131.117 81.02 c 130.766 81.02
 130.457 81.141 129.82 81.645 c 129.523 81.176 l 130.414 80.598 130.719 
80.43 131.359 80.43 c 132.117 80.43 132.484 80.867 132.484 81.562 c 132.484
 82.418 132.414 83.191 132.414 83.984 c 132.414 84.309 132.457 84.621 132.734
 84.621 c f
32.816 0 m 32.816 83.84 l 1.199 83.84 l 1.199 0 l 0 0 l 0 85.039 l 34.016
 85.039 l 34.016 0 l h
32.816 0 m f
26.629 48.559 m 25.641 48.559 24.836 49.352 24.836 50.324 c 24.836 66.32
 l 24.836 67.77 24.301 69.078 23.379 70.133 c 23.379 50.297 l 23.379 49.441
 22.742 48.719 21.883 48.598 c 21.031 48.473 20.176 48.973 19.969 49.812
 c 17.035 61.695 17.008 61.789 17.008 61.789 c 17.008 61.789 16.988 61.695
 14.043 49.812 c 13.832 48.973 12.984 48.473 12.129 48.598 c 11.27 48.719
 10.637 49.441 10.637 50.297 c 10.637 70.133 l 9.715 69.078 9.172 67.77 
9.172 66.32 c 9.172 50.324 l 9.172 49.352 8.371 48.559 7.383 48.559 c 6.395
 48.559 5.668 49.352 5.668 50.324 c 5.668 66.32 l 5.668 71.945 10.672 75.879
 17.008 75.879 c 23.34 75.879 28.344 71.945 28.344 66.32 c 28.344 50.324
 l 28.344 49.352 27.617 48.559 26.629 48.559 c 13.965 72.297 m 13.965 62.188
 l 13.973 62.234 14.109 62.832 16.039 70.262 c 16.133 70.613 16.43 71 17.012
 71 c 17.617 71 17.879 70.66 17.988 70.262 c 18.578 67.969 20.047 62.219
 20.047 62.219 c 20.047 72.297 l 19.109 72.609 18.09 72.781 17.008 72.781
 c 15.926 72.781 14.898 72.609 13.965 72.297 c f
  Q
Q
Q Q
showpage
%%Trailer
end
%%EOF
