%!PS-Adobe-3.0 EPSF-3.0
%%Creator: cairo 1.16.0 (https://cairographics.org)
%%CreationDate: Mon Dec 16 01:49:05 2019
%%Pages: 1
%%DocumentData: Clean7Bit
%%LanguageLevel: 2
%%BoundingBox: 0 0 168 88
%%EndComments
%%BeginProlog
50 dict begin
/q { gsave } bind def
/Q { grestore } bind def
/cm { 6 array astore concat } bind def
/w { setlinewidth } bind def
/J { setlinecap } bind def
/j { setlinejoin } bind def
/M { setmiterlimit } bind def
/d { setdash } bind def
/m { moveto } bind def
/l { lineto } bind def
/c { curveto } bind def
/h { closepath } bind def
/re { exch dup neg 3 1 roll 5 3 roll moveto 0 rlineto
      0 exch rlineto 0 rlineto closepath } bind def
/S { stroke } bind def
/f { fill } bind def
/f* { eofill } bind def
/n { newpath } bind def
/W { clip } bind def
/W* { eoclip } bind def
/BT { } bind def
/ET { } bind def
/BDC { mark 3 1 roll /BDC pdfmark } bind def
/EMC { mark /EMC pdfmark } bind def
/cairo_store_point { /cairo_point_y exch def /cairo_point_x exch def } def
/Tj { show currentpoint cairo_store_point } bind def
/TJ {
  {
    dup
    type /stringtype eq
    { show } { -0.001 mul 0 cairo_font_matrix dtransform rmoveto } ifelse
  } forall
  currentpoint cairo_store_point
} bind def
/cairo_selectfont { cairo_font_matrix aload pop pop pop 0 0 6 array astore
    cairo_font exch selectfont cairo_point_x cairo_point_y moveto } bind def
/Tf { pop /cairo_font exch def /cairo_font_matrix where
      { pop cairo_selectfont } if } bind def
/Td { matrix translate cairo_font_matrix matrix concatmatrix dup
      /cairo_font_matrix exch def dup 4 get exch 5 get cairo_store_point
      /cairo_font where { pop cairo_selectfont } if } bind def
/Tm { 2 copy 8 2 roll 6 array astore /cairo_font_matrix exch def
      cairo_store_point /cairo_font where { pop cairo_selectfont } if } bind def
/g { setgray } bind def
/rg { setrgbcolor } bind def
/d1 { setcachedevice } bind def
/cairo_data_source {
  CairoDataIndex CairoData length lt
    { CairoData CairoDataIndex get /CairoDataIndex CairoDataIndex 1 add def }
    { () } ifelse
} def
/cairo_flush_ascii85_file { cairo_ascii85_file status { cairo_ascii85_file flushfile } if } def
/cairo_image { image cairo_flush_ascii85_file } def
/cairo_imagemask { imagemask cairo_flush_ascii85_file } def
%%EndProlog
%%BeginSetup
%%EndSetup
%%Page: 1 1
%%BeginPageSetup
%%PageBoundingBox: 0 0 168 88
%%EndPageSetup
q 0 0 168 88 rectclip
1 0 0 -1 0 88 cm q
1 g
45.621 48.734 m 50.215 48.734 l 50.203 50.055 l 47.156 50.055 l 47.145 
52.191 l 50.168 52.191 l 50.156 53.508 l 47.121 53.508 l 47.109 57.035 l
 45.539 57.035 l h
45.621 48.734 m f
54.289 50.344 m 54.266 50.344 l 53.223 53.582 l 55.246 53.582 l h
51.84 57.203 m 50.414 56.773 l 53.605 48.738 l 55.02 48.738 l 57.98 56.773
 l 56.484 57.203 l 55.668 54.828 l 52.777 54.828 l h
51.84 57.203 m f
59.145 48.734 m 60.68 48.734 l 60.656 52.609 l 60.715 52.609 l 64.109 48.566
 l 65.25 49.48 l 62.285 52.754 l 65.211 56.316 l 63.965 57.203 l 60.68 53.031
 l 60.656 53.031 l 60.617 57.035 l 59.086 57.035 l h
59.145 48.734 m f
q
0 0 168 88 re W n
  q
1 g
69.73 55.883 m 70.945 55.883 71.578 55.094 71.59 53.953 c 71.641 48.738
 l 73.176 48.738 l 73.129 54.035 l 73.09 56.074 71.688 57.203 69.711 57.203
 c 67.742 57.203 66.363 56.113 66.363 53.953 c 66.363 52.215 66.398 50.477
 66.41 48.738 c 67.945 48.738 l 67.934 50.512 67.898 52.262 67.898 54.035
 c 67.898 55.199 68.711 55.883 69.73 55.883 c f
79.871 57.035 m 75.086 57.035 l 75.156 48.734 l 76.691 48.734 l 76.621 
55.719 l 79.871 55.719 l h
79.871 57.035 m f
81.82 50.055 m 79.496 50.055 l 79.508 48.738 l 85.66 48.738 l 85.648 50.055
 l 83.355 50.055 l 83.297 57.035 l 81.762 57.035 l h
81.82 50.055 m f
89.117 50.344 m 89.094 50.344 l 88.051 53.582 l 90.078 53.582 l h
86.672 57.203 m 85.242 56.773 l 88.434 48.738 l 89.848 48.738 l 92.812 
56.773 l 91.312 57.203 l 90.496 54.828 l 87.605 54.828 l h
86.672 57.203 m f
47.363 71.203 m 46.551 71.203 45.816 70.988 45.109 70.566 c 45.711 69.391
 l 46.094 69.668 46.703 69.957 47.172 69.957 c 48.035 69.957 48.504 69.43
 48.504 68.758 c 48.504 67.113 45.098 67.797 45.098 64.977 c 45.098 63.625
 46.203 62.566 47.867 62.566 c 48.695 62.566 49.488 62.844 50.207 63.266
 c 49.559 64.367 l 49.043 64.094 48.598 63.816 47.988 63.816 c 47.281 63.816
 46.633 64.199 46.633 64.934 c 46.633 66.551 50.109 66.047 50.109 68.695
 c 50.109 70.113 48.961 71.203 47.363 71.203 c f
54.016 66.539 m 54.844 66.539 55.48 66.035 55.48 65.254 c 55.48 64.738 
55.191 63.984 54.078 63.984 c 53.262 63.984 l 53.234 66.539 l h
54.062 67.785 m 53.211 67.785 l 53.203 71.035 l 51.629 71.035 l 51.715 
62.734 l 54.051 62.734 l 56.223 62.734 57.086 63.73 57.086 65.266 c 57.086
 66.957 55.672 67.785 54.062 67.785 c f
59.578 66.887 m 59.578 68.695 60.707 69.957 62.422 69.957 c 64.137 69.957
 65.266 68.527 65.266 66.887 c 65.266 65.121 64.137 63.816 62.422 63.816
 c 61.031 63.816 59.578 64.965 59.578 66.887 c 57.973 66.887 m 57.973 64.465
 59.949 62.57 62.422 62.57 c 65.105 62.57 66.871 64.465 66.871 66.887 c 
66.871 69.309 64.938 71.203 62.422 71.203 c 59.902 71.203 57.973 69.418 
57.973 66.887 c f
70.91 66.469 m 71.355 66.469 72.277 66.273 72.277 65.184 c 72.277 64.379
 71.652 63.984 70.875 63.984 c 69.988 63.984 l 69.961 66.469 l h
70.418 67.711 m 69.938 67.711 l 69.926 71.035 l 68.355 71.035 l 68.441 
62.738 l 71.066 62.738 l 73.082 62.738 73.883 63.828 73.883 65.137 c 73.883
 66.191 73.25 66.945 72.277 67.293 c 74.641 70.391 l 73.273 71.203 l 70.969
 68 l 70.84 67.809 70.645 67.711 70.418 67.711 c f
77.242 64.055 m 74.914 64.055 l 74.926 62.738 l 81.078 62.738 l 81.066 
64.055 l 78.777 64.055 l 78.719 71.035 l 77.18 71.035 l h
77.242 64.055 m f
83.152 66.887 m 83.152 68.695 84.277 69.957 85.992 69.957 c 87.707 69.957
 88.836 68.527 88.836 66.887 c 88.836 65.121 87.707 63.816 85.992 63.816
 c 84.602 63.816 83.152 64.965 83.152 66.887 c 81.543 66.887 m 81.543 64.465
 83.523 62.57 85.992 62.57 c 88.68 62.57 90.441 64.465 90.441 66.887 c 90.441
 69.309 88.512 71.203 85.992 71.203 c 83.477 71.203 81.543 69.418 81.543
 66.887 c f
90.859 63.059 m 92.406 62.57 l 94.531 69.094 l 94.555 69.094 l 96.941 62.57
 l 98.43 63.059 l 95.262 71.035 l 93.824 71.035 l h
90.859 63.059 m f
99.566 63 m 100.992 62.566 l 104.867 68.926 l 104.891 68.926 l 104.797 
62.734 l 106.332 62.734 l 106.258 70.773 l 104.711 71.203 l 100.934 64.883
 l 100.91 64.906 l 101.031 71.035 l 99.496 71.035 l h
99.566 63 m f
108.301 62.734 m 109.836 62.734 l 109.766 71.035 l 108.23 71.035 l h
109.203 60.266 m 110.824 60.266 l 109.141 61.945 l 108.148 61.945 l h
109.203 60.266 m f
115.645 69.883 m 116.711 69.883 117.227 69.633 117.73 69.344 c 118.344 
70.402 l 117.574 70.941 116.652 71.203 115.707 71.203 c 113.234 71.203 111.398
 69.395 111.398 66.91 c 111.398 64.355 113.184 62.57 115.645 62.57 c 116.641
 62.57 117.586 62.895 118.355 63.527 c 117.684 64.594 l 117.168 64.164 116.363
 63.887 115.691 63.887 c 114.074 63.887 113.004 65.172 113.004 66.836 c 
113.004 68.422 114.098 69.883 115.645 69.883 c f
119.578 62.734 m 121.125 62.734 l 121.102 66.117 l 124.758 66.117 l 124.781
 62.734 l 126.34 62.734 l 126.27 71.035 l 124.711 71.035 l 124.758 67.438
 l 121.102 67.438 l 121.051 71.035 l 119.504 71.035 l h
119.578 62.734 m f
133.305 71.203 m 132.492 71.203 131.758 70.988 131.051 70.566 c 131.648
 69.391 l 132.035 69.668 132.645 69.957 133.113 69.957 c 133.977 69.957 
134.445 69.43 134.445 68.758 c 134.445 67.113 131.039 67.797 131.039 64.977
 c 131.039 63.625 132.141 62.566 133.809 62.566 c 134.637 62.566 135.426
 62.844 136.148 63.266 c 135.5 64.367 l 134.984 64.094 134.539 63.816 133.93
 63.816 c 133.219 63.816 132.574 64.199 132.574 64.934 c 132.574 66.551 
136.051 66.047 136.051 68.695 c 136.051 70.113 134.898 71.203 133.305 71.203
 c f
139.352 64.055 m 137.023 64.055 l 137.039 62.738 l 143.188 62.738 l 143.176
 64.055 l 140.887 64.055 l 140.828 71.035 l 139.293 71.035 l h
139.352 64.055 m f
147.664 69.883 m 148.879 69.883 149.512 69.094 149.523 67.953 c 149.574
 62.738 l 151.109 62.738 l 151.062 68.035 l 151.023 70.074 149.621 71.203
 147.645 71.203 c 145.676 71.203 144.297 70.113 144.297 67.953 c 144.297
 66.215 144.332 64.477 144.344 62.738 c 145.879 62.738 l 145.867 64.512 
145.832 66.262 145.832 68.035 c 145.832 69.199 146.648 69.883 147.664 69.883
 c f
155.52 69.719 m 157.316 69.719 158.531 68.688 158.531 66.824 c 158.531 
65.242 157.461 64.055 155.832 64.055 c 154.57 64.055 l 154.523 69.719 l 
h
155.832 71.035 m 152.977 71.035 l 153.047 62.738 l 155.781 62.738 l 158.41
 62.738 160.137 64.379 160.137 66.836 c 160.137 69.367 158.039 71.035 155.832
 71.035 c f
161.688 62.734 m 163.223 62.734 l 163.152 71.035 l 161.617 71.035 l h
161.688 62.734 m f
165.148 62.734 m 166.684 62.734 l 166.613 71.035 l 165.078 71.035 l h
166.051 60.266 m 167.668 60.266 l 165.988 61.945 l 164.992 61.945 l h
166.051 60.266 m f
46.309 78.805 m 47.109 78.805 l 48.988 84.062 l 51.016 78.805 l 51.852 
78.805 l 52.844 85.035 l 52.086 85.16 l 51.293 79.832 l 51.277 79.832 l 
49.34 85.035 l 48.602 85.035 l 46.793 79.832 l 46.773 79.832 l 45.918 85.16
 l 45.172 85.035 l h
46.309 78.805 m f
55.223 84.621 m 55.664 84.621 56.008 84.316 56.285 83.965 c 56.32 82.695
 l 55.07 82.867 54.422 83.09 54.422 83.855 c 54.422 84.359 54.719 84.621
 55.223 84.621 c 57.277 84.621 m 57.43 84.621 57.539 84.551 57.656 84.469
 c 57.852 84.84 l 57.602 85.047 57.332 85.16 57.016 85.16 c 56.609 85.16
 56.387 84.801 56.348 84.414 c 55.996 84.84 55.578 85.16 55 85.16 c 54.207
 85.16 53.703 84.621 53.703 83.863 c 53.703 82.586 55.34 82.309 56.32 82.262
 c 56.332 82.074 56.34 81.887 56.34 81.695 c 56.34 81.309 56.133 81.02 55.656
 81.02 c 55.305 81.02 55 81.137 54.359 81.641 c 54.062 81.176 l 54.953 80.598
 55.258 80.426 55.898 80.426 c 56.656 80.426 57.023 80.867 57.023 81.559
 c 57.023 82.414 56.953 83.188 56.953 83.98 c 56.953 84.309 56.996 84.621
 57.277 84.621 c f
59.859 85.16 m 59.328 85.16 58.859 84.98 58.457 84.723 c 58.762 84.242 
l 59.016 84.414 59.367 84.621 59.75 84.621 c 60.148 84.621 60.625 84.406
 60.625 83.902 c 60.625 82.785 58.547 83.27 58.547 81.766 c 58.547 80.922
 59.238 80.426 60.059 80.426 c 60.562 80.426 61.031 80.578 61.363 80.805
 c 61.031 81.266 l 60.77 81.117 60.492 80.969 60.176 80.969 c 59.645 80.969
 59.266 81.176 59.266 81.715 c 59.266 82.676 61.348 82.281 61.348 83.805
 c 61.348 84.668 60.598 85.16 59.859 85.16 c f
63.672 84.621 m 64.113 84.621 64.453 84.316 64.734 83.965 c 64.77 82.695
 l 63.52 82.867 62.871 83.09 62.871 83.855 c 62.871 84.359 63.168 84.621
 63.672 84.621 c 65.723 84.621 m 65.875 84.621 65.984 84.551 66.102 84.469
 c 66.301 84.84 l 66.047 85.047 65.777 85.16 65.461 85.16 c 65.059 85.16
 64.832 84.801 64.797 84.414 c 64.445 84.84 64.023 85.16 63.445 85.16 c 
62.652 85.16 62.152 84.621 62.152 83.863 c 62.152 82.586 63.789 82.309 64.77
 82.262 c 64.777 82.074 64.789 81.887 64.789 81.695 c 64.789 81.309 64.582
 81.02 64.102 81.02 c 63.75 81.02 63.445 81.137 62.805 81.641 c 62.508 81.176
 l 63.402 80.598 63.707 80.426 64.348 80.426 c 65.102 80.426 65.473 80.867
 65.473 81.559 c 65.473 82.414 65.402 83.188 65.402 83.98 c 65.402 84.309
 65.445 84.621 65.723 84.621 c f
69.02 81.129 m 68.723 81.129 68.246 81.371 67.859 82.094 c 67.824 85.035
 l 67.102 85.035 l 67.141 80.555 l 67.879 80.555 l 67.867 81.426 l 67.887
 81.441 l 68.031 81.047 68.488 80.426 69.129 80.426 c 69.273 80.426 69.398
 80.445 69.516 80.488 c 69.301 81.176 l 69.227 81.148 69.117 81.129 69.02
 81.129 c f
70.105 86.621 m 70.801 86.621 71.008 86.457 71.195 86.035 c 71.684 84.965
 l 70.016 80.641 l 70.789 80.426 l 72.031 84.07 l 72.051 84.07 l 73.41 80.426
 l 74.121 80.641 l 72.121 85.594 l 71.617 86.828 71.359 87.16 70.395 87.16
 c 70.105 87.16 l h
70.105 86.621 m f
75.07 78.285 m 75.781 78.285 l 75.746 82.715 l 78.051 80.328 l 78.527 80.797
 l 76.637 82.613 l 78.582 84.773 l 78.012 85.234 l 75.746 82.73 l 75.719
 85.035 l 75.016 85.035 l h
75.07 78.285 m f
79.844 82.793 m 79.844 84.035 80.445 84.621 81.176 84.621 c 81.852 84.621
 82.578 84.035 82.578 82.793 c 82.578 81.551 81.977 80.965 81.246 80.965
 c 80.57 80.965 79.844 81.551 79.844 82.793 c 79.07 82.793 m 79.07 81.633
 79.832 80.426 81.254 80.426 c 82.57 80.426 83.352 81.316 83.352 82.793 
c 83.352 83.953 82.578 85.16 81.164 85.16 c 79.844 85.16 79.07 84.277 79.07
 82.793 c f
88 80.645 m 86.191 85.035 l 85.488 85.035 l 83.84 80.625 l 84.586 80.426
 l 85.855 84.172 l 85.875 84.172 l 87.277 80.426 l h
88 80.645 m f
90.008 84.621 m 90.449 84.621 90.793 84.316 91.07 83.965 c 91.105 82.695
 l 89.855 82.867 89.207 83.09 89.207 83.855 c 89.207 84.359 89.504 84.621
 90.008 84.621 c 92.062 84.621 m 92.215 84.621 92.32 84.551 92.438 84.469
 c 92.637 84.84 l 92.387 85.047 92.113 85.16 91.801 85.16 c 91.395 85.16
 91.168 84.801 91.133 84.414 c 90.781 84.84 90.359 85.16 89.781 85.16 c 
88.992 85.16 88.488 84.621 88.488 83.863 c 88.488 82.586 90.125 82.309 91.105
 82.262 c 91.117 82.074 91.125 81.887 91.125 81.695 c 91.125 81.309 90.918
 81.02 90.441 81.02 c 90.09 81.02 89.781 81.137 89.145 81.641 c 88.848 81.176
 l 89.738 80.598 90.043 80.426 90.684 80.426 c 91.441 80.426 91.809 80.867
 91.809 81.559 c 91.809 82.414 91.738 83.188 91.738 83.98 c 91.738 84.309
 91.781 84.621 92.062 84.621 c f
95.82 83.801 m 95.82 83.449 95.832 83.125 95.832 82.777 c 95.848 80.551
 l 96.57 80.551 l 96.551 82.57 l 96.551 82.965 96.543 83.363 96.543 83.801
 c 96.543 84.297 96.855 84.516 97.359 84.516 c 97.828 84.516 98.242 84.25
 98.703 83.688 c 98.738 80.551 l 99.457 80.551 l 99.426 85.035 l 98.703 
85.035 l 98.73 84.316 l 98.715 84.316 l 98.324 84.855 97.73 85.16 97.191
 85.16 c 96.156 85.16 95.82 84.629 95.82 83.801 c f
102.934 81.074 m 102.465 81.074 102.051 81.336 101.594 81.902 c 101.555
 85.035 l 100.836 85.035 l 100.871 80.551 l 101.594 80.551 l 101.566 81.273
 l 101.582 81.273 l 101.969 80.73 102.562 80.426 103.105 80.426 c 104.141
 80.426 104.473 80.957 104.473 81.785 c 104.473 82.137 104.465 82.461 104.465
 82.812 c 104.445 85.035 l 103.727 85.035 l 103.746 83.02 l 103.746 82.625
 103.754 82.227 103.754 81.785 c 103.754 81.289 103.438 81.074 102.934 81.074
 c f
105.848 80.551 m 106.566 80.551 l 106.531 85.035 l 105.812 85.035 l h
105.812 78.805 m 106.586 78.805 l 106.586 79.617 l 105.812 79.617 l h
105.812 78.805 m f
111.59 80.645 m 109.781 85.035 l 109.078 85.035 l 107.434 80.625 l 108.18
 80.426 l 109.449 84.172 l 109.465 84.172 l 110.871 80.426 l h
111.59 80.645 m f
115.098 82.211 m 115.098 81.57 114.828 80.965 114.098 80.965 c 113.414 
80.965 113 81.598 112.875 82.211 c h
112.812 82.695 m 112.812 82.848 l 112.812 83.785 113.164 84.621 114.082
 84.621 c 114.594 84.621 114.973 84.324 115.359 83.973 c 115.711 84.359 
l 115.25 84.82 114.676 85.16 114 85.16 c 112.75 85.16 112.035 84.273 112.035
 82.793 c 112.035 81.57 112.891 80.426 114.09 80.426 c 115.297 80.426 115.816
 81.344 115.816 82.551 c 115.816 82.695 l h
112.812 82.695 m f
118.824 81.129 m 118.527 81.129 118.051 81.371 117.664 82.094 c 117.625
 85.035 l 116.906 85.035 l 116.941 80.555 l 117.68 80.555 l 117.672 81.426
 l 117.688 81.441 l 117.832 81.047 118.293 80.426 118.93 80.426 c 119.074
 80.426 119.203 80.445 119.32 80.488 c 119.102 81.176 l 119.031 81.148 118.922
 81.129 118.824 81.129 c f
123.133 85.035 m 119.883 85.035 l 119.73 84.656 l 122.25 81.199 l 119.945
 81.199 l 119.945 80.555 l 123.125 80.555 l 123.281 80.879 l 120.73 84.441
 l 123.133 84.441 l h
123.133 85.035 m f
124.184 80.551 m 124.906 80.551 l 124.871 85.035 l 124.148 85.035 l h
124.148 78.805 m 124.922 78.805 l 124.922 79.617 l 124.148 79.617 l h
124.148 78.805 m f
125.785 80.551 m 126.559 80.551 l 126.578 78.898 l 127.297 78.898 l 127.281
 80.551 l 128.504 80.551 l 128.504 81.09 l 127.27 81.09 l 127.254 82.93 
l 127.242 83.184 127.242 83.398 127.242 83.57 c 127.242 83.992 l 127.242
 84.359 127.344 84.566 127.66 84.566 c 127.902 84.566 128.207 84.414 128.379
 84.309 c 128.613 84.773 l 128.316 84.98 127.883 85.16 127.488 85.16 c 126.793
 85.16 126.523 84.738 126.523 84.02 c 126.523 83.496 l 126.523 83.297 126.523
 83.047 126.531 82.73 c 126.551 81.09 l 125.785 81.09 l h
125.785 80.551 m f
130.668 84.621 m 131.109 84.621 131.449 84.316 131.73 83.965 c 131.77 82.695
 l 130.516 82.867 129.867 83.09 129.867 83.855 c 129.867 84.359 130.164 
84.621 130.668 84.621 c 132.719 84.621 m 132.875 84.621 132.98 84.551 133.098
 84.469 c 133.297 84.84 l 133.043 85.047 132.773 85.16 132.461 85.16 c 132.055
 85.16 131.828 84.801 131.793 84.414 c 131.441 84.84 131.02 85.16 130.441
 85.16 c 129.652 85.16 129.148 84.621 129.148 83.863 c 129.148 82.586 130.785
 82.309 131.77 82.262 c 131.773 82.074 131.785 81.887 131.785 81.695 c 131.785
 81.309 131.578 81.02 131.098 81.02 c 130.75 81.02 130.441 81.137 129.805
 81.641 c 129.508 81.176 l 130.398 80.598 130.703 80.426 131.344 80.426 
c 132.098 80.426 132.469 80.867 132.469 81.559 c 132.469 82.414 132.398 
83.188 132.398 83.98 c 132.398 84.309 132.441 84.621 132.719 84.621 c f
32.816 0 m 32.812 83.84 l 1.199 83.84 l 1.199 0 l 0 0 l 0 85.035 l 34.016
 85.035 l 34.016 0 l h
32.816 0 m f
26.629 48.559 m 25.641 48.559 24.836 49.348 24.836 50.324 c 24.836 66.32
 l 24.836 67.77 24.301 69.078 23.379 70.133 c 23.379 50.293 l 23.379 49.441
 22.742 48.715 21.883 48.598 c 21.031 48.473 20.176 48.969 19.969 49.812
 c 17.035 61.695 17.008 61.789 17.008 61.789 c 17.008 61.789 16.988 61.695
 14.043 49.812 c 13.832 48.969 12.984 48.473 12.129 48.598 c 11.273 48.715
 10.637 49.441 10.637 50.293 c 10.637 70.133 l 9.715 69.078 9.172 67.77 
9.172 66.32 c 9.172 50.324 l 9.172 49.348 8.371 48.559 7.383 48.559 c 6.395
 48.559 5.668 49.348 5.668 50.324 c 5.668 66.32 l 5.668 71.945 10.672 75.879
 17.008 75.879 c 23.34 75.879 28.344 71.945 28.344 66.32 c 28.344 50.324
 l 28.344 49.348 27.617 48.559 26.629 48.559 c 13.965 72.293 m 13.965 62.188
 l 13.973 62.234 14.109 62.832 16.039 70.258 c 16.133 70.613 16.43 71 17.012
 71 c 17.617 71 17.879 70.66 17.988 70.258 c 18.578 67.965 20.047 62.215
 20.047 62.215 c 20.047 72.293 l 19.109 72.609 18.09 72.781 17.008 72.781
 c 15.926 72.781 14.902 72.609 13.965 72.293 c f
  Q
Q
Q Q
showpage
%%Trailer
end
%%EOF
