%!PS-Adobe-3.0 EPSF-3.0
%%Creator: cairo 1.16.0 (https://cairographics.org)
%%CreationDate: Mon Dec 16 01:49:07 2019
%%Pages: 1
%%DocumentData: Clean7Bit
%%LanguageLevel: 2
%%BoundingBox: 0 0 121 88
%%EndComments
%%BeginProlog
50 dict begin
/q { gsave } bind def
/Q { grestore } bind def
/cm { 6 array astore concat } bind def
/w { setlinewidth } bind def
/J { setlinecap } bind def
/j { setlinejoin } bind def
/M { setmiterlimit } bind def
/d { setdash } bind def
/m { moveto } bind def
/l { lineto } bind def
/c { curveto } bind def
/h { closepath } bind def
/re { exch dup neg 3 1 roll 5 3 roll moveto 0 rlineto
      0 exch rlineto 0 rlineto closepath } bind def
/S { stroke } bind def
/f { fill } bind def
/f* { eofill } bind def
/n { newpath } bind def
/W { clip } bind def
/W* { eoclip } bind def
/BT { } bind def
/ET { } bind def
/BDC { mark 3 1 roll /BDC pdfmark } bind def
/EMC { mark /EMC pdfmark } bind def
/cairo_store_point { /cairo_point_y exch def /cairo_point_x exch def } def
/Tj { show currentpoint cairo_store_point } bind def
/TJ {
  {
    dup
    type /stringtype eq
    { show } { -0.001 mul 0 cairo_font_matrix dtransform rmoveto } ifelse
  } forall
  currentpoint cairo_store_point
} bind def
/cairo_selectfont { cairo_font_matrix aload pop pop pop 0 0 6 array astore
    cairo_font exch selectfont cairo_point_x cairo_point_y moveto } bind def
/Tf { pop /cairo_font exch def /cairo_font_matrix where
      { pop cairo_selectfont } if } bind def
/Td { matrix translate cairo_font_matrix matrix concatmatrix dup
      /cairo_font_matrix exch def dup 4 get exch 5 get cairo_store_point
      /cairo_font where { pop cairo_selectfont } if } bind def
/Tm { 2 copy 8 2 roll 6 array astore /cairo_font_matrix exch def
      cairo_store_point /cairo_font where { pop cairo_selectfont } if } bind def
/g { setgray } bind def
/rg { setrgbcolor } bind def
/d1 { setcachedevice } bind def
/cairo_data_source {
  CairoDataIndex CairoData length lt
    { CairoData CairoDataIndex get /CairoDataIndex CairoDataIndex 1 add def }
    { () } ifelse
} def
/cairo_flush_ascii85_file { cairo_ascii85_file status { cairo_ascii85_file flushfile } if } def
/cairo_image { image cairo_flush_ascii85_file } def
/cairo_imagemask { imagemask cairo_flush_ascii85_file } def
%%EndProlog
%%BeginSetup
%%EndSetup
%%Page: 1 1
%%BeginPageSetup
%%PageBoundingBox: 0 0 121 88
%%EndPageSetup
q 0 0 121 88 rectclip
1 0 0 -1 0 88 cm q
1 g
45.637 48.738 m 50.227 48.738 l 50.219 50.055 l 47.172 50.055 l 47.16 52.191
 l 50.18 52.191 l 50.168 53.508 l 47.133 53.508 l 47.121 57.035 l 45.551
 57.035 l h
45.637 48.738 m f
54.301 50.344 m 54.277 50.344 l 53.234 53.582 l 55.262 53.582 l h
51.855 57.203 m 50.43 56.773 l 53.617 48.738 l 55.035 48.738 l 57.996 56.773
 l 56.496 57.203 l 55.68 54.828 l 52.793 54.828 l h
51.855 57.203 m f
q
0 0 121 88 re W n
  q
1 g
62.863 55.887 m 63.93 55.887 64.445 55.633 64.949 55.344 c 65.562 56.402
 l 64.793 56.941 63.871 57.203 62.926 57.203 c 60.453 57.203 58.617 55.395
 58.617 52.91 c 58.617 50.355 60.406 48.57 62.863 48.57 c 63.859 48.57 64.809
 48.895 65.574 49.527 c 64.902 50.598 l 64.387 50.164 63.582 49.887 62.91
 49.887 c 61.293 49.887 60.227 51.172 60.227 52.84 c 60.227 54.422 61.316
 55.887 62.863 55.887 c f
70.023 55.887 m 71.234 55.887 71.867 55.094 71.883 53.953 c 71.93 48.738
 l 73.465 48.738 l 73.418 54.039 l 73.379 56.078 71.977 57.203 70 57.203
 c 68.031 57.203 66.652 56.113 66.652 53.953 c 66.652 52.215 66.688 50.477
 66.699 48.738 c 68.234 48.738 l 68.223 50.512 68.188 52.262 68.188 54.039
 c 68.188 55.199 69.004 55.887 70.023 55.887 c f
80.16 57.035 m 75.375 57.035 l 75.449 48.738 l 76.984 48.738 l 76.91 55.719
 l 80.16 55.719 l h
80.16 57.035 m f
82.113 50.059 m 79.785 50.059 l 79.797 48.738 l 85.949 48.738 l 85.938 
50.059 l 83.648 50.059 l 83.586 57.035 l 82.051 57.035 l h
82.113 50.059 m f
89.391 53.594 m 86.641 49.359 l 88.047 48.57 l 90.219 52.117 l 92.473 48.57
 l 93.828 49.348 l 90.996 53.547 l 90.949 57.035 l 89.34 57.035 l h
89.391 53.594 m f
46.918 66.887 m 46.918 68.699 48.047 69.957 49.762 69.957 c 51.477 69.957
 52.605 68.531 52.605 66.887 c 52.605 65.121 51.477 63.816 49.762 63.816
 c 48.371 63.816 46.918 64.969 46.918 66.887 c 45.312 66.887 m 45.312 64.465
 47.293 62.57 49.762 62.57 c 52.449 62.57 54.211 64.465 54.211 66.887 c 
54.211 69.309 52.281 71.203 49.762 71.203 c 47.242 71.203 45.312 69.418 
45.312 66.887 c f
55.781 62.738 m 60.375 62.738 l 60.363 64.055 l 57.316 64.055 l 57.305 
66.191 l 60.324 66.191 l 60.312 67.508 l 57.281 67.508 l 57.27 71.035 l 
55.695 71.035 l h
55.781 62.738 m f
69.902 71.035 m 65.117 71.035 l 65.188 62.738 l 66.723 62.738 l 66.652 
69.719 l 69.902 69.719 l h
69.902 71.035 m f
74.523 64.344 m 74.5 64.344 l 73.457 67.582 l 75.48 67.582 l h
72.074 71.203 m 70.648 70.773 l 73.84 62.738 l 75.254 62.738 l 78.215 70.773
 l 76.719 71.203 l 75.902 68.828 l 73.012 68.828 l h
72.074 71.203 m f
78.258 62.953 m 79.793 62.566 l 81.352 69.164 l 81.375 69.164 l 83.246 
62.734 l 84.867 62.734 l 86.496 69.164 l 86.523 69.164 l 88.332 62.566 l
 89.82 62.965 l 87.266 71.035 l 85.633 71.035 l 84.016 64.547 l 83.992 64.547
 l 82.156 71.035 l 80.551 71.035 l h
78.258 62.953 m f
46.32 78.809 m 47.121 78.809 l 49.004 84.066 l 51.027 78.809 l 51.867 78.809
 l 52.855 85.035 l 52.102 85.16 l 51.309 79.832 l 51.289 79.832 l 49.355
 85.035 l 48.617 85.035 l 46.809 79.832 l 46.789 79.832 l 45.934 85.16 l
 45.188 85.035 l h
46.32 78.809 m f
55.238 84.621 m 55.68 84.621 56.02 84.316 56.301 83.965 c 56.336 82.695
 l 55.086 82.867 54.438 83.09 54.438 83.855 c 54.438 84.359 54.734 84.621
 55.238 84.621 c 57.289 84.621 m 57.445 84.621 57.551 84.551 57.668 84.469
 c 57.867 84.84 l 57.613 85.047 57.344 85.16 57.031 85.16 c 56.625 85.16
 56.398 84.801 56.363 84.414 c 56.012 84.84 55.59 85.16 55.012 85.16 c 54.219
 85.16 53.715 84.621 53.715 83.867 c 53.715 82.586 55.355 82.309 56.336 
82.262 c 56.344 82.074 56.355 81.887 56.355 81.695 c 56.355 81.309 56.148
 81.02 55.668 81.02 c 55.32 81.02 55.012 81.137 54.375 81.641 c 54.078 81.176
 l 54.969 80.598 55.273 80.426 55.914 80.426 c 56.668 80.426 57.039 80.867
 57.039 81.562 c 57.039 82.418 56.965 83.191 56.965 83.984 c 56.965 84.309
 57.012 84.621 57.289 84.621 c f
59.875 85.164 m 59.344 85.164 58.875 84.98 58.469 84.723 c 58.777 84.246
 l 59.027 84.414 59.379 84.621 59.766 84.621 c 60.164 84.621 60.641 84.406
 60.641 83.902 c 60.641 82.785 58.562 83.27 58.562 81.77 c 58.562 80.922
 59.254 80.426 60.074 80.426 c 60.578 80.426 61.043 80.578 61.379 80.805
 c 61.043 81.266 l 60.785 81.121 60.504 80.969 60.191 80.969 c 59.66 80.969
 59.281 81.176 59.281 81.715 c 59.281 82.676 61.359 82.281 61.359 83.805
 c 61.359 84.668 60.613 85.164 59.875 85.164 c f
63.684 84.621 m 64.125 84.621 64.469 84.316 64.746 83.965 c 64.785 82.695
 l 63.531 82.867 62.883 83.09 62.883 83.855 c 62.883 84.359 63.18 84.621
 63.684 84.621 c 65.738 84.621 m 65.891 84.621 66 84.551 66.117 84.469 c
 66.312 84.84 l 66.062 85.047 65.793 85.16 65.477 85.16 c 65.07 85.16 64.848
 84.801 64.809 84.414 c 64.457 84.84 64.035 85.16 63.461 85.16 c 62.668 
85.16 62.164 84.621 62.164 83.867 c 62.164 82.586 63.801 82.309 64.785 82.262
 c 64.793 82.074 64.801 81.887 64.801 81.695 c 64.801 81.309 64.594 81.02
 64.117 81.02 c 63.766 81.02 63.461 81.137 62.82 81.641 c 62.523 81.176 
l 63.414 80.598 63.719 80.426 64.359 80.426 c 65.117 80.426 65.484 80.867
 65.484 81.562 c 65.484 82.418 65.414 83.191 65.414 83.984 c 65.414 84.309
 65.457 84.621 65.738 84.621 c f
69.035 81.129 m 68.738 81.129 68.262 81.371 67.875 82.094 c 67.836 85.035
 l 67.117 85.035 l 67.152 80.555 l 67.891 80.555 l 67.883 81.426 l 67.898
 81.445 l 68.043 81.047 68.504 80.426 69.141 80.426 c 69.285 80.426 69.414
 80.445 69.531 80.488 c 69.312 81.176 l 69.242 81.148 69.133 81.129 69.035
 81.129 c f
70.121 86.621 m 70.812 86.621 71.02 86.461 71.211 86.035 c 71.695 84.965
 l 70.031 80.641 l 70.805 80.426 l 72.047 84.07 l 72.062 84.07 l 73.426 
80.426 l 74.137 80.641 l 72.137 85.594 l 71.633 86.828 71.371 87.16 70.406
 87.16 c 70.121 87.16 l h
70.121 86.621 m f
75.082 78.285 m 75.793 78.285 l 75.758 82.715 l 78.062 80.328 l 78.539 
80.797 l 76.648 82.613 l 78.594 84.773 l 78.027 85.234 l 75.758 82.73 l 
75.73 85.035 l 75.027 85.035 l h
75.082 78.285 m f
84.605 84.516 m 85.508 84.516 86.297 84.055 86.297 82.641 c 86.324 78.809
 l 87.102 78.809 l 87.074 82.688 l 87.047 84.688 85.766 85.16 84.551 85.16
 c 83.211 85.16 82.129 84.57 82.129 82.668 c 82.129 82.164 82.141 81.605
 82.148 80.965 c 82.164 78.809 l 82.941 78.809 l 82.922 81.102 l 82.914 
81.688 82.902 82.281 82.902 82.859 c 82.902 84 83.5 84.516 84.605 84.516
 c f
90.66 81.074 m 90.191 81.074 89.777 81.336 89.32 81.902 c 89.285 85.035
 l 88.562 85.035 l 88.598 80.555 l 89.32 80.555 l 89.293 81.273 l 89.312
 81.273 l 89.699 80.73 90.293 80.426 90.832 80.426 c 91.867 80.426 92.199
 80.957 92.199 81.785 c 92.199 82.137 92.191 82.461 92.191 82.812 c 92.172
 85.035 l 91.453 85.035 l 91.473 83.02 l 91.473 82.625 91.48 82.227 91.48
 81.785 c 91.48 81.293 91.164 81.074 90.66 81.074 c f
93.574 80.555 m 94.297 80.555 l 94.258 85.035 l 93.539 85.035 l h
93.539 78.805 m 94.312 78.805 l 94.312 79.617 l 93.539 79.617 l h
93.539 78.805 m f
99.32 80.645 m 97.512 85.035 l 96.809 85.035 l 95.16 80.625 l 95.906 80.426
 l 97.176 84.172 l 97.195 84.172 l 98.598 80.426 l h
99.32 80.645 m f
102.824 82.211 m 102.824 81.57 102.555 80.969 101.828 80.969 c 101.141 
80.969 100.727 81.598 100.602 82.211 c h
100.539 82.695 m 100.539 82.848 l 100.539 83.785 100.891 84.621 101.809
 84.621 c 102.32 84.621 102.699 84.324 103.086 83.973 c 103.438 84.359 l
 102.977 84.82 102.402 85.16 101.727 85.16 c 100.477 85.16 99.766 84.273
 99.766 82.797 c 99.766 81.57 100.621 80.426 101.816 80.426 c 103.023 80.426
 103.547 81.348 103.547 82.551 c 103.547 82.695 l h
100.539 82.695 m f
106.551 81.129 m 106.254 81.129 105.777 81.371 105.391 82.094 c 105.355
 85.035 l 104.633 85.035 l 104.668 80.555 l 105.406 80.555 l 105.398 81.426
 l 105.418 81.445 l 105.562 81.047 106.02 80.426 106.66 80.426 c 106.805
 80.426 106.93 80.445 107.047 80.488 c 106.828 81.176 l 106.758 81.148 106.648
 81.129 106.551 81.129 c f
108.824 85.164 m 108.293 85.164 107.824 84.98 107.418 84.723 c 107.727 
84.246 l 107.98 84.414 108.328 84.621 108.719 84.621 c 109.113 84.621 109.59
 84.406 109.59 83.902 c 109.59 82.785 107.512 83.27 107.512 81.77 c 107.512
 80.922 108.203 80.426 109.023 80.426 c 109.527 80.426 109.996 80.578 110.328
 80.805 c 109.996 81.266 l 109.734 81.121 109.453 80.969 109.141 80.969 
c 108.609 80.969 108.23 81.176 108.23 81.715 c 108.23 82.676 110.309 82.281
 110.309 83.805 c 110.309 84.668 109.562 85.164 108.824 85.164 c f
111.344 80.555 m 112.066 80.555 l 112.031 85.035 l 111.309 85.035 l h
111.309 78.805 m 112.082 78.805 l 112.082 79.617 l 111.309 79.617 l h
111.309 78.805 m f
112.945 80.555 m 113.719 80.555 l 113.738 78.898 l 114.457 78.898 l 114.438
 80.555 l 115.664 80.555 l 115.664 81.094 l 114.43 81.094 l 114.414 82.93
 l 114.402 83.184 114.402 83.398 114.402 83.57 c 114.402 83.992 l 114.402
 84.359 114.504 84.566 114.82 84.566 c 115.059 84.566 115.367 84.414 115.539
 84.309 c 115.773 84.773 l 115.477 84.98 115.043 85.16 114.645 85.16 c 113.953
 85.16 113.684 84.738 113.684 84.02 c 113.684 83.496 l 113.684 83.297 113.684
 83.047 113.691 82.73 c 113.711 81.094 l 112.945 81.094 l h
112.945 80.555 m f
116.348 86.621 m 117.043 86.621 117.25 86.461 117.438 86.035 c 117.926 
84.965 l 116.258 80.641 l 117.031 80.426 l 118.277 84.07 l 118.293 84.07
 l 119.652 80.426 l 120.363 80.641 l 118.367 85.594 l 117.859 86.828 117.602
 87.16 116.637 87.16 c 116.348 87.16 l h
116.348 86.621 m f
32.816 0 m 32.816 83.84 l 1.199 83.84 l 1.199 0 l 0 0 l 0 85.039 l 34.016
 85.039 l 34.016 0 l h
32.816 0 m f
26.629 48.559 m 25.641 48.559 24.84 49.348 24.84 50.324 c 24.84 66.32 l
 24.84 67.77 24.301 69.078 23.379 70.133 c 23.379 50.297 l 23.379 49.441
 22.742 48.715 21.883 48.598 c 21.031 48.473 20.176 48.969 19.969 49.812
 c 17.035 61.695 17.008 61.789 17.008 61.789 c 17.008 61.789 16.988 61.695
 14.043 49.812 c 13.832 48.969 12.984 48.473 12.129 48.598 c 11.27 48.715
 10.637 49.441 10.637 50.297 c 10.637 70.133 l 9.715 69.078 9.172 67.77 
9.172 66.32 c 9.172 50.324 l 9.172 49.348 8.371 48.559 7.383 48.559 c 6.395
 48.559 5.672 49.348 5.672 50.324 c 5.672 66.32 l 5.672 71.945 10.672 75.879
 17.008 75.879 c 23.34 75.879 28.344 71.945 28.344 66.32 c 28.344 50.324
 l 28.344 49.348 27.617 48.559 26.629 48.559 c 13.965 72.297 m 13.965 62.188
 l 13.973 62.234 14.109 62.832 16.039 70.262 c 16.133 70.613 16.43 71 17.012
 71 c 17.617 71 17.879 70.66 17.988 70.262 c 18.578 67.969 20.047 62.219
 20.047 62.219 c 20.047 72.297 l 19.109 72.609 18.09 72.781 17.008 72.781
 c 15.926 72.781 14.898 72.609 13.965 72.297 c f
  Q
Q
Q Q
showpage
%%Trailer
end
%%EOF
