%!PS-Adobe-3.0 EPSF-3.0
%%Creator: cairo 1.16.0 (https://cairographics.org)
%%CreationDate: Mon Dec 16 01:49:06 2019
%%Pages: 1
%%DocumentData: Clean7Bit
%%LanguageLevel: 2
%%BoundingBox: 0 0 135 88
%%EndComments
%%BeginProlog
50 dict begin
/q { gsave } bind def
/Q { grestore } bind def
/cm { 6 array astore concat } bind def
/w { setlinewidth } bind def
/J { setlinecap } bind def
/j { setlinejoin } bind def
/M { setmiterlimit } bind def
/d { setdash } bind def
/m { moveto } bind def
/l { lineto } bind def
/c { curveto } bind def
/h { closepath } bind def
/re { exch dup neg 3 1 roll 5 3 roll moveto 0 rlineto
      0 exch rlineto 0 rlineto closepath } bind def
/S { stroke } bind def
/f { fill } bind def
/f* { eofill } bind def
/n { newpath } bind def
/W { clip } bind def
/W* { eoclip } bind def
/BT { } bind def
/ET { } bind def
/BDC { mark 3 1 roll /BDC pdfmark } bind def
/EMC { mark /EMC pdfmark } bind def
/cairo_store_point { /cairo_point_y exch def /cairo_point_x exch def } def
/Tj { show currentpoint cairo_store_point } bind def
/TJ {
  {
    dup
    type /stringtype eq
    { show } { -0.001 mul 0 cairo_font_matrix dtransform rmoveto } ifelse
  } forall
  currentpoint cairo_store_point
} bind def
/cairo_selectfont { cairo_font_matrix aload pop pop pop 0 0 6 array astore
    cairo_font exch selectfont cairo_point_x cairo_point_y moveto } bind def
/Tf { pop /cairo_font exch def /cairo_font_matrix where
      { pop cairo_selectfont } if } bind def
/Td { matrix translate cairo_font_matrix matrix concatmatrix dup
      /cairo_font_matrix exch def dup 4 get exch 5 get cairo_store_point
      /cairo_font where { pop cairo_selectfont } if } bind def
/Tm { 2 copy 8 2 roll 6 array astore /cairo_font_matrix exch def
      cairo_store_point /cairo_font where { pop cairo_selectfont } if } bind def
/g { setgray } bind def
/rg { setrgbcolor } bind def
/d1 { setcachedevice } bind def
/cairo_data_source {
  CairoDataIndex CairoData length lt
    { CairoData CairoDataIndex get /CairoDataIndex CairoDataIndex 1 add def }
    { () } ifelse
} def
/cairo_flush_ascii85_file { cairo_ascii85_file status { cairo_ascii85_file flushfile } if } def
/cairo_image { image cairo_flush_ascii85_file } def
/cairo_imagemask { imagemask cairo_flush_ascii85_file } def
%%EndProlog
%%BeginSetup
%%EndSetup
%%Page: 1 1
%%BeginPageSetup
%%PageBoundingBox: 0 0 135 88
%%EndPageSetup
q 0 0 135 88 rectclip
1 0 0 -1 0 88 cm q
1 g
45.621 48.738 m 50.215 48.738 l 50.203 50.055 l 47.156 50.055 l 47.145 
52.191 l 50.168 52.191 l 50.156 53.508 l 47.121 53.508 l 47.109 57.035 l
 45.539 57.035 l h
45.621 48.738 m f
54.289 50.344 m 54.266 50.344 l 53.223 53.582 l 55.246 53.582 l h
51.844 57.203 m 50.414 56.773 l 53.605 48.738 l 55.02 48.738 l 57.984 56.773
 l 56.484 57.203 l 55.668 54.828 l 52.777 54.828 l h
51.844 57.203 m f
q
0 0 135 88 re W n
  q
1 g
62.852 55.883 m 63.918 55.883 64.434 55.633 64.938 55.344 c 65.547 56.402
 l 64.781 56.941 63.859 57.203 62.91 57.203 c 60.441 57.203 58.605 55.395
 58.605 52.91 c 58.605 50.355 60.391 48.57 62.852 48.57 c 63.844 48.57 64.793
 48.895 65.559 49.527 c 64.891 50.594 l 64.375 50.164 63.57 49.887 62.898
 49.887 c 61.277 49.887 60.211 51.172 60.211 52.84 c 60.211 54.422 61.305
 55.883 62.852 55.883 c f
70.008 55.883 m 71.219 55.883 71.855 55.094 71.867 53.953 c 71.914 48.738
 l 73.449 48.738 l 73.402 54.039 l 73.367 56.078 71.965 57.203 69.984 57.203
 c 68.02 57.203 66.637 56.113 66.637 53.953 c 66.637 52.215 66.676 50.477
 66.688 48.738 c 68.223 48.738 l 68.211 50.512 68.172 52.262 68.172 54.039
 c 68.172 55.199 68.988 55.883 70.008 55.883 c f
80.148 57.035 m 75.363 57.035 l 75.434 48.738 l 76.969 48.738 l 76.898 
55.719 l 80.148 55.719 l h
80.148 57.035 m f
82.098 50.055 m 79.773 50.055 l 79.785 48.738 l 85.938 48.738 l 85.926 
50.055 l 83.633 50.055 l 83.574 57.035 l 82.039 57.035 l h
82.098 50.055 m f
89.375 53.594 m 86.629 49.359 l 88.031 48.57 l 90.203 52.117 l 92.457 48.57
 l 93.812 49.348 l 90.984 53.547 l 90.938 57.035 l 89.328 57.035 l h
89.375 53.594 m f
99.371 52.887 m 99.371 54.699 100.5 55.957 102.215 55.957 c 103.93 55.957
 105.059 54.531 105.059 52.887 c 105.059 51.121 103.93 49.816 102.215 49.816
 c 100.824 49.816 99.371 50.965 99.371 52.887 c 97.766 52.887 m 97.766 50.465
 99.742 48.57 102.215 48.57 c 104.902 48.57 106.664 50.465 106.664 52.887
 c 106.664 55.309 104.734 57.203 102.215 57.203 c 99.695 57.203 97.766 55.418
 97.766 52.887 c f
108.234 48.738 m 112.828 48.738 l 112.816 50.055 l 109.77 50.055 l 109.758
 52.191 l 112.777 52.191 l 112.766 53.508 l 109.734 53.508 l 109.719 57.035
 l 108.148 57.035 l h
108.234 48.738 m f
47.367 71.203 m 46.555 71.203 45.82 70.988 45.113 70.566 c 45.711 69.395
 l 46.098 69.668 46.707 69.957 47.176 69.957 c 48.039 69.957 48.508 69.43
 48.508 68.758 c 48.508 67.113 45.102 67.797 45.102 64.98 c 45.102 63.625
 46.203 62.57 47.871 62.57 c 48.699 62.57 49.492 62.844 50.211 63.266 c 
49.562 64.367 l 49.047 64.094 48.602 63.816 47.992 63.816 c 47.285 63.816
 46.637 64.199 46.637 64.934 c 46.637 66.551 50.113 66.047 50.113 68.695
 c 50.113 70.113 48.961 71.203 47.367 71.203 c f
52.727 66.887 m 52.727 68.699 53.855 69.957 55.57 69.957 c 57.285 69.957
 58.414 68.531 58.414 66.887 c 58.414 65.121 57.285 63.816 55.57 63.816 
c 54.18 63.816 52.727 64.965 52.727 66.887 c 51.121 66.887 m 51.121 64.465
 53.102 62.57 55.57 62.57 c 58.258 62.57 60.02 64.465 60.02 66.887 c 60.02
 69.309 58.09 71.203 55.57 71.203 c 53.051 71.203 51.121 69.418 51.121 66.887
 c f
65.512 69.883 m 66.578 69.883 67.094 69.633 67.598 69.344 c 68.211 70.402
 l 67.441 70.941 66.52 71.203 65.574 71.203 c 63.102 71.203 61.266 69.395
 61.266 66.91 c 61.266 64.355 63.055 62.57 65.512 62.57 c 66.508 62.57 67.457
 62.895 68.223 63.527 c 67.551 64.594 l 67.035 64.164 66.23 63.887 65.559
 63.887 c 63.941 63.887 62.875 65.172 62.875 66.84 c 62.875 68.422 63.965
 69.883 65.512 69.883 c f
69.422 62.738 m 70.957 62.738 l 70.887 71.035 l 69.352 71.035 l h
69.422 62.738 m f
75.852 64.344 m 75.828 64.344 l 74.785 67.582 l 76.812 67.582 l h
73.406 71.203 m 71.977 70.773 l 75.168 62.738 l 76.582 62.738 l 79.547 
70.773 l 78.047 71.203 l 77.23 68.828 l 74.34 68.828 l h
73.406 71.203 m f
85.477 71.035 m 80.691 71.035 l 80.762 62.738 l 82.297 62.738 l 82.227 
69.719 l 85.477 69.719 l h
85.477 71.035 m f
91.742 71.203 m 90.926 71.203 90.195 70.988 89.484 70.566 c 90.086 69.395
 l 90.469 69.668 91.082 69.957 91.547 69.957 c 92.414 69.957 92.879 69.43
 92.879 68.758 c 92.879 67.113 89.473 67.797 89.473 64.98 c 89.473 63.625
 90.578 62.57 92.246 62.57 c 93.07 62.57 93.863 62.844 94.582 63.266 c 93.934
 64.367 l 93.418 64.094 92.977 63.816 92.363 63.816 c 91.656 63.816 91.012
 64.199 91.012 64.934 c 91.012 66.551 94.488 66.047 94.488 68.695 c 94.488
 70.113 93.336 71.203 91.742 71.203 c f
97.789 64.055 m 95.461 64.055 l 95.473 62.738 l 101.625 62.738 l 101.613
 64.055 l 99.324 64.055 l 99.262 71.035 l 97.727 71.035 l h
97.789 64.055 m f
106.102 69.883 m 107.312 69.883 107.949 69.094 107.961 67.953 c 108.008
 62.738 l 109.543 62.738 l 109.496 68.039 l 109.461 70.078 108.059 71.203
 106.078 71.203 c 104.113 71.203 102.73 70.113 102.73 67.953 c 102.73 66.215
 102.77 64.477 102.781 62.738 c 104.316 62.738 l 104.305 64.512 104.266 
66.262 104.266 68.039 c 104.266 69.199 105.082 69.883 106.102 69.883 c f
113.957 69.719 m 115.754 69.719 116.965 68.688 116.965 66.828 c 116.965
 65.242 115.898 64.055 114.27 64.055 c 113.008 64.055 l 112.961 69.719 l
 h
114.27 71.035 m 111.414 71.035 l 111.484 62.738 l 114.219 62.738 l 116.848
 62.738 118.574 64.379 118.574 66.84 c 118.574 69.367 116.477 71.035 114.27
 71.035 c f
120.125 62.738 m 121.66 62.738 l 121.586 71.035 l 120.051 71.035 l h
120.125 62.738 m f
128.051 71.035 m 123.531 71.035 l 123.617 62.738 l 128.051 62.738 l 128.051
 64.055 l 125.148 64.055 l 125.125 66.191 l 128.004 66.191 l 128.004 67.438
 l 125.113 67.438 l 125.102 69.719 l 128.051 69.719 l h
128.051 71.035 m f
131.512 71.203 m 130.699 71.203 129.965 70.988 129.258 70.566 c 129.855
 69.395 l 130.242 69.668 130.852 69.957 131.32 69.957 c 132.184 69.957 132.652
 69.43 132.652 68.758 c 132.652 67.113 129.246 67.797 129.246 64.98 c 129.246
 63.625 130.348 62.57 132.016 62.57 c 132.844 62.57 133.637 62.844 134.355
 63.266 c 133.707 64.367 l 133.191 64.094 132.746 63.816 132.137 63.816 
c 131.426 63.816 130.781 64.199 130.781 64.934 c 130.781 66.551 134.258 
66.047 134.258 68.695 c 134.258 70.113 133.105 71.203 131.512 71.203 c f
46.309 78.805 m 47.109 78.805 l 48.992 84.066 l 51.016 78.805 l 51.852 
78.805 l 52.844 85.035 l 52.086 85.16 l 51.297 79.832 l 51.277 79.832 l 
49.34 85.035 l 48.602 85.035 l 46.793 79.832 l 46.777 79.832 l 45.922 85.16
 l 45.172 85.035 l h
46.309 78.805 m f
55.223 84.621 m 55.664 84.621 56.008 84.316 56.285 83.965 c 56.324 82.695
 l 55.07 82.867 54.422 83.09 54.422 83.855 c 54.422 84.359 54.719 84.621
 55.223 84.621 c 57.277 84.621 m 57.43 84.621 57.539 84.551 57.656 84.469
 c 57.852 84.84 l 57.602 85.047 57.328 85.16 57.016 85.16 c 56.609 85.16
 56.387 84.801 56.348 84.414 c 55.996 84.84 55.578 85.16 55 85.16 c 54.207
 85.16 53.703 84.621 53.703 83.867 c 53.703 82.586 55.34 82.309 56.324 82.262
 c 56.332 82.074 56.34 81.887 56.34 81.695 c 56.34 81.309 56.133 81.02 55.656
 81.02 c 55.305 81.02 55 81.137 54.359 81.641 c 54.062 81.176 l 54.953 80.598
 55.262 80.426 55.898 80.426 c 56.656 80.426 57.023 80.867 57.023 81.559
 c 57.023 82.414 56.953 83.191 56.953 83.984 c 56.953 84.309 56.996 84.621
 57.277 84.621 c f
59.859 85.16 m 59.328 85.16 58.859 84.98 58.457 84.723 c 58.762 84.242 
l 59.016 84.414 59.367 84.621 59.754 84.621 c 60.148 84.621 60.625 84.406
 60.625 83.902 c 60.625 82.785 58.547 83.27 58.547 81.77 c 58.547 80.922
 59.238 80.426 60.059 80.426 c 60.562 80.426 61.031 80.578 61.363 80.805
 c 61.031 81.266 l 60.77 81.121 60.492 80.969 60.176 80.969 c 59.645 80.969
 59.266 81.176 59.266 81.715 c 59.266 82.676 61.348 82.281 61.348 83.805
 c 61.348 84.668 60.598 85.16 59.859 85.16 c f
63.672 84.621 m 64.113 84.621 64.453 84.316 64.734 83.965 c 64.77 82.695
 l 63.52 82.867 62.871 83.09 62.871 83.855 c 62.871 84.359 63.168 84.621
 63.672 84.621 c 65.723 84.621 m 65.879 84.621 65.984 84.551 66.102 84.469
 c 66.301 84.84 l 66.047 85.047 65.777 85.16 65.465 85.16 c 65.059 85.16
 64.832 84.801 64.797 84.414 c 64.445 84.84 64.023 85.16 63.445 85.16 c 
62.652 85.16 62.152 84.621 62.152 83.867 c 62.152 82.586 63.789 82.309 64.77
 82.262 c 64.777 82.074 64.789 81.887 64.789 81.695 c 64.789 81.309 64.582
 81.02 64.102 81.02 c 63.754 81.02 63.445 81.137 62.809 81.641 c 62.512 
81.176 l 63.402 80.598 63.707 80.426 64.348 80.426 c 65.102 80.426 65.473
 80.867 65.473 81.559 c 65.473 82.414 65.402 83.191 65.402 83.984 c 65.402
 84.309 65.445 84.621 65.723 84.621 c f
69.02 81.129 m 68.723 81.129 68.246 81.371 67.859 82.094 c 67.824 85.035
 l 67.102 85.035 l 67.141 80.555 l 67.879 80.555 l 67.867 81.426 l 67.887
 81.445 l 68.031 81.047 68.488 80.426 69.129 80.426 c 69.273 80.426 69.398
 80.445 69.516 80.488 c 69.301 81.176 l 69.227 81.148 69.121 81.129 69.02
 81.129 c f
70.105 86.621 m 70.801 86.621 71.008 86.461 71.195 86.035 c 71.68 84.965
 l 70.016 80.641 l 70.789 80.426 l 72.035 84.07 l 72.051 84.07 l 73.41 80.426
 l 74.121 80.641 l 72.125 85.594 l 71.621 86.828 71.359 87.16 70.395 87.16
 c 70.105 87.16 l h
70.105 86.621 m f
75.07 78.285 m 75.781 78.285 l 75.746 82.715 l 78.051 80.328 l 78.527 80.797
 l 76.637 82.613 l 78.582 84.773 l 78.016 85.234 l 75.746 82.73 l 75.719
 85.035 l 75.016 85.035 l h
75.07 78.285 m f
84.594 84.512 m 85.492 84.512 86.285 84.055 86.285 82.641 c 86.312 78.805
 l 87.086 78.805 l 87.059 82.688 l 87.031 84.688 85.754 85.16 84.539 85.16
 c 83.195 85.16 82.117 84.57 82.117 82.668 c 82.117 82.164 82.125 81.605
 82.137 80.965 c 82.152 78.805 l 82.926 78.805 l 82.91 81.102 l 82.902 81.688
 82.891 82.281 82.891 82.859 c 82.891 84 83.484 84.512 84.594 84.512 c f
90.648 81.074 m 90.18 81.074 89.766 81.336 89.305 81.902 c 89.27 85.035
 l 88.551 85.035 l 88.586 80.555 l 89.305 80.555 l 89.277 81.273 l 89.297
 81.273 l 89.684 80.73 90.277 80.426 90.82 80.426 c 91.855 80.426 92.188
 80.957 92.188 81.785 c 92.188 82.137 92.18 82.461 92.18 82.812 c 92.16 
85.035 l 91.441 85.035 l 91.457 83.02 l 91.457 82.625 91.465 82.227 91.465
 81.785 c 91.465 81.293 91.152 81.074 90.648 81.074 c f
93.559 80.551 m 94.281 80.551 l 94.246 85.035 l 93.523 85.035 l h
93.523 78.805 m 94.301 78.805 l 94.301 79.617 l 93.523 79.617 l h
93.523 78.805 m f
99.305 80.645 m 97.496 85.035 l 96.793 85.035 l 95.145 80.625 l 95.895 
80.426 l 97.16 84.172 l 97.18 84.172 l 98.586 80.426 l h
99.305 80.645 m f
102.812 82.211 m 102.812 81.57 102.543 80.969 101.812 80.969 c 101.129 
80.969 100.715 81.598 100.59 82.211 c h
100.523 82.695 m 100.523 82.848 l 100.523 83.785 100.875 84.621 101.793
 84.621 c 102.309 84.621 102.688 84.324 103.074 83.973 c 103.426 84.359 
l 102.965 84.82 102.391 85.16 101.715 85.16 c 100.461 85.16 99.75 84.273
 99.75 82.793 c 99.75 81.57 100.605 80.426 101.805 80.426 c 103.012 80.426
 103.531 81.348 103.531 82.551 c 103.531 82.695 l h
100.523 82.695 m f
106.539 81.129 m 106.242 81.129 105.766 81.371 105.375 82.094 c 105.34 
85.035 l 104.621 85.035 l 104.656 80.555 l 105.395 80.555 l 105.387 81.426
 l 105.402 81.445 l 105.547 81.047 106.008 80.426 106.645 80.426 c 106.789
 80.426 106.914 80.445 107.031 80.488 c 106.816 81.176 l 106.746 81.148 
106.637 81.129 106.539 81.129 c f
108.812 85.16 m 108.281 85.16 107.812 84.98 107.406 84.723 c 107.711 84.242
 l 107.965 84.414 108.316 84.621 108.703 84.621 c 109.098 84.621 109.578
 84.406 109.578 83.902 c 109.578 82.785 107.496 83.27 107.496 81.77 c 107.496
 80.922 108.191 80.426 109.008 80.426 c 109.512 80.426 109.98 80.578 110.316
 80.805 c 109.98 81.266 l 109.719 81.121 109.441 80.969 109.125 80.969 c
 108.594 80.969 108.219 81.176 108.219 81.715 c 108.219 82.676 110.297 82.281
 110.297 83.805 c 110.297 84.668 109.551 85.16 108.812 85.16 c f
111.332 80.551 m 112.051 80.551 l 112.016 85.035 l 111.297 85.035 l h
111.297 78.805 m 112.07 78.805 l 112.07 79.617 l 111.297 79.617 l h
111.297 78.805 m f
112.93 80.551 m 113.707 80.551 l 113.723 78.898 l 114.445 78.898 l 114.426
 80.551 l 115.652 80.551 l 115.652 81.094 l 114.418 81.094 l 114.398 82.93
 l 114.391 83.184 114.391 83.398 114.391 83.57 c 114.391 83.992 l 114.391
 84.359 114.488 84.566 114.805 84.566 c 115.047 84.566 115.352 84.414 115.523
 84.309 c 115.758 84.773 l 115.461 84.98 115.027 85.16 114.633 85.16 c 113.941
 85.16 113.672 84.738 113.672 84.02 c 113.672 83.496 l 113.672 83.297 113.672
 83.047 113.68 82.73 c 113.695 81.094 l 112.93 81.094 l h
112.93 80.551 m f
116.336 86.621 m 117.027 86.621 117.234 86.461 117.426 86.035 c 117.91 
84.965 l 116.246 80.641 l 117.02 80.426 l 118.262 84.07 l 118.281 84.07 
l 119.641 80.426 l 120.352 80.641 l 118.352 85.594 l 117.848 86.828 117.586
 87.16 116.625 87.16 c 116.336 87.16 l h
116.336 86.621 m f
32.816 0 m 32.812 83.84 l 1.199 83.84 l 1.199 0 l 0 0 l 0 85.035 l 34.016
 85.035 l 34.016 0 l h
32.816 0 m f
26.629 48.559 m 25.641 48.559 24.836 49.348 24.836 50.324 c 24.836 66.32
 l 24.836 67.77 24.301 69.078 23.379 70.133 c 23.379 50.293 l 23.379 49.441
 22.742 48.715 21.883 48.598 c 21.031 48.473 20.176 48.969 19.969 49.812
 c 17.035 61.695 17.008 61.789 17.008 61.789 c 17.008 61.789 16.988 61.695
 14.043 49.812 c 13.832 48.969 12.984 48.473 12.129 48.598 c 11.273 48.715
 10.637 49.441 10.637 50.293 c 10.637 70.133 l 9.715 69.078 9.172 67.77 
9.172 66.32 c 9.172 50.324 l 9.172 49.348 8.371 48.559 7.383 48.559 c 6.395
 48.559 5.668 49.348 5.668 50.324 c 5.668 66.32 l 5.668 71.945 10.672 75.879
 17.008 75.879 c 23.34 75.879 28.344 71.945 28.344 66.32 c 28.344 50.324
 l 28.344 49.348 27.617 48.559 26.629 48.559 c 13.965 72.293 m 13.965 62.188
 l 13.973 62.234 14.109 62.832 16.039 70.258 c 16.133 70.613 16.43 71 17.012
 71 c 17.617 71 17.879 70.66 17.988 70.258 c 18.578 67.965 20.047 62.215
 20.047 62.215 c 20.047 72.293 l 19.109 72.609 18.09 72.781 17.008 72.781
 c 15.926 72.781 14.902 72.609 13.965 72.293 c f
  Q
Q
Q Q
showpage
%%Trailer
end
%%EOF
