%!PS-Adobe-3.0 EPSF-3.0
%%Creator: cairo 1.16.0 (https://cairographics.org)
%%CreationDate: Mon Dec 16 01:49:09 2019
%%Pages: 1
%%DocumentData: Clean7Bit
%%LanguageLevel: 2
%%BoundingBox: 0 0 121 88
%%EndComments
%%BeginProlog
50 dict begin
/q { gsave } bind def
/Q { grestore } bind def
/cm { 6 array astore concat } bind def
/w { setlinewidth } bind def
/J { setlinecap } bind def
/j { setlinejoin } bind def
/M { setmiterlimit } bind def
/d { setdash } bind def
/m { moveto } bind def
/l { lineto } bind def
/c { curveto } bind def
/h { closepath } bind def
/re { exch dup neg 3 1 roll 5 3 roll moveto 0 rlineto
      0 exch rlineto 0 rlineto closepath } bind def
/S { stroke } bind def
/f { fill } bind def
/f* { eofill } bind def
/n { newpath } bind def
/W { clip } bind def
/W* { eoclip } bind def
/BT { } bind def
/ET { } bind def
/BDC { mark 3 1 roll /BDC pdfmark } bind def
/EMC { mark /EMC pdfmark } bind def
/cairo_store_point { /cairo_point_y exch def /cairo_point_x exch def } def
/Tj { show currentpoint cairo_store_point } bind def
/TJ {
  {
    dup
    type /stringtype eq
    { show } { -0.001 mul 0 cairo_font_matrix dtransform rmoveto } ifelse
  } forall
  currentpoint cairo_store_point
} bind def
/cairo_selectfont { cairo_font_matrix aload pop pop pop 0 0 6 array astore
    cairo_font exch selectfont cairo_point_x cairo_point_y moveto } bind def
/Tf { pop /cairo_font exch def /cairo_font_matrix where
      { pop cairo_selectfont } if } bind def
/Td { matrix translate cairo_font_matrix matrix concatmatrix dup
      /cairo_font_matrix exch def dup 4 get exch 5 get cairo_store_point
      /cairo_font where { pop cairo_selectfont } if } bind def
/Tm { 2 copy 8 2 roll 6 array astore /cairo_font_matrix exch def
      cairo_store_point /cairo_font where { pop cairo_selectfont } if } bind def
/g { setgray } bind def
/rg { setrgbcolor } bind def
/d1 { setcachedevice } bind def
/cairo_data_source {
  CairoDataIndex CairoData length lt
    { CairoData CairoDataIndex get /CairoDataIndex CairoDataIndex 1 add def }
    { () } ifelse
} def
/cairo_flush_ascii85_file { cairo_ascii85_file status { cairo_ascii85_file flushfile } if } def
/cairo_image { image cairo_flush_ascii85_file } def
/cairo_imagemask { imagemask cairo_flush_ascii85_file } def
%%EndProlog
%%BeginSetup
%%EndSetup
%%Page: 1 1
%%BeginPageSetup
%%PageBoundingBox: 0 0 121 88
%%EndPageSetup
q 0 0 121 88 rectclip
1 0 0 -1 0 88 cm q
1 g
45.637 48.738 m 50.23 48.738 l 50.219 50.059 l 47.172 50.059 l 47.16 52.191
 l 50.184 52.191 l 50.168 53.512 l 47.137 53.512 l 47.125 57.039 l 45.555
 57.039 l h
45.637 48.738 m f
54.305 50.344 m 54.281 50.344 l 53.238 53.582 l 55.262 53.582 l h
51.855 57.203 m 50.43 56.773 l 53.621 48.738 l 55.035 48.738 l 57.996 56.773
 l 56.5 57.203 l 55.684 54.832 l 52.793 54.832 l h
51.855 57.203 m f
q
0 0 121 88 re W n
  q
1 g
62.867 55.887 m 63.934 55.887 64.449 55.633 64.953 55.348 c 65.562 56.402
 l 64.797 56.941 63.871 57.203 62.926 57.203 c 60.453 57.203 58.621 55.395
 58.621 52.91 c 58.621 50.359 60.406 48.57 62.867 48.57 c 63.859 48.57 64.809
 48.895 65.574 49.531 c 64.906 50.598 l 64.387 50.164 63.586 49.891 62.914
 49.891 c 61.293 49.891 60.227 51.172 60.227 52.84 c 60.227 54.422 61.316
 55.887 62.867 55.887 c f
70.023 55.887 m 71.234 55.887 71.871 55.094 71.883 53.953 c 71.93 48.738
 l 73.465 48.738 l 73.418 54.039 l 73.383 56.078 71.977 57.203 70 57.203
 c 68.031 57.203 66.652 56.113 66.652 53.953 c 66.652 52.215 66.691 50.477
 66.703 48.738 c 68.238 48.738 l 68.223 50.516 68.188 52.266 68.188 54.039
 c 68.188 55.203 69.004 55.887 70.023 55.887 c f
80.164 57.035 m 75.379 57.035 l 75.449 48.738 l 76.984 48.738 l 76.914 
55.719 l 80.164 55.719 l h
80.164 57.035 m f
82.113 50.059 m 79.785 50.059 l 79.797 48.738 l 85.953 48.738 l 85.938 
50.059 l 83.648 50.059 l 83.59 57.035 l 82.055 57.035 l h
82.113 50.059 m f
89.391 53.594 m 86.645 49.363 l 88.047 48.57 l 90.219 52.121 l 92.473 48.57
 l 93.828 49.352 l 90.996 53.547 l 90.949 57.039 l 89.344 57.039 l h
89.391 53.594 m f
46.922 66.887 m 46.922 68.699 48.047 69.957 49.762 69.957 c 51.477 69.957
 52.605 68.531 52.605 66.887 c 52.605 65.125 51.477 63.816 49.762 63.816
 c 48.371 63.816 46.922 64.969 46.922 66.887 c 45.312 66.887 m 45.312 64.465
 47.293 62.57 49.762 62.57 c 52.449 62.57 54.215 64.465 54.215 66.887 c 
54.215 69.312 52.281 71.207 49.762 71.207 c 47.246 71.207 45.312 69.418 
45.312 66.887 c f
55.781 62.738 m 60.375 62.738 l 60.363 64.059 l 57.316 64.059 l 57.305 
66.191 l 60.328 66.191 l 60.316 67.512 l 57.281 67.512 l 57.27 71.039 l 
55.699 71.039 l h
55.781 62.738 m f
68.211 64.344 m 68.188 64.344 l 67.145 67.582 l 69.172 67.582 l h
65.766 71.203 m 64.34 70.773 l 67.527 62.738 l 68.945 62.738 l 71.906 70.773
 l 70.406 71.203 l 69.59 68.832 l 66.703 68.832 l h
65.766 71.203 m f
75.562 66.469 m 76.008 66.469 76.93 66.277 76.93 65.184 c 76.93 64.379 
76.305 63.984 75.527 63.984 c 74.641 63.984 l 74.613 66.469 l h
75.07 67.715 m 74.59 67.715 l 74.578 71.035 l 73.008 71.035 l 73.094 62.738
 l 75.719 62.738 l 77.734 62.738 78.535 63.828 78.535 65.137 c 78.535 66.191
 77.902 66.949 76.93 67.297 c 79.293 70.391 l 77.926 71.203 l 75.625 68.004
 l 75.492 67.812 75.301 67.715 75.07 67.715 c f
81.895 64.059 m 79.566 64.059 l 79.578 62.738 l 85.73 62.738 l 85.719 64.059
 l 83.43 64.059 l 83.367 71.035 l 81.832 71.035 l h
81.895 64.059 m f
88.816 71.207 m 88.004 71.207 87.27 70.988 86.562 70.57 c 87.16 69.395 
l 87.547 69.672 88.156 69.957 88.625 69.957 c 89.488 69.957 89.957 69.43
 89.957 68.758 c 89.957 67.113 86.551 67.801 86.551 64.98 c 86.551 63.625
 87.652 62.57 89.32 62.57 c 90.148 62.57 90.941 62.848 91.66 63.266 c 91.012
 64.367 l 90.496 64.094 90.051 63.816 89.441 63.816 c 88.734 63.816 88.086
 64.199 88.086 64.934 c 88.086 66.555 91.562 66.051 91.562 68.699 c 91.562
 70.113 90.41 71.207 88.816 71.207 c f
46.324 78.809 m 47.125 78.809 l 49.004 84.066 l 51.031 78.809 l 51.867 
78.809 l 52.859 85.035 l 52.102 85.164 l 51.309 79.832 l 51.293 79.832 l
 49.355 85.035 l 48.617 85.035 l 46.809 79.832 l 46.789 79.832 l 45.934 
85.164 l 45.188 85.035 l h
46.324 78.809 m f
55.238 84.625 m 55.68 84.625 56.023 84.316 56.301 83.969 c 56.34 82.695
 l 55.086 82.867 54.438 83.094 54.438 83.859 c 54.438 84.363 54.734 84.625
 55.238 84.625 c 57.293 84.625 m 57.445 84.625 57.555 84.551 57.668 84.473
 c 57.867 84.84 l 57.617 85.047 57.348 85.164 57.031 85.164 c 56.625 85.164
 56.402 84.805 56.363 84.418 c 56.012 84.84 55.59 85.164 55.016 85.164 c
 54.223 85.164 53.719 84.625 53.719 83.867 c 53.719 82.59 55.355 82.309 
56.34 82.266 c 56.348 82.074 56.355 81.887 56.355 81.695 c 56.355 81.312
 56.148 81.023 55.672 81.023 c 55.32 81.023 55.016 81.141 54.375 81.645 
c 54.078 81.176 l 54.969 80.602 55.273 80.43 55.914 80.43 c 56.672 80.43
 57.039 80.867 57.039 81.562 c 57.039 82.418 56.969 83.191 56.969 83.984
 c 56.969 84.309 57.012 84.625 57.293 84.625 c f
59.875 85.164 m 59.344 85.164 58.875 84.984 58.473 84.723 c 58.777 84.246
 l 59.031 84.418 59.383 84.625 59.77 84.625 c 60.164 84.625 60.641 84.406
 60.641 83.902 c 60.641 82.785 58.562 83.273 58.562 81.77 c 58.562 80.926
 59.254 80.43 60.074 80.43 c 60.578 80.43 61.047 80.582 61.379 80.809 c 
61.047 81.266 l 60.785 81.121 60.508 80.969 60.191 80.969 c 59.66 80.969
 59.281 81.176 59.281 81.715 c 59.281 82.68 61.359 82.281 61.359 83.805 
c 61.359 84.668 60.613 85.164 59.875 85.164 c f
63.688 84.625 m 64.129 84.625 64.469 84.316 64.75 83.969 c 64.785 82.695
 l 63.531 82.867 62.887 83.094 62.887 83.859 c 62.887 84.363 63.184 84.625
 63.688 84.625 c 65.738 84.625 m 65.891 84.625 66 84.551 66.117 84.473 c
 66.316 84.84 l 66.062 85.047 65.793 85.164 65.477 85.164 c 65.074 85.164
 64.848 84.805 64.812 84.418 c 64.461 84.84 64.039 85.164 63.461 85.164 
c 62.668 85.164 62.164 84.625 62.164 83.867 c 62.164 82.59 63.805 82.309
 64.785 82.266 c 64.793 82.074 64.805 81.887 64.805 81.695 c 64.805 81.312
 64.598 81.023 64.117 81.023 c 63.766 81.023 63.461 81.141 62.82 81.645 
c 62.523 81.176 l 63.418 80.602 63.723 80.43 64.359 80.43 c 65.117 80.43
 65.488 80.867 65.488 81.562 c 65.488 82.418 65.414 83.191 65.414 83.984
 c 65.414 84.309 65.461 84.625 65.738 84.625 c f
69.035 81.133 m 68.738 81.133 68.262 81.371 67.875 82.094 c 67.84 85.035
 l 67.117 85.035 l 67.152 80.555 l 67.895 80.555 l 67.883 81.43 l 67.902
 81.445 l 68.047 81.051 68.504 80.43 69.145 80.43 c 69.289 80.43 69.414 
80.445 69.531 80.492 c 69.316 81.176 l 69.242 81.148 69.133 81.133 69.035
 81.133 c f
70.121 86.621 m 70.816 86.621 71.023 86.461 71.211 86.035 c 71.699 84.965
 l 70.031 80.645 l 70.805 80.43 l 72.047 84.074 l 72.066 84.074 l 73.426
 80.43 l 74.137 80.645 l 72.141 85.598 l 71.633 86.828 71.371 87.16 70.41
 87.16 c 70.121 87.16 l h
70.121 86.621 m f
75.086 78.285 m 75.797 78.285 l 75.758 82.715 l 78.066 80.328 l 78.543 
80.797 l 76.652 82.613 l 78.594 84.777 l 78.027 85.234 l 75.758 82.73 l 
75.734 85.039 l 75.031 85.039 l h
75.086 78.285 m f
84.609 84.516 m 85.508 84.516 86.301 84.055 86.301 82.645 c 86.328 78.809
 l 87.102 78.809 l 87.074 82.688 l 87.047 84.688 85.77 85.164 84.555 85.164
 c 83.211 85.164 82.133 84.57 82.133 82.668 c 82.133 82.164 82.141 81.609
 82.148 80.969 c 82.168 78.809 l 82.941 78.809 l 82.922 81.105 l 82.914 
81.688 82.906 82.281 82.906 82.859 c 82.906 84.004 83.5 84.516 84.609 84.516
 c f
90.664 81.078 m 90.195 81.078 89.781 81.336 89.32 81.906 c 89.285 85.039
 l 88.562 85.039 l 88.602 80.555 l 89.32 80.555 l 89.293 81.273 l 89.312
 81.273 l 89.699 80.734 90.293 80.43 90.832 80.43 c 91.871 80.43 92.203 
80.961 92.203 81.789 c 92.203 82.137 92.191 82.465 92.191 82.812 c 92.176
 85.039 l 91.453 85.039 l 91.473 83.02 l 91.473 82.625 91.48 82.227 91.48
 81.789 c 91.48 81.293 91.168 81.078 90.664 81.078 c f
93.574 80.555 m 94.297 80.555 l 94.262 85.035 l 93.539 85.035 l h
93.539 78.809 m 94.312 78.809 l 94.312 79.617 l 93.539 79.617 l h
93.539 78.809 m f
99.32 80.645 m 97.512 85.039 l 96.809 85.039 l 95.16 80.625 l 95.91 80.43
 l 97.176 84.172 l 97.195 84.172 l 98.602 80.43 l h
99.32 80.645 m f
102.828 82.211 m 102.828 81.57 102.555 80.969 101.828 80.969 c 101.145 
80.969 100.73 81.598 100.602 82.211 c h
100.539 82.695 m 100.539 82.852 l 100.539 83.785 100.891 84.625 101.809
 84.625 c 102.324 84.625 102.699 84.324 103.086 83.977 c 103.438 84.363 
l 102.98 84.82 102.402 85.164 101.73 85.164 c 100.477 85.164 99.766 84.273
 99.766 82.797 c 99.766 81.57 100.621 80.43 101.82 80.43 c 103.023 80.43
 103.547 81.348 103.547 82.555 c 103.547 82.695 l h
100.539 82.695 m f
106.551 81.133 m 106.254 81.133 105.777 81.371 105.391 82.094 c 105.355
 85.035 l 104.637 85.035 l 104.672 80.555 l 105.41 80.555 l 105.398 81.43
 l 105.418 81.445 l 105.562 81.051 106.02 80.43 106.66 80.43 c 106.805 80.43
 106.93 80.445 107.047 80.492 c 106.832 81.176 l 106.758 81.148 106.652 
81.133 106.551 81.133 c f
108.828 85.164 m 108.297 85.164 107.828 84.984 107.422 84.723 c 107.727
 84.246 l 107.98 84.418 108.332 84.625 108.719 84.625 c 109.113 84.625 109.59
 84.406 109.59 83.902 c 109.59 82.785 107.512 83.273 107.512 81.77 c 107.512
 80.926 108.203 80.43 109.023 80.43 c 109.527 80.43 109.996 80.582 110.328
 80.809 c 109.996 81.266 l 109.734 81.121 109.457 80.969 109.141 80.969 
c 108.609 80.969 108.23 81.176 108.23 81.715 c 108.23 82.68 110.312 82.281
 110.312 83.805 c 110.312 84.668 109.562 85.164 108.828 85.164 c f
111.348 80.555 m 112.066 80.555 l 112.031 85.035 l 111.309 85.035 l h
111.309 78.809 m 112.086 78.809 l 112.086 79.617 l 111.309 79.617 l h
111.309 78.809 m f
112.945 80.555 m 113.719 80.555 l 113.738 78.898 l 114.457 78.898 l 114.441
 80.555 l 115.664 80.555 l 115.664 81.094 l 114.434 81.094 l 114.414 82.934
 l 114.406 83.184 114.406 83.398 114.406 83.57 c 114.406 83.992 l 114.406
 84.363 114.504 84.57 114.82 84.57 c 115.062 84.57 115.367 84.414 115.539
 84.309 c 115.773 84.777 l 115.477 84.984 115.043 85.164 114.648 85.164 
c 113.953 85.164 113.684 84.742 113.684 84.02 c 113.684 83.496 l 113.684
 83.301 113.684 83.047 113.695 82.734 c 113.711 81.094 l 112.945 81.094 
l h
112.945 80.555 m f
116.352 86.621 m 117.043 86.621 117.25 86.461 117.441 86.035 c 117.926 
84.965 l 116.262 80.645 l 117.035 80.43 l 118.277 84.074 l 118.297 84.074
 l 119.656 80.43 l 120.367 80.645 l 118.367 85.598 l 117.863 86.828 117.602
 87.16 116.637 87.16 c 116.352 87.16 l h
116.352 86.621 m f
32.816 0 m 32.816 83.84 l 1.199 83.84 l 1.199 0 l 0 0 l 0 85.039 l 34.016
 85.039 l 34.016 0 l h
32.816 0 m f
26.629 48.559 m 25.641 48.559 24.836 49.348 24.836 50.328 c 24.836 66.32
 l 24.836 67.773 24.301 69.078 23.379 70.133 c 23.379 50.297 l 23.379 49.441
 22.742 48.715 21.883 48.598 c 21.031 48.473 20.176 48.969 19.969 49.816
 c 17.035 61.699 17.008 61.789 17.008 61.789 c 17.008 61.789 16.988 61.699
 14.043 49.812 c 13.832 48.969 12.984 48.473 12.129 48.598 c 11.273 48.715
 10.637 49.441 10.637 50.297 c 10.637 70.133 l 9.715 69.078 9.172 67.773
 9.172 66.32 c 9.172 50.328 l 9.172 49.348 8.371 48.559 7.383 48.559 c 6.395
 48.559 5.668 49.348 5.668 50.328 c 5.668 66.32 l 5.668 71.949 10.672 75.879
 17.008 75.879 c 23.34 75.879 28.344 71.949 28.344 66.32 c 28.344 50.328
 l 28.344 49.348 27.617 48.559 26.629 48.559 c 13.965 72.297 m 13.965 62.191
 l 13.973 62.234 14.109 62.832 16.039 70.262 c 16.133 70.617 16.43 71 17.012
 71 c 17.617 71 17.879 70.664 17.988 70.262 c 18.578 67.969 20.047 62.219
 20.047 62.219 c 20.047 72.297 l 19.109 72.609 18.09 72.781 17.008 72.781
 c 15.926 72.781 14.902 72.609 13.965 72.297 c f
  Q
Q
Q Q
showpage
%%Trailer
end
%%EOF
