%!PS-Adobe-3.0 EPSF-3.0
%%Creator: cairo 1.16.0 (https://cairographics.org)
%%CreationDate: Mon Dec 16 01:49:07 2019
%%Pages: 1
%%DocumentData: Clean7Bit
%%LanguageLevel: 2
%%BoundingBox: 0 0 134 88
%%EndComments
%%BeginProlog
50 dict begin
/q { gsave } bind def
/Q { grestore } bind def
/cm { 6 array astore concat } bind def
/w { setlinewidth } bind def
/J { setlinecap } bind def
/j { setlinejoin } bind def
/M { setmiterlimit } bind def
/d { setdash } bind def
/m { moveto } bind def
/l { lineto } bind def
/c { curveto } bind def
/h { closepath } bind def
/re { exch dup neg 3 1 roll 5 3 roll moveto 0 rlineto
      0 exch rlineto 0 rlineto closepath } bind def
/S { stroke } bind def
/f { fill } bind def
/f* { eofill } bind def
/n { newpath } bind def
/W { clip } bind def
/W* { eoclip } bind def
/BT { } bind def
/ET { } bind def
/BDC { mark 3 1 roll /BDC pdfmark } bind def
/EMC { mark /EMC pdfmark } bind def
/cairo_store_point { /cairo_point_y exch def /cairo_point_x exch def } def
/Tj { show currentpoint cairo_store_point } bind def
/TJ {
  {
    dup
    type /stringtype eq
    { show } { -0.001 mul 0 cairo_font_matrix dtransform rmoveto } ifelse
  } forall
  currentpoint cairo_store_point
} bind def
/cairo_selectfont { cairo_font_matrix aload pop pop pop 0 0 6 array astore
    cairo_font exch selectfont cairo_point_x cairo_point_y moveto } bind def
/Tf { pop /cairo_font exch def /cairo_font_matrix where
      { pop cairo_selectfont } if } bind def
/Td { matrix translate cairo_font_matrix matrix concatmatrix dup
      /cairo_font_matrix exch def dup 4 get exch 5 get cairo_store_point
      /cairo_font where { pop cairo_selectfont } if } bind def
/Tm { 2 copy 8 2 roll 6 array astore /cairo_font_matrix exch def
      cairo_store_point /cairo_font where { pop cairo_selectfont } if } bind def
/g { setgray } bind def
/rg { setrgbcolor } bind def
/d1 { setcachedevice } bind def
/cairo_data_source {
  CairoDataIndex CairoData length lt
    { CairoData CairoDataIndex get /CairoDataIndex CairoDataIndex 1 add def }
    { () } ifelse
} def
/cairo_flush_ascii85_file { cairo_ascii85_file status { cairo_ascii85_file flushfile } if } def
/cairo_image { image cairo_flush_ascii85_file } def
/cairo_imagemask { imagemask cairo_flush_ascii85_file } def
%%EndProlog
%%BeginSetup
%%EndSetup
%%Page: 1 1
%%BeginPageSetup
%%PageBoundingBox: 0 0 134 88
%%EndPageSetup
q 0 0 134 88 rectclip
1 0 0 -1 0 88 cm q
1 g
50.453 57.035 m 45.668 57.035 l 45.742 48.734 l 47.277 48.734 l 47.203 
55.715 l 50.453 55.715 l h
50.453 57.035 m f
54.043 46.266 m 55.66 46.266 l 53.984 47.945 l 52.988 47.945 l h
56.07 57.035 m 51.547 57.035 l 51.633 48.734 l 56.07 48.734 l 56.07 50.055
 l 53.168 50.055 l 53.145 52.191 l 56.023 52.191 l 56.023 53.438 l 53.133
 53.438 l 53.117 55.715 l 56.07 55.715 l h
56.07 57.035 m f
57.801 48.734 m 59.336 48.734 l 59.312 52.609 l 59.371 52.609 l 62.766 
48.566 l 63.906 49.48 l 60.941 52.754 l 63.867 56.316 l 62.621 57.203 l 
59.336 53.031 l 59.312 53.031 l 59.277 57.035 l 57.742 57.035 l h
57.801 48.734 m f
68.484 50.344 m 68.461 50.344 l 67.418 53.582 l 69.445 53.582 l h
66.039 57.203 m 64.609 56.773 l 67.801 48.734 l 69.215 48.734 l 72.18 56.773
 l 70.68 57.203 l 69.863 54.828 l 66.973 54.828 l h
66.039 57.203 m f
q
0 0 134 88 re W n
  q
1 g
75.836 52.465 m 76.277 52.465 77.203 52.273 77.203 51.184 c 77.203 50.379
 76.578 49.984 75.801 49.984 c 74.91 49.984 l 74.887 52.465 l h
73.711 46.266 m 74.898 46.266 l 75.762 47.332 l 76.039 46.984 76.363 46.602
 76.637 46.266 c 77.812 46.266 l 76.445 48.086 l 75.102 48.086 l h
75.344 53.711 m 74.863 53.711 l 74.852 57.035 l 73.281 57.035 l 73.363 
48.734 l 75.992 48.734 l 78.004 48.734 78.809 49.828 78.809 51.133 c 78.809
 52.191 78.172 52.945 77.203 53.293 c 79.566 56.387 l 78.195 57.203 l 75.895
 54 l 75.762 53.809 75.57 53.711 75.344 53.711 c f
82.652 57.203 m 81.836 57.203 81.105 56.988 80.395 56.566 c 80.996 55.391
 l 81.379 55.668 81.992 55.957 82.461 55.957 c 83.324 55.957 83.789 55.43
 83.789 54.758 c 83.789 53.113 80.383 53.797 80.383 50.977 c 80.383 49.625
 81.488 48.566 83.156 48.566 c 83.984 48.566 84.773 48.844 85.492 49.262
 c 84.848 50.367 l 84.328 50.09 83.887 49.816 83.273 49.816 c 82.566 49.816
 81.922 50.199 81.922 50.93 c 81.922 52.551 85.398 52.047 85.398 54.695 
c 85.398 56.113 84.246 57.203 82.652 57.203 c f
86.977 48.734 m 88.512 48.734 l 88.488 52.609 l 88.547 52.609 l 91.941 
48.566 l 93.082 49.48 l 90.117 52.754 l 93.043 56.316 l 91.797 57.203 l 
88.512 53.031 l 88.488 53.031 l 88.453 57.035 l 86.918 57.035 l h
86.977 48.734 m f
97.863 46.266 m 99.484 46.266 l 97.805 47.945 l 96.809 47.945 l h
97.66 50.344 m 97.637 50.344 l 96.594 53.582 l 98.621 53.582 l h
95.215 57.203 m 93.785 56.77 l 96.977 48.734 l 98.391 48.734 l 101.355 
56.77 l 99.855 57.203 l 99.039 54.828 l 96.148 54.828 l h
95.215 57.203 m f
45.637 62.734 m 50.23 62.734 l 50.219 64.055 l 47.172 64.055 l 47.16 66.188
 l 50.184 66.188 l 50.168 67.508 l 47.137 67.508 l 47.125 71.035 l 45.555
 71.035 l h
45.637 62.734 m f
54.305 64.344 m 54.281 64.344 l 53.238 67.582 l 55.262 67.582 l h
51.855 71.203 m 50.43 70.773 l 53.621 62.734 l 55.035 62.734 l 57.996 70.773
 l 56.5 71.203 l 55.684 68.828 l 52.793 68.828 l h
51.855 71.203 m f
59.16 62.734 m 60.695 62.734 l 60.672 66.609 l 60.73 66.609 l 64.125 62.566
 l 65.266 63.48 l 62.301 66.754 l 65.227 70.316 l 63.98 71.203 l 60.695 
67.031 l 60.672 67.031 l 60.637 71.035 l 59.102 71.035 l h
59.16 62.734 m f
69.746 69.883 m 70.957 69.883 71.594 69.094 71.605 67.953 c 71.656 62.734
 l 73.191 62.734 l 73.141 68.035 l 73.105 70.074 71.703 71.203 69.723 71.203
 c 67.758 71.203 66.379 70.113 66.379 67.953 c 66.379 66.215 66.414 64.477
 66.426 62.734 c 67.961 62.734 l 67.949 64.512 67.914 66.262 67.914 68.035
 c 67.914 69.199 68.727 69.883 69.746 69.883 c f
79.887 71.035 m 75.102 71.035 l 75.172 62.734 l 76.707 62.734 l 76.637 
69.715 l 79.887 69.715 l h
79.887 71.035 m f
81.836 64.055 m 79.512 64.055 l 79.523 62.738 l 85.676 62.738 l 85.664 
64.055 l 83.371 64.055 l 83.312 71.035 l 81.777 71.035 l h
81.836 64.055 m f
89.133 64.344 m 89.109 64.344 l 88.066 67.582 l 90.09 67.582 l h
86.684 71.203 m 85.258 70.773 l 88.449 62.734 l 89.863 62.734 l 92.828 
70.773 l 91.328 71.203 l 90.512 68.828 l 87.621 68.828 l h
86.684 71.203 m f
46.324 78.805 m 47.125 78.805 l 49.004 84.062 l 51.031 78.805 l 51.867 
78.805 l 52.859 85.035 l 52.102 85.16 l 51.309 79.832 l 51.293 79.832 l 
49.355 85.035 l 48.617 85.035 l 46.809 79.832 l 46.789 79.832 l 45.934 85.16
 l 45.188 85.035 l h
46.324 78.805 m f
55.238 84.621 m 55.68 84.621 56.023 84.316 56.301 83.965 c 56.34 82.695
 l 55.086 82.867 54.438 83.09 54.438 83.855 c 54.438 84.359 54.734 84.621
 55.238 84.621 c 57.293 84.621 m 57.445 84.621 57.555 84.551 57.668 84.469
 c 57.867 84.836 l 57.617 85.043 57.348 85.16 57.031 85.16 c 56.625 85.16
 56.402 84.801 56.363 84.414 c 56.012 84.836 55.59 85.16 55.016 85.16 c 
54.223 85.16 53.719 84.621 53.719 83.863 c 53.719 82.586 55.355 82.309 56.34
 82.262 c 56.348 82.074 56.355 81.883 56.355 81.695 c 56.355 81.309 56.148
 81.02 55.672 81.02 c 55.32 81.02 55.016 81.137 54.375 81.641 c 54.078 81.172
 l 54.969 80.598 55.273 80.426 55.914 80.426 c 56.672 80.426 57.039 80.867
 57.039 81.559 c 57.039 82.414 56.969 83.188 56.969 83.98 c 56.969 84.305
 57.012 84.621 57.293 84.621 c f
59.875 85.16 m 59.344 85.16 58.875 84.98 58.473 84.719 c 58.777 84.242 
l 59.031 84.414 59.383 84.621 59.77 84.621 c 60.164 84.621 60.641 84.406
 60.641 83.902 c 60.641 82.785 58.562 83.27 58.562 81.766 c 58.562 80.922
 59.254 80.426 60.074 80.426 c 60.578 80.426 61.047 80.578 61.379 80.805
 c 61.047 81.262 l 60.785 81.121 60.508 80.965 60.191 80.965 c 59.66 80.965
 59.281 81.172 59.281 81.715 c 59.281 82.676 61.359 82.281 61.359 83.801
 c 61.359 84.668 60.613 85.16 59.875 85.16 c f
63.688 84.621 m 64.129 84.621 64.469 84.316 64.75 83.965 c 64.785 82.695
 l 63.531 82.867 62.887 83.09 62.887 83.855 c 62.887 84.359 63.184 84.621
 63.688 84.621 c 65.738 84.621 m 65.891 84.621 66 84.551 66.117 84.469 c
 66.316 84.836 l 66.062 85.043 65.793 85.16 65.477 85.16 c 65.074 85.16 
64.848 84.801 64.812 84.414 c 64.461 84.836 64.039 85.16 63.461 85.16 c 
62.668 85.16 62.164 84.621 62.164 83.863 c 62.164 82.586 63.805 82.309 64.785
 82.262 c 64.793 82.074 64.805 81.883 64.805 81.695 c 64.805 81.309 64.598
 81.02 64.117 81.02 c 63.766 81.02 63.461 81.137 62.82 81.641 c 62.523 81.172
 l 63.418 80.598 63.723 80.426 64.359 80.426 c 65.117 80.426 65.488 80.867
 65.488 81.559 c 65.488 82.414 65.414 83.188 65.414 83.98 c 65.414 84.305
 65.461 84.621 65.738 84.621 c f
69.035 81.129 m 68.738 81.129 68.262 81.371 67.875 82.09 c 67.84 85.035
 l 67.117 85.035 l 67.156 80.551 l 67.895 80.551 l 67.883 81.426 l 67.902
 81.441 l 68.047 81.047 68.504 80.426 69.145 80.426 c 69.289 80.426 69.414
 80.445 69.531 80.488 c 69.316 81.172 l 69.242 81.145 69.133 81.129 69.035
 81.129 c f
70.121 86.621 m 70.816 86.621 71.023 86.457 71.211 86.035 c 71.699 84.965
 l 70.031 80.641 l 70.805 80.426 l 72.047 84.07 l 72.066 84.07 l 73.426 
80.426 l 74.137 80.641 l 72.141 85.594 l 71.633 86.828 71.371 87.16 70.41
 87.16 c 70.121 87.16 l h
70.121 86.621 m f
75.086 78.281 m 75.797 78.281 l 75.758 82.711 l 78.066 80.328 l 78.543 
80.797 l 76.652 82.613 l 78.594 84.773 l 78.027 85.234 l 75.758 82.73 l 
75.734 85.035 l 75.031 85.035 l h
75.086 78.281 m f
79.859 82.793 m 79.859 84.035 80.461 84.621 81.191 84.621 c 81.867 84.621
 82.594 84.035 82.594 82.793 c 82.594 81.551 81.992 80.965 81.262 80.965
 c 80.586 80.965 79.859 81.551 79.859 82.793 c 79.082 82.793 m 79.082 81.633
 79.848 80.426 81.273 80.426 c 82.586 80.426 83.367 81.316 83.367 82.793
 c 83.367 83.953 82.594 85.16 81.18 85.16 c 79.859 85.16 79.082 84.277 79.082
 82.793 c f
88.016 80.641 m 86.207 85.035 l 85.504 85.035 l 83.855 80.625 l 84.602 
80.426 l 85.871 84.172 l 85.891 84.172 l 87.293 80.426 l h
88.016 80.641 m f
90.023 84.621 m 90.465 84.621 90.809 84.316 91.086 83.965 c 91.121 82.695
 l 89.871 82.867 89.223 83.09 89.223 83.855 c 89.223 84.359 89.52 84.621
 90.023 84.621 c 92.078 84.621 m 92.23 84.621 92.336 84.551 92.453 84.469
 c 92.652 84.836 l 92.402 85.043 92.129 85.16 91.816 85.16 c 91.41 85.16
 91.184 84.801 91.148 84.414 c 90.797 84.836 90.375 85.16 89.797 85.16 c
 89.008 85.16 88.504 84.621 88.504 83.863 c 88.504 82.586 90.141 82.309 
91.121 82.262 c 91.129 82.074 91.141 81.883 91.141 81.695 c 91.141 81.309
 90.934 81.02 90.457 81.02 c 90.105 81.02 89.797 81.137 89.16 81.641 c 88.863
 81.172 l 89.754 80.598 90.059 80.426 90.699 80.426 c 91.457 80.426 91.824
 80.867 91.824 81.559 c 91.824 82.414 91.754 83.188 91.754 83.98 c 91.754
 84.305 91.797 84.621 92.078 84.621 c f
95.836 83.801 m 95.836 83.449 95.848 83.125 95.848 82.777 c 95.863 80.551
 l 96.586 80.551 l 96.566 82.57 l 96.566 82.965 96.559 83.359 96.559 83.801
 c 96.559 84.297 96.871 84.512 97.375 84.512 c 97.844 84.512 98.258 84.25
 98.719 83.684 c 98.754 80.551 l 99.473 80.551 l 99.438 85.035 l 98.719 
85.035 l 98.746 84.316 l 98.727 84.316 l 98.34 84.855 97.746 85.16 97.207
 85.16 c 96.172 85.16 95.836 84.629 95.836 83.801 c f
102.949 81.074 m 102.48 81.074 102.066 81.336 101.609 81.902 c 101.57 85.035
 l 100.852 85.035 l 100.887 80.551 l 101.609 80.551 l 101.582 81.27 l 101.598
 81.27 l 101.984 80.73 102.578 80.426 103.121 80.426 c 104.156 80.426 104.488
 80.957 104.488 81.785 c 104.488 82.137 104.48 82.461 104.48 82.812 c 104.461
 85.035 l 103.742 85.035 l 103.762 83.02 l 103.762 82.625 103.77 82.227 
103.77 81.785 c 103.77 81.289 103.453 81.074 102.949 81.074 c f
105.863 80.551 m 106.582 80.551 l 106.547 85.035 l 105.828 85.035 l h
105.828 78.805 m 106.602 78.805 l 106.602 79.617 l 105.828 79.617 l h
105.828 78.805 m f
111.605 80.641 m 109.797 85.035 l 109.094 85.035 l 107.449 80.625 l 108.195
 80.426 l 109.465 84.172 l 109.48 84.172 l 110.887 80.426 l h
111.605 80.641 m f
115.113 82.207 m 115.113 81.57 114.844 80.965 114.113 80.965 c 113.43 80.965
 113.016 81.598 112.891 82.207 c h
112.824 82.695 m 112.824 82.848 l 112.824 83.781 113.176 84.621 114.098
 84.621 c 114.609 84.621 114.988 84.324 115.375 83.973 c 115.727 84.359 
l 115.266 84.816 114.691 85.16 114.016 85.16 c 112.762 85.16 112.051 84.27
 112.051 82.793 c 112.051 81.57 112.906 80.426 114.105 80.426 c 115.312 
80.426 115.832 81.344 115.832 82.551 c 115.832 82.695 l h
112.824 82.695 m f
118.84 81.129 m 118.543 81.129 118.066 81.371 117.68 82.09 c 117.641 85.035
 l 116.922 85.035 l 116.957 80.551 l 117.695 80.551 l 117.688 81.426 l 117.703
 81.441 l 117.848 81.047 118.309 80.426 118.945 80.426 c 119.09 80.426 119.219
 80.445 119.336 80.488 c 119.117 81.172 l 119.047 81.145 118.938 81.129 
118.84 81.129 c f
123.148 85.035 m 119.898 85.035 l 119.746 84.656 l 122.266 81.199 l 119.961
 81.199 l 119.961 80.551 l 123.141 80.551 l 123.293 80.875 l 120.746 84.441
 l 123.148 84.441 l h
123.148 85.035 m f
124.199 80.551 m 124.922 80.551 l 124.887 85.035 l 124.164 85.035 l h
124.164 78.805 m 124.938 78.805 l 124.938 79.617 l 124.164 79.617 l h
124.164 78.805 m f
125.801 80.551 m 126.574 80.551 l 126.594 78.895 l 127.312 78.895 l 127.297
 80.551 l 128.52 80.551 l 128.52 81.094 l 127.285 81.094 l 127.27 82.93 
l 127.258 83.18 127.258 83.398 127.258 83.566 c 127.258 83.992 l 127.258
 84.359 127.359 84.566 127.676 84.566 c 127.918 84.566 128.223 84.414 128.395
 84.305 c 128.629 84.773 l 128.332 84.98 127.898 85.16 127.504 85.16 c 126.809
 85.16 126.539 84.738 126.539 84.02 c 126.539 83.496 l 126.539 83.297 126.539
 83.047 126.547 82.73 c 126.566 81.094 l 125.801 81.094 l h
125.801 80.551 m f
130.684 84.621 m 131.125 84.621 131.465 84.316 131.746 83.965 c 131.781
 82.695 l 130.531 82.867 129.883 83.09 129.883 83.855 c 129.883 84.359 130.18
 84.621 130.684 84.621 c 132.734 84.621 m 132.891 84.621 132.996 84.551 
133.113 84.469 c 133.312 84.836 l 133.059 85.043 132.789 85.16 132.477 85.16
 c 132.07 85.16 131.844 84.801 131.809 84.414 c 131.457 84.836 131.035 85.16
 130.457 85.16 c 129.668 85.16 129.164 84.621 129.164 83.863 c 129.164 82.586
 130.801 82.309 131.781 82.262 c 131.789 82.074 131.801 81.883 131.801 81.695
 c 131.801 81.309 131.594 81.02 131.113 81.02 c 130.766 81.02 130.457 81.137
 129.82 81.641 c 129.523 81.172 l 130.414 80.598 130.719 80.426 131.359 
80.426 c 132.113 80.426 132.484 80.867 132.484 81.559 c 132.484 82.414 132.414
 83.188 132.414 83.98 c 132.414 84.305 132.457 84.621 132.734 84.621 c f
32.816 0 m 32.816 83.84 l 1.199 83.84 l 1.199 0 l 0 0 l 0 85.039 l 34.016
 85.039 l 34.016 0 l h
32.816 0 m f
26.629 48.559 m 25.641 48.559 24.836 49.348 24.836 50.324 c 24.836 66.32
 l 24.836 67.77 24.301 69.078 23.379 70.133 c 23.379 50.297 l 23.379 49.441
 22.742 48.715 21.883 48.598 c 21.031 48.473 20.176 48.969 19.969 49.812
 c 17.035 61.695 17.008 61.789 17.008 61.789 c 17.008 61.789 16.988 61.695
 14.043 49.812 c 13.832 48.969 12.984 48.473 12.129 48.598 c 11.273 48.715
 10.637 49.441 10.637 50.297 c 10.637 70.133 l 9.715 69.078 9.172 67.77 
9.172 66.32 c 9.172 50.324 l 9.172 49.348 8.371 48.559 7.383 48.559 c 6.395
 48.559 5.668 49.348 5.668 50.324 c 5.668 66.32 l 5.668 71.945 10.672 75.879
 17.008 75.879 c 23.34 75.879 28.344 71.945 28.344 66.32 c 28.344 50.324
 l 28.344 49.348 27.617 48.559 26.629 48.559 c 13.965 72.297 m 13.965 62.188
 l 13.973 62.234 14.109 62.832 16.039 70.262 c 16.133 70.613 16.43 71 17.012
 71 c 17.617 71 17.879 70.66 17.988 70.262 c 18.578 67.969 20.047 62.219
 20.047 62.219 c 20.047 72.297 l 19.109 72.609 18.09 72.781 17.008 72.781
 c 15.926 72.781 14.902 72.609 13.965 72.297 c f
  Q
Q
Q Q
showpage
%%Trailer
end
%%EOF
