%!PS-Adobe-3.0 EPSF-3.0
%%Creator: cairo 1.16.0 (https://cairographics.org)
%%CreationDate: Mon Dec 16 01:49:06 2019
%%Pages: 1
%%DocumentData: Clean7Bit
%%LanguageLevel: 2
%%BoundingBox: 0 0 134 88
%%EndComments
%%BeginProlog
50 dict begin
/q { gsave } bind def
/Q { grestore } bind def
/cm { 6 array astore concat } bind def
/w { setlinewidth } bind def
/J { setlinecap } bind def
/j { setlinejoin } bind def
/M { setmiterlimit } bind def
/d { setdash } bind def
/m { moveto } bind def
/l { lineto } bind def
/c { curveto } bind def
/h { closepath } bind def
/re { exch dup neg 3 1 roll 5 3 roll moveto 0 rlineto
      0 exch rlineto 0 rlineto closepath } bind def
/S { stroke } bind def
/f { fill } bind def
/f* { eofill } bind def
/n { newpath } bind def
/W { clip } bind def
/W* { eoclip } bind def
/BT { } bind def
/ET { } bind def
/BDC { mark 3 1 roll /BDC pdfmark } bind def
/EMC { mark /EMC pdfmark } bind def
/cairo_store_point { /cairo_point_y exch def /cairo_point_x exch def } def
/Tj { show currentpoint cairo_store_point } bind def
/TJ {
  {
    dup
    type /stringtype eq
    { show } { -0.001 mul 0 cairo_font_matrix dtransform rmoveto } ifelse
  } forall
  currentpoint cairo_store_point
} bind def
/cairo_selectfont { cairo_font_matrix aload pop pop pop 0 0 6 array astore
    cairo_font exch selectfont cairo_point_x cairo_point_y moveto } bind def
/Tf { pop /cairo_font exch def /cairo_font_matrix where
      { pop cairo_selectfont } if } bind def
/Td { matrix translate cairo_font_matrix matrix concatmatrix dup
      /cairo_font_matrix exch def dup 4 get exch 5 get cairo_store_point
      /cairo_font where { pop cairo_selectfont } if } bind def
/Tm { 2 copy 8 2 roll 6 array astore /cairo_font_matrix exch def
      cairo_store_point /cairo_font where { pop cairo_selectfont } if } bind def
/g { setgray } bind def
/rg { setrgbcolor } bind def
/d1 { setcachedevice } bind def
/cairo_data_source {
  CairoDataIndex CairoData length lt
    { CairoData CairoDataIndex get /CairoDataIndex CairoDataIndex 1 add def }
    { () } ifelse
} def
/cairo_flush_ascii85_file { cairo_ascii85_file status { cairo_ascii85_file flushfile } if } def
/cairo_image { image cairo_flush_ascii85_file } def
/cairo_imagemask { imagemask cairo_flush_ascii85_file } def
%%EndProlog
%%BeginSetup
%%EndSetup
%%Page: 1 1
%%BeginPageSetup
%%PageBoundingBox: 0 0 134 88
%%EndPageSetup
q 0 0 134 88 rectclip
1 0 0 -1 0 88 cm q
q
0 0 134 88 re W n
  q
1 g
47.914 52.539 m 48.742 52.539 49.379 52.035 49.379 51.254 c 49.379 50.738
 49.09 49.984 47.973 49.984 c 47.16 49.984 l 47.133 52.539 l h
47.961 53.785 m 47.109 53.785 l 47.098 57.035 l 45.527 57.035 l 45.613 
48.734 l 47.949 48.734 l 50.121 48.734 50.984 49.73 50.984 51.266 c 50.984
 52.957 49.57 53.785 47.961 53.785 c f
54.648 52.469 m 55.09 52.469 56.012 52.273 56.012 51.184 c 56.012 50.379
 55.391 49.984 54.609 49.984 c 53.723 49.984 l 53.699 52.469 l h
54.156 53.711 m 53.676 53.711 l 53.664 57.035 l 52.09 57.035 l 52.176 48.738
 l 54.801 48.738 l 56.816 48.738 57.621 49.828 57.621 51.137 c 57.621 52.191
 56.984 52.945 56.012 53.293 c 58.375 56.391 l 57.008 57.203 l 54.707 54
 l 54.574 53.809 54.383 53.711 54.156 53.711 c f
63.125 46.266 m 64.742 46.266 l 63.062 47.945 l 62.07 47.945 l h
62.918 50.344 m 62.895 50.344 l 61.852 53.582 l 63.879 53.582 l h
60.473 57.203 m 59.047 56.773 l 62.238 48.738 l 63.652 48.738 l 66.613 
56.773 l 65.113 57.203 l 64.297 54.828 l 61.41 54.828 l h
60.473 57.203 m f
66.488 49.059 m 68.035 48.57 l 70.16 55.094 l 70.184 55.094 l 72.57 48.57
 l 74.059 49.059 l 70.891 57.035 l 69.453 57.035 l h
66.488 49.059 m f
75.195 49 m 76.621 48.566 l 80.496 54.926 l 80.52 54.926 l 80.426 48.734
 l 81.957 48.734 l 81.887 56.77 l 80.34 57.203 l 76.562 50.883 l 76.539 
50.906 l 76.656 57.035 l 75.121 57.035 l h
75.195 49 m f
83.926 48.738 m 85.457 48.738 l 85.387 57.035 l 83.852 57.035 l h
83.926 48.738 m f
91.324 55.883 m 92.395 55.883 92.91 55.633 93.41 55.344 c 94.023 56.402
 l 93.258 56.941 92.332 57.203 91.387 57.203 c 88.914 57.203 87.078 55.395
 87.078 52.91 c 87.078 50.355 88.867 48.57 91.324 48.57 c 92.32 48.57 93.27
 48.895 94.035 49.527 c 93.363 50.598 l 92.848 50.164 92.043 49.887 91.375
 49.887 c 89.754 49.887 88.688 51.172 88.688 52.836 c 88.688 54.422 89.777
 55.883 91.324 55.883 c f
95.246 48.738 m 96.781 48.738 l 96.758 52.609 l 96.816 52.609 l 100.211
 48.57 l 101.352 49.48 l 98.391 52.754 l 101.316 56.316 l 100.066 57.203
 l 96.781 53.031 l 96.758 53.031 l 96.723 57.035 l 95.188 57.035 l h
95.246 48.738 m f
106.137 46.266 m 107.754 46.266 l 106.074 47.945 l 105.078 47.945 l h
105.93 50.344 m 105.906 50.344 l 104.863 53.582 l 106.891 53.582 l h
103.484 57.203 m 102.059 56.773 l 105.246 48.738 l 106.664 48.738 l 109.625
 56.773 l 108.125 57.203 l 107.312 54.828 l 104.418 54.828 l h
103.484 57.203 m f
45.637 62.738 m 50.227 62.738 l 50.219 64.055 l 47.172 64.055 l 47.16 66.191
 l 50.18 66.191 l 50.168 67.508 l 47.133 67.508 l 47.121 71.035 l 45.551
 71.035 l h
45.637 62.738 m f
54.301 64.344 m 54.277 64.344 l 53.234 67.582 l 55.262 67.582 l h
51.855 71.203 m 50.43 70.773 l 53.617 62.738 l 55.035 62.738 l 57.996 70.773
 l 56.496 71.203 l 55.68 68.828 l 52.793 68.828 l h
51.855 71.203 m f
59.16 62.738 m 60.691 62.738 l 60.668 66.609 l 60.73 66.609 l 64.125 62.57
 l 65.262 63.48 l 62.301 66.754 l 65.227 70.316 l 63.98 71.203 l 60.691 
67.031 l 60.668 67.031 l 60.633 71.035 l 59.098 71.035 l h
59.16 62.738 m f
69.746 69.883 m 70.957 69.883 71.594 69.094 71.605 67.953 c 71.652 62.738
 l 73.188 62.738 l 73.141 68.035 l 73.105 70.074 71.703 71.203 69.723 71.203
 c 67.754 71.203 66.375 70.113 66.375 67.953 c 66.375 66.215 66.414 64.477
 66.426 62.738 c 67.961 62.738 l 67.945 64.512 67.91 66.262 67.91 68.035
 c 67.91 69.199 68.727 69.883 69.746 69.883 c f
79.887 71.035 m 75.102 71.035 l 75.172 62.734 l 76.707 62.734 l 76.637 
69.719 l 79.887 69.719 l h
79.887 71.035 m f
81.836 64.055 m 79.508 64.055 l 79.52 62.738 l 85.676 62.738 l 85.66 64.055
 l 83.371 64.055 l 83.312 71.035 l 81.777 71.035 l h
81.836 64.055 m f
89.133 64.344 m 89.105 64.344 l 88.062 67.582 l 90.09 67.582 l h
86.684 71.203 m 85.258 70.773 l 88.445 62.738 l 89.863 62.738 l 92.824 
70.773 l 91.324 71.203 l 90.512 68.828 l 87.621 68.828 l h
86.684 71.203 m f
46.32 78.805 m 47.121 78.805 l 49.004 84.062 l 51.027 78.805 l 51.867 78.805
 l 52.855 85.035 l 52.102 85.16 l 51.309 79.832 l 51.289 79.832 l 49.355
 85.035 l 48.617 85.035 l 46.809 79.832 l 46.789 79.832 l 45.934 85.16 l
 45.188 85.035 l h
46.32 78.805 m f
55.238 84.621 m 55.68 84.621 56.02 84.316 56.301 83.965 c 56.336 82.695
 l 55.086 82.867 54.438 83.09 54.438 83.855 c 54.438 84.359 54.734 84.621
 55.238 84.621 c 57.289 84.621 m 57.445 84.621 57.551 84.551 57.668 84.469
 c 57.867 84.84 l 57.613 85.047 57.344 85.16 57.031 85.16 c 56.625 85.16
 56.398 84.801 56.363 84.414 c 56.012 84.84 55.59 85.16 55.012 85.16 c 54.219
 85.16 53.715 84.621 53.715 83.863 c 53.715 82.586 55.355 82.309 56.336 
82.262 c 56.344 82.074 56.355 81.887 56.355 81.695 c 56.355 81.309 56.148
 81.02 55.668 81.02 c 55.32 81.02 55.012 81.137 54.375 81.641 c 54.078 81.176
 l 54.969 80.598 55.273 80.426 55.914 80.426 c 56.668 80.426 57.039 80.867
 57.039 81.559 c 57.039 82.418 56.965 83.188 56.965 83.98 c 56.965 84.309
 57.012 84.621 57.289 84.621 c f
59.875 85.164 m 59.344 85.164 58.875 84.98 58.469 84.723 c 58.777 84.246
 l 59.027 84.414 59.379 84.621 59.766 84.621 c 60.164 84.621 60.641 84.406
 60.641 83.902 c 60.641 82.785 58.562 83.27 58.562 81.766 c 58.562 80.922
 59.254 80.426 60.074 80.426 c 60.578 80.426 61.043 80.578 61.379 80.805
 c 61.043 81.266 l 60.785 81.121 60.504 80.969 60.191 80.969 c 59.66 80.969
 59.281 81.176 59.281 81.715 c 59.281 82.676 61.359 82.281 61.359 83.805
 c 61.359 84.668 60.613 85.164 59.875 85.164 c f
63.684 84.621 m 64.125 84.621 64.469 84.316 64.746 83.965 c 64.785 82.695
 l 63.531 82.867 62.883 83.09 62.883 83.855 c 62.883 84.359 63.18 84.621
 63.684 84.621 c 65.738 84.621 m 65.891 84.621 66 84.551 66.117 84.469 c
 66.312 84.84 l 66.062 85.047 65.793 85.16 65.477 85.16 c 65.07 85.16 64.848
 84.801 64.809 84.414 c 64.457 84.84 64.035 85.16 63.461 85.16 c 62.668 
85.16 62.164 84.621 62.164 83.863 c 62.164 82.586 63.801 82.309 64.785 82.262
 c 64.793 82.074 64.801 81.887 64.801 81.695 c 64.801 81.309 64.594 81.02
 64.117 81.02 c 63.766 81.02 63.461 81.137 62.82 81.641 c 62.523 81.176 
l 63.414 80.598 63.719 80.426 64.359 80.426 c 65.117 80.426 65.484 80.867
 65.484 81.559 c 65.484 82.418 65.414 83.188 65.414 83.98 c 65.414 84.309
 65.457 84.621 65.738 84.621 c f
69.035 81.129 m 68.738 81.129 68.262 81.371 67.875 82.094 c 67.836 85.035
 l 67.117 85.035 l 67.152 80.555 l 67.891 80.555 l 67.883 81.426 l 67.898
 81.441 l 68.043 81.047 68.504 80.426 69.141 80.426 c 69.285 80.426 69.414
 80.445 69.531 80.488 c 69.312 81.176 l 69.242 81.148 69.133 81.129 69.035
 81.129 c f
70.121 86.621 m 70.812 86.621 71.02 86.457 71.211 86.035 c 71.695 84.965
 l 70.031 80.641 l 70.805 80.426 l 72.047 84.07 l 72.062 84.07 l 73.426 
80.426 l 74.137 80.641 l 72.137 85.594 l 71.633 86.828 71.371 87.16 70.406
 87.16 c 70.121 87.16 l h
70.121 86.621 m f
75.082 78.281 m 75.793 78.281 l 75.758 82.715 l 78.062 80.328 l 78.539 
80.797 l 76.648 82.613 l 78.594 84.773 l 78.027 85.234 l 75.758 82.73 l 
75.73 85.035 l 75.027 85.035 l h
75.082 78.281 m f
79.855 82.793 m 79.855 84.035 80.461 84.621 81.188 84.621 c 81.863 84.621
 82.594 84.035 82.594 82.793 c 82.594 81.551 81.988 80.965 81.262 80.965
 c 80.586 80.965 79.855 81.551 79.855 82.793 c 79.082 82.793 m 79.082 81.633
 79.848 80.426 81.27 80.426 c 82.586 80.426 83.367 81.316 83.367 82.793 
c 83.367 83.953 82.594 85.16 81.18 85.16 c 79.855 85.16 79.082 84.277 79.082
 82.793 c f
88.012 80.645 m 86.203 85.035 l 85.5 85.035 l 83.855 80.625 l 84.602 80.426
 l 85.871 84.172 l 85.887 84.172 l 87.293 80.426 l h
88.012 80.645 m f
90.023 84.621 m 90.465 84.621 90.805 84.316 91.086 83.965 c 91.121 82.695
 l 89.867 82.867 89.223 83.09 89.223 83.855 c 89.223 84.359 89.52 84.621
 90.023 84.621 c 92.074 84.621 m 92.227 84.621 92.336 84.551 92.453 84.469
 c 92.652 84.84 l 92.398 85.047 92.129 85.16 91.812 85.16 c 91.41 85.16 
91.184 84.801 91.148 84.414 c 90.797 84.84 90.375 85.16 89.797 85.16 c 89.004
 85.16 88.5 84.621 88.5 83.863 c 88.5 82.586 90.141 82.309 91.121 82.262
 c 91.129 82.074 91.141 81.887 91.141 81.695 c 91.141 81.309 90.934 81.02
 90.453 81.02 c 90.102 81.02 89.797 81.137 89.156 81.641 c 88.859 81.176
 l 89.754 80.598 90.059 80.426 90.695 80.426 c 91.453 80.426 91.824 80.867
 91.824 81.559 c 91.824 82.418 91.75 83.188 91.75 83.98 c 91.75 84.309 91.797
 84.621 92.074 84.621 c f
95.836 83.805 m 95.836 83.449 95.844 83.125 95.844 82.777 c 95.863 80.555
 l 96.582 80.555 l 96.566 82.57 l 96.566 82.965 96.555 83.363 96.555 83.805
 c 96.555 84.297 96.871 84.516 97.375 84.516 c 97.844 84.516 98.258 84.25
 98.719 83.688 c 98.754 80.555 l 99.473 80.555 l 99.438 85.035 l 98.719 
85.035 l 98.742 84.316 l 98.727 84.316 l 98.34 84.855 97.742 85.16 97.203
 85.16 c 96.168 85.16 95.836 84.629 95.836 83.805 c f
102.949 81.074 m 102.48 81.074 102.066 81.336 101.605 81.902 c 101.57 85.035
 l 100.848 85.035 l 100.887 80.555 l 101.605 80.555 l 101.578 81.273 l 101.598
 81.273 l 101.984 80.73 102.578 80.426 103.117 80.426 c 104.156 80.426 104.488
 80.957 104.488 81.785 c 104.488 82.137 104.477 82.461 104.477 82.812 c 
104.461 85.035 l 103.738 85.035 l 103.758 83.02 l 103.758 82.625 103.766
 82.227 103.766 81.785 c 103.766 81.289 103.453 81.074 102.949 81.074 c f
105.863 80.555 m 106.582 80.555 l 106.547 85.035 l 105.824 85.035 l h
105.824 78.805 m 106.598 78.805 l 106.598 79.617 l 105.824 79.617 l h
105.824 78.805 m f
111.605 80.645 m 109.797 85.035 l 109.094 85.035 l 107.445 80.625 l 108.195
 80.426 l 109.461 84.172 l 109.48 84.172 l 110.887 80.426 l h
111.605 80.645 m f
115.113 82.211 m 115.113 81.57 114.844 80.965 114.113 80.965 c 113.43 80.965
 113.016 81.598 112.887 82.211 c h
112.824 82.695 m 112.824 82.848 l 112.824 83.785 113.176 84.621 114.094
 84.621 c 114.609 84.621 114.984 84.324 115.371 83.973 c 115.723 84.359 
l 115.266 84.82 114.688 85.16 114.016 85.16 c 112.762 85.16 112.051 84.27
 112.051 82.793 c 112.051 81.57 112.906 80.426 114.105 80.426 c 115.309 
80.426 115.832 81.344 115.832 82.551 c 115.832 82.695 l h
112.824 82.695 m f
118.836 81.129 m 118.539 81.129 118.062 81.371 117.676 82.094 c 117.641
 85.035 l 116.922 85.035 l 116.957 80.555 l 117.695 80.555 l 117.684 81.426
 l 117.703 81.441 l 117.848 81.047 118.305 80.426 118.945 80.426 c 119.09
 80.426 119.215 80.445 119.332 80.488 c 119.117 81.176 l 119.047 81.148 
118.938 81.129 118.836 81.129 c f
123.148 85.035 m 119.898 85.035 l 119.746 84.656 l 122.266 81.199 l 119.961
 81.199 l 119.961 80.555 l 123.141 80.555 l 123.293 80.879 l 120.742 84.441
 l 123.148 84.441 l h
123.148 85.035 m f
124.199 80.555 m 124.922 80.555 l 124.887 85.035 l 124.164 85.035 l h
124.164 78.805 m 124.938 78.805 l 124.938 79.617 l 124.164 79.617 l h
124.164 78.805 m f
125.801 80.555 m 126.574 80.555 l 126.594 78.898 l 127.312 78.898 l 127.293
 80.555 l 128.52 80.555 l 128.52 81.094 l 127.285 81.094 l 127.266 82.93
 l 127.258 83.184 127.258 83.398 127.258 83.57 c 127.258 83.992 l 127.258
 84.359 127.355 84.566 127.672 84.566 c 127.914 84.566 128.223 84.414 128.395
 84.309 c 128.625 84.773 l 128.328 84.98 127.898 85.16 127.5 85.16 c 126.809
 85.16 126.539 84.738 126.539 84.02 c 126.539 83.496 l 126.539 83.297 126.539
 83.047 126.547 82.73 c 126.566 81.094 l 125.801 81.094 l h
125.801 80.555 m f
130.68 84.621 m 131.121 84.621 131.465 84.316 131.742 83.965 c 131.781 
82.695 l 130.527 82.867 129.879 83.09 129.879 83.855 c 129.879 84.359 130.176
 84.621 130.68 84.621 c 132.734 84.621 m 132.887 84.621 132.996 84.551 133.113
 84.469 c 133.312 84.84 l 133.059 85.047 132.789 85.16 132.473 85.16 c 132.07
 85.16 131.844 84.801 131.805 84.414 c 131.457 84.84 131.035 85.16 130.457
 85.16 c 129.664 85.16 129.16 84.621 129.16 83.863 c 129.16 82.586 130.797
 82.309 131.781 82.262 c 131.789 82.074 131.797 81.887 131.797 81.695 c 
131.797 81.309 131.59 81.02 131.113 81.02 c 130.762 81.02 130.457 81.137
 129.816 81.641 c 129.52 81.176 l 130.41 80.598 130.719 80.426 131.355 80.426
 c 132.113 80.426 132.484 80.867 132.484 81.559 c 132.484 82.418 132.41 
83.188 132.41 83.98 c 132.41 84.309 132.457 84.621 132.734 84.621 c f
32.816 0 m 32.816 83.84 l 1.199 83.84 l 1.199 0 l 0 0 l 0 85.039 l 34.016
 85.039 l 34.016 0 l h
32.816 0 m f
26.629 48.559 m 25.641 48.559 24.84 49.348 24.84 50.324 c 24.84 66.32 l
 24.84 67.77 24.301 69.078 23.379 70.133 c 23.379 50.297 l 23.379 49.441
 22.742 48.715 21.883 48.598 c 21.031 48.473 20.176 48.969 19.969 49.812
 c 17.035 61.695 17.008 61.789 17.008 61.789 c 17.008 61.789 16.988 61.695
 14.043 49.812 c 13.832 48.969 12.984 48.473 12.129 48.598 c 11.27 48.715
 10.637 49.441 10.637 50.297 c 10.637 70.133 l 9.715 69.078 9.172 67.77 
9.172 66.32 c 9.172 50.324 l 9.172 49.348 8.371 48.559 7.383 48.559 c 6.395
 48.559 5.672 49.348 5.672 50.324 c 5.672 66.32 l 5.672 71.945 10.672 75.879
 17.008 75.879 c 23.34 75.879 28.344 71.945 28.344 66.32 c 28.344 50.324
 l 28.344 49.348 27.617 48.559 26.629 48.559 c 13.965 72.297 m 13.965 62.188
 l 13.973 62.234 14.109 62.832 16.039 70.262 c 16.133 70.613 16.43 71 17.012
 71 c 17.617 71 17.879 70.66 17.988 70.262 c 18.578 67.969 20.047 62.219
 20.047 62.219 c 20.047 72.297 l 19.109 72.609 18.09 72.781 17.008 72.781
 c 15.926 72.781 14.898 72.609 13.965 72.297 c f
  Q
Q
Q Q
showpage
%%Trailer
end
%%EOF
