%!PS-Adobe-3.0 EPSF-3.0
%%Creator: cairo 1.16.0 (https://cairographics.org)
%%CreationDate: Mon Dec 16 01:49:04 2019
%%Pages: 1
%%DocumentData: Clean7Bit
%%LanguageLevel: 2
%%BoundingBox: 0 0 188 88
%%EndComments
%%BeginProlog
50 dict begin
/q { gsave } bind def
/Q { grestore } bind def
/cm { 6 array astore concat } bind def
/w { setlinewidth } bind def
/J { setlinecap } bind def
/j { setlinejoin } bind def
/M { setmiterlimit } bind def
/d { setdash } bind def
/m { moveto } bind def
/l { lineto } bind def
/c { curveto } bind def
/h { closepath } bind def
/re { exch dup neg 3 1 roll 5 3 roll moveto 0 rlineto
      0 exch rlineto 0 rlineto closepath } bind def
/S { stroke } bind def
/f { fill } bind def
/f* { eofill } bind def
/n { newpath } bind def
/W { clip } bind def
/W* { eoclip } bind def
/BT { } bind def
/ET { } bind def
/BDC { mark 3 1 roll /BDC pdfmark } bind def
/EMC { mark /EMC pdfmark } bind def
/cairo_store_point { /cairo_point_y exch def /cairo_point_x exch def } def
/Tj { show currentpoint cairo_store_point } bind def
/TJ {
  {
    dup
    type /stringtype eq
    { show } { -0.001 mul 0 cairo_font_matrix dtransform rmoveto } ifelse
  } forall
  currentpoint cairo_store_point
} bind def
/cairo_selectfont { cairo_font_matrix aload pop pop pop 0 0 6 array astore
    cairo_font exch selectfont cairo_point_x cairo_point_y moveto } bind def
/Tf { pop /cairo_font exch def /cairo_font_matrix where
      { pop cairo_selectfont } if } bind def
/Td { matrix translate cairo_font_matrix matrix concatmatrix dup
      /cairo_font_matrix exch def dup 4 get exch 5 get cairo_store_point
      /cairo_font where { pop cairo_selectfont } if } bind def
/Tm { 2 copy 8 2 roll 6 array astore /cairo_font_matrix exch def
      cairo_store_point /cairo_font where { pop cairo_selectfont } if } bind def
/g { setgray } bind def
/rg { setrgbcolor } bind def
/d1 { setcachedevice } bind def
/cairo_data_source {
  CairoDataIndex CairoData length lt
    { CairoData CairoDataIndex get /CairoDataIndex CairoDataIndex 1 add def }
    { () } ifelse
} def
/cairo_flush_ascii85_file { cairo_ascii85_file status { cairo_ascii85_file flushfile } if } def
/cairo_image { image cairo_flush_ascii85_file } def
/cairo_imagemask { imagemask cairo_flush_ascii85_file } def
%%EndProlog
%%BeginSetup
%%EndSetup
%%Page: 1 1
%%BeginPageSetup
%%PageBoundingBox: 0 0 188 88
%%EndPageSetup
q 0 0 188 88 rectclip
1 0 0 -1 0 88 cm q
1 g
45.637 48.738 m 50.23 48.738 l 50.219 50.055 l 47.172 50.055 l 47.16 52.191
 l 50.184 52.191 l 50.172 53.512 l 47.137 53.512 l 47.125 57.039 l 45.555
 57.039 l h
45.637 48.738 m f
54.305 50.344 m 54.281 50.344 l 53.238 53.582 l 55.266 53.582 l h
51.859 57.203 m 50.43 56.773 l 53.621 48.738 l 55.035 48.738 l 58 56.773
 l 56.5 57.203 l 55.684 54.832 l 52.793 54.832 l h
51.859 57.203 m f
q
0 0 188 88 re W n
  q
1 g
62.867 55.887 m 63.934 55.887 64.449 55.633 64.953 55.344 c 65.562 56.402
 l 64.797 56.941 63.875 57.203 62.926 57.203 c 60.457 57.203 58.621 55.395
 58.621 52.91 c 58.621 50.355 60.406 48.57 62.867 48.57 c 63.859 48.57 64.809
 48.895 65.578 49.531 c 64.906 50.598 l 64.391 50.164 63.586 49.891 62.914
 49.891 c 61.293 49.891 60.227 51.172 60.227 52.84 c 60.227 54.422 61.32
 55.887 62.867 55.887 c f
70.023 55.887 m 71.234 55.887 71.871 55.094 71.883 53.953 c 71.93 48.738
 l 73.465 48.738 l 73.418 54.039 l 73.383 56.078 71.98 57.203 70 57.203 
c 68.035 57.203 66.652 56.113 66.652 53.953 c 66.652 52.215 66.691 50.477
 66.703 48.738 c 68.238 48.738 l 68.227 50.512 68.188 52.266 68.188 54.039
 c 68.188 55.203 69.004 55.887 70.023 55.887 c f
80.164 57.035 m 75.379 57.035 l 75.449 48.738 l 76.984 48.738 l 76.914 
55.719 l 80.164 55.719 l h
80.164 57.035 m f
82.113 50.055 m 79.789 50.055 l 79.801 48.738 l 85.953 48.738 l 85.941 
50.055 l 83.648 50.055 l 83.59 57.035 l 82.055 57.035 l h
82.113 50.055 m f
89.391 53.594 m 86.645 49.363 l 88.047 48.57 l 90.219 52.117 l 92.473 48.57
 l 93.828 49.352 l 91 53.547 l 90.953 57.035 l 89.344 57.035 l h
89.391 53.594 m f
99.387 52.887 m 99.387 54.699 100.516 55.957 102.23 55.957 c 103.945 55.957
 105.074 54.531 105.074 52.887 c 105.074 51.125 103.945 49.816 102.23 49.816
 c 100.84 49.816 99.387 50.969 99.387 52.887 c 97.781 52.887 m 97.781 50.465
 99.758 48.57 102.23 48.57 c 104.918 48.57 106.68 50.465 106.68 52.887 c
 106.68 55.312 104.75 57.203 102.23 57.203 c 99.711 57.203 97.781 55.418
 97.781 52.887 c f
108.25 48.738 m 112.844 48.738 l 112.832 50.055 l 109.785 50.055 l 109.773
 52.191 l 112.793 52.191 l 112.781 53.512 l 109.75 53.512 l 109.734 57.039
 l 108.164 57.039 l h
108.25 48.738 m f
122.023 57.035 m 117.504 57.035 l 117.586 48.738 l 122.023 48.738 l 122.023
 50.059 l 119.121 50.059 l 119.098 52.191 l 121.977 52.191 l 121.977 53.438
 l 119.086 53.438 l 119.07 55.719 l 122.023 55.719 l h
122.023 57.035 m f
127.613 55.887 m 128.68 55.887 129.195 55.633 129.699 55.344 c 130.309 
56.402 l 129.543 56.941 128.617 57.203 127.672 57.203 c 125.199 57.203 123.367
 55.395 123.367 52.91 c 123.367 50.355 125.152 48.57 127.613 48.57 c 128.605
 48.57 129.555 48.895 130.32 49.531 c 129.648 50.598 l 129.133 50.164 128.332
 49.891 127.66 49.891 c 126.039 49.891 124.973 51.172 124.973 52.84 c 124.973
 54.422 126.062 55.887 127.613 55.887 c f
132.465 52.887 m 132.465 54.699 133.594 55.957 135.309 55.957 c 137.023
 55.957 138.148 54.531 138.148 52.887 c 138.148 51.125 137.023 49.816 135.309
 49.816 c 133.914 49.816 132.465 50.969 132.465 52.887 c 130.855 52.887 
m 130.855 50.465 132.836 48.57 135.309 48.57 c 137.992 48.57 139.758 50.465
 139.758 52.887 c 139.758 55.312 137.824 57.203 135.309 57.203 c 132.789
 57.203 130.855 55.418 130.855 52.887 c f
141.312 49.004 m 142.742 48.57 l 146.613 54.926 l 146.641 54.926 l 146.543
 48.738 l 148.078 48.738 l 148.008 56.773 l 146.461 57.203 l 142.68 50.887
 l 142.656 50.906 l 142.777 57.035 l 141.242 57.035 l h
141.312 49.004 m f
151.164 52.887 m 151.164 54.699 152.293 55.957 154.008 55.957 c 155.723
 55.957 156.848 54.531 156.848 52.887 c 156.848 51.125 155.723 49.816 154.008
 49.816 c 152.617 49.816 151.164 50.969 151.164 52.887 c 149.559 52.887 
m 149.559 50.465 151.535 48.57 154.008 48.57 c 156.691 48.57 158.457 50.465
 158.457 52.887 c 158.457 55.312 156.523 57.203 154.008 57.203 c 151.488
 57.203 149.559 55.418 149.559 52.887 c f
160.871 48.738 m 162.441 48.738 l 164.457 55.371 l 164.48 55.371 l 166.785
 48.738 l 168.355 48.738 l 169.578 57.039 l 168.02 57.207 l 167.398 50.656
 l 167.371 50.656 l 165.262 57.039 l 163.68 57.039 l 161.773 50.656 l 161.746
 50.656 l 160.883 57.207 l 159.41 57.039 l h
160.871 48.738 m f
171.164 48.738 m 172.699 48.738 l 172.625 57.039 l 171.09 57.039 l h
171.164 48.738 m f
178.562 55.887 m 179.633 55.887 180.148 55.633 180.652 55.344 c 181.262
 56.402 l 180.496 56.941 179.57 57.203 178.625 57.203 c 176.152 57.203 174.32
 55.395 174.32 52.91 c 174.32 50.355 176.105 48.57 178.562 48.57 c 179.559
 48.57 180.508 48.895 181.273 49.531 c 180.602 50.598 l 180.086 50.164 179.285
 49.891 178.613 49.891 c 176.992 49.891 175.926 51.172 175.926 52.84 c 175.926
 54.422 177.016 55.887 178.562 55.887 c f
184.379 57.207 m 183.566 57.207 182.832 56.988 182.125 56.57 c 182.723 
55.395 l 183.109 55.672 183.719 55.957 184.188 55.957 c 185.051 55.957 185.52
 55.43 185.52 54.758 c 185.52 53.113 182.113 53.801 182.113 50.98 c 182.113
 49.625 183.215 48.57 184.883 48.57 c 185.711 48.57 186.504 48.848 187.223
 49.266 c 186.574 50.367 l 186.059 50.094 185.613 49.816 185.004 49.816 
c 184.297 49.816 183.648 50.199 183.648 50.934 c 183.648 52.551 187.125 
52.047 187.125 54.699 c 187.125 56.113 185.973 57.207 184.379 57.207 c f
48.559 64.344 m 48.535 64.344 l 47.492 67.582 l 49.52 67.582 l h
46.113 71.203 m 44.688 70.773 l 47.875 62.738 l 49.293 62.738 l 52.254 
70.773 l 50.754 71.203 l 49.938 68.832 l 47.047 68.832 l h
46.113 71.203 m f
53.426 63.004 m 54.855 62.57 l 58.73 68.926 l 58.754 68.926 l 58.656 62.738
 l 60.191 62.738 l 60.121 70.773 l 58.574 71.203 l 54.793 64.887 l 54.77
 64.906 l 54.891 71.035 l 53.355 71.035 l h
53.426 63.004 m f
64.652 69.719 m 66.449 69.719 67.66 68.688 67.66 66.828 c 67.66 65.242 
66.594 64.059 64.965 64.059 c 63.703 64.059 l 63.656 69.719 l h
64.965 71.035 m 62.109 71.035 l 62.18 62.738 l 64.914 62.738 l 67.543 62.738
 69.27 64.379 69.27 66.84 c 69.27 69.371 67.172 71.035 64.965 71.035 c f
77.285 64.344 m 77.262 64.344 l 76.219 67.582 l 78.246 67.582 l h
74.84 71.203 m 73.414 70.773 l 76.602 62.738 l 78.02 62.738 l 80.98 70.773
 l 79.48 71.203 l 78.664 68.832 l 75.773 68.832 l h
74.84 71.203 m f
84.625 69.719 m 86.422 69.719 87.637 68.688 87.637 66.828 c 87.637 65.242
 86.566 64.059 84.938 64.059 c 83.676 64.059 l 83.629 69.719 l h
84.938 71.035 m 82.082 71.035 l 82.152 62.738 l 84.887 62.738 l 87.516 
62.738 89.242 64.379 89.242 66.84 c 89.242 69.371 87.145 71.035 84.938 71.035
 c f
91.676 62.738 m 93.246 62.738 l 95.262 69.371 l 95.285 69.371 l 97.59 62.738
 l 99.16 62.738 l 100.383 71.039 l 98.824 71.207 l 98.199 64.656 l 98.176
 64.656 l 96.066 71.039 l 94.48 71.039 l 92.574 64.656 l 92.551 64.656 l
 91.688 71.207 l 90.211 71.039 l h
91.676 62.738 m f
101.965 62.738 m 103.5 62.738 l 103.43 71.039 l 101.895 71.039 l h
101.965 62.738 m f
105.445 63.004 m 106.871 62.57 l 110.746 68.926 l 110.77 68.926 l 110.676
 62.738 l 112.207 62.738 l 112.137 70.773 l 110.59 71.203 l 106.812 64.887
 l 106.789 64.906 l 106.906 71.035 l 105.371 71.035 l h
105.445 63.004 m f
114.172 62.738 m 115.707 62.738 l 115.637 71.039 l 114.102 71.039 l h
114.172 62.738 m f
119.41 71.207 m 118.594 71.207 117.863 70.988 117.156 70.57 c 117.758 69.395
 l 118.141 69.672 118.75 69.957 119.219 69.957 c 120.082 69.957 120.551 
69.43 120.551 68.758 c 120.551 67.113 117.145 67.801 117.145 64.98 c 117.145
 63.625 118.246 62.57 119.914 62.57 c 120.742 62.57 121.535 62.848 122.254
 63.266 c 121.605 64.367 l 121.09 64.094 120.645 63.816 120.035 63.816 c
 119.328 63.816 118.68 64.199 118.68 64.934 c 118.68 66.551 122.156 66.047
 122.156 68.699 c 122.156 70.113 121.008 71.207 119.41 71.207 c f
125.457 64.055 m 123.133 64.055 l 123.145 62.738 l 129.297 62.738 l 129.285
 64.055 l 126.992 64.055 l 126.934 71.035 l 125.398 71.035 l h
125.457 64.055 m f
132.926 66.469 m 133.371 66.469 134.293 66.277 134.293 65.184 c 134.293
 64.379 133.672 63.984 132.891 63.984 c 132.004 63.984 l 131.98 66.469 l
 h
132.438 67.715 m 131.957 67.715 l 131.945 71.035 l 130.371 71.035 l 130.457
 62.738 l 133.082 62.738 l 135.098 62.738 135.902 63.828 135.902 65.137 
c 135.902 66.191 135.266 66.945 134.293 67.297 c 136.656 70.391 l 135.289
 71.203 l 132.988 68.004 l 132.855 67.812 132.664 67.715 132.438 67.715 
c f
141.199 64.344 m 141.18 64.344 l 140.133 67.582 l 142.16 67.582 l h
138.754 71.203 m 137.328 70.773 l 140.516 62.738 l 141.934 62.738 l 144.895
 70.773 l 143.395 71.203 l 142.582 68.832 l 139.691 68.832 l h
138.754 71.203 m f
146.875 64.055 m 144.547 64.055 l 144.562 62.738 l 150.715 62.738 l 150.699
 64.055 l 148.41 64.055 l 148.352 71.035 l 146.816 71.035 l h
146.875 64.055 m f
151.844 62.738 m 153.379 62.738 l 153.309 71.039 l 151.773 71.039 l h
151.844 62.738 m f
156.422 66.887 m 156.422 68.699 157.547 69.957 159.262 69.957 c 160.977
 69.957 162.105 68.531 162.105 66.887 c 162.105 65.125 160.977 63.816 159.262
 63.816 c 157.871 63.816 156.422 64.969 156.422 66.887 c 154.812 66.887 
m 154.812 64.465 156.793 62.57 159.262 62.57 c 161.949 62.57 163.711 64.465
 163.711 66.887 c 163.711 69.312 161.781 71.203 159.262 71.203 c 156.742
 71.203 154.812 69.418 154.812 66.887 c f
165.27 63.004 m 166.695 62.57 l 170.57 68.926 l 170.594 68.926 l 170.5 
62.738 l 172.035 62.738 l 171.961 70.773 l 170.414 71.203 l 166.637 64.887
 l 166.613 64.906 l 166.734 71.035 l 165.199 71.035 l h
165.27 63.004 m f
46.324 78.805 m 47.125 78.805 l 49.008 84.066 l 51.031 78.805 l 51.867 
78.805 l 52.859 85.035 l 52.102 85.164 l 51.312 79.832 l 51.293 79.832 l
 49.355 85.035 l 48.617 85.035 l 46.809 79.832 l 46.793 79.832 l 45.938 
85.164 l 45.188 85.035 l h
46.324 78.805 m f
55.238 84.621 m 55.68 84.621 56.023 84.316 56.301 83.965 c 56.34 82.695
 l 55.086 82.867 54.438 83.094 54.438 83.859 c 54.438 84.363 54.734 84.621
 55.238 84.621 c 57.293 84.621 m 57.445 84.621 57.555 84.551 57.672 84.469
 c 57.867 84.84 l 57.617 85.047 57.348 85.164 57.031 85.164 c 56.625 85.164
 56.402 84.805 56.363 84.414 c 56.016 84.84 55.594 85.164 55.016 85.164 
c 54.223 85.164 53.719 84.621 53.719 83.867 c 53.719 82.59 55.355 82.309
 56.34 82.266 c 56.348 82.074 56.355 81.887 56.355 81.695 c 56.355 81.309
 56.148 81.023 55.672 81.023 c 55.32 81.023 55.016 81.141 54.375 81.645 
c 54.078 81.176 l 54.969 80.598 55.277 80.43 55.914 80.43 c 56.672 80.43
 57.039 80.867 57.039 81.562 c 57.039 82.418 56.969 83.191 56.969 83.984
 c 56.969 84.309 57.012 84.621 57.293 84.621 c f
59.875 85.164 m 59.344 85.164 58.879 84.984 58.473 84.723 c 58.777 84.246
 l 59.031 84.418 59.383 84.625 59.77 84.625 c 60.164 84.625 60.645 84.406
 60.645 83.902 c 60.645 82.785 58.562 83.273 58.562 81.77 c 58.562 80.922
 59.254 80.43 60.074 80.43 c 60.578 80.43 61.047 80.582 61.379 80.805 c 
61.047 81.266 l 60.785 81.121 60.508 80.969 60.191 80.969 c 59.66 80.969
 59.281 81.176 59.281 81.715 c 59.281 82.68 61.363 82.281 61.363 83.805 
c 61.363 84.668 60.613 85.164 59.875 85.164 c f
63.688 84.621 m 64.129 84.621 64.469 84.316 64.75 83.965 c 64.785 82.695
 l 63.535 82.867 62.887 83.094 62.887 83.859 c 62.887 84.363 63.184 84.621
 63.688 84.621 c 65.738 84.621 m 65.895 84.621 66 84.551 66.117 84.469 c
 66.316 84.84 l 66.062 85.047 65.793 85.164 65.48 85.164 c 65.074 85.164
 64.848 84.805 64.812 84.414 c 64.461 84.84 64.039 85.164 63.461 85.164 
c 62.668 85.164 62.168 84.621 62.168 83.867 c 62.168 82.59 63.805 82.309
 64.785 82.266 c 64.793 82.074 64.805 81.887 64.805 81.695 c 64.805 81.309
 64.598 81.023 64.117 81.023 c 63.77 81.023 63.461 81.141 62.824 81.645 
c 62.527 81.176 l 63.418 80.598 63.723 80.43 64.363 80.43 c 65.117 80.43
 65.488 80.867 65.488 81.562 c 65.488 82.418 65.418 83.191 65.418 83.984
 c 65.418 84.309 65.461 84.621 65.738 84.621 c f
69.035 81.129 m 68.738 81.129 68.262 81.371 67.875 82.094 c 67.84 85.035
 l 67.117 85.035 l 67.156 80.555 l 67.895 80.555 l 67.883 81.426 l 67.902
 81.445 l 68.047 81.051 68.504 80.43 69.145 80.43 c 69.289 80.43 69.414 
80.445 69.531 80.492 c 69.316 81.176 l 69.242 81.148 69.137 81.129 69.035
 81.129 c f
70.121 86.621 m 70.816 86.621 71.023 86.461 71.211 86.035 c 71.699 84.965
 l 70.031 80.645 l 70.805 80.43 l 72.051 84.074 l 72.066 84.074 l 73.426
 80.43 l 74.137 80.645 l 72.141 85.598 l 71.637 86.828 71.375 87.16 70.41
 87.16 c 70.121 87.16 l h
70.121 86.621 m f
75.086 78.285 m 75.797 78.285 l 75.762 82.715 l 78.066 80.328 l 78.543 
80.797 l 76.652 82.613 l 78.598 84.777 l 78.031 85.234 l 75.762 82.73 l 
75.734 85.039 l 75.031 85.039 l h
75.086 78.285 m f
84.609 84.516 m 85.508 84.516 86.301 84.055 86.301 82.645 c 86.328 78.805
 l 87.102 78.805 l 87.074 82.688 l 87.047 84.688 85.77 85.164 84.555 85.164
 c 83.211 85.164 82.133 84.57 82.133 82.668 c 82.133 82.164 82.141 81.609
 82.152 80.969 c 82.168 78.805 l 82.941 78.805 l 82.926 81.105 l 82.914 
81.688 82.906 82.281 82.906 82.859 c 82.906 84 83.5 84.516 84.609 84.516
 c f
90.664 81.078 m 90.195 81.078 89.781 81.336 89.32 81.902 c 89.285 85.039
 l 88.566 85.039 l 88.602 80.555 l 89.32 80.555 l 89.293 81.273 l 89.312
 81.273 l 89.699 80.734 90.293 80.43 90.836 80.43 c 91.871 80.43 92.203 
80.961 92.203 81.789 c 92.203 82.137 92.195 82.465 92.195 82.812 c 92.176
 85.039 l 91.457 85.039 l 91.473 83.02 l 91.473 82.625 91.48 82.227 91.48
 81.789 c 91.48 81.293 91.168 81.078 90.664 81.078 c f
93.578 80.555 m 94.297 80.555 l 94.262 85.035 l 93.539 85.035 l h
93.539 78.809 m 94.316 78.809 l 94.316 79.617 l 93.539 79.617 l h
93.539 78.809 m f
99.32 80.645 m 97.512 85.039 l 96.809 85.039 l 95.16 80.625 l 95.91 80.426
 l 97.18 84.172 l 97.195 84.172 l 98.602 80.426 l h
99.32 80.645 m f
102.828 82.211 m 102.828 81.57 102.559 80.969 101.828 80.969 c 101.145 
80.969 100.73 81.598 100.605 82.211 c h
100.539 82.695 m 100.539 82.852 l 100.539 83.785 100.891 84.621 101.809
 84.621 c 102.324 84.621 102.703 84.324 103.09 83.977 c 103.441 84.359 l
 102.98 84.82 102.406 85.164 101.73 85.164 c 100.477 85.164 99.766 84.273
 99.766 82.797 c 99.766 81.57 100.621 80.43 101.82 80.43 c 103.027 80.43
 103.547 81.348 103.547 82.555 c 103.547 82.695 l h
100.539 82.695 m f
106.555 81.129 m 106.258 81.129 105.781 81.371 105.391 82.094 c 105.355
 85.035 l 104.637 85.035 l 104.672 80.555 l 105.41 80.555 l 105.402 81.426
 l 105.418 81.445 l 105.562 81.051 106.023 80.43 106.66 80.43 c 106.805 
80.43 106.93 80.445 107.047 80.492 c 106.832 81.176 l 106.762 81.148 106.652
 81.129 106.555 81.129 c f
108.828 85.164 m 108.297 85.164 107.828 84.984 107.422 84.723 c 107.727
 84.246 l 107.98 84.418 108.332 84.625 108.719 84.625 c 109.113 84.625 109.594
 84.406 109.594 83.902 c 109.594 82.785 107.512 83.273 107.512 81.77 c 107.512
 80.922 108.207 80.43 109.023 80.43 c 109.527 80.43 109.996 80.582 110.332
 80.805 c 109.996 81.266 l 109.734 81.121 109.457 80.969 109.141 80.969 
c 108.609 80.969 108.234 81.176 108.234 81.715 c 108.234 82.68 110.312 82.281
 110.312 83.805 c 110.312 84.668 109.566 85.164 108.828 85.164 c f
111.348 80.555 m 112.066 80.555 l 112.031 85.035 l 111.312 85.035 l h
111.312 78.809 m 112.086 78.809 l 112.086 79.617 l 111.312 79.617 l h
111.312 78.809 m f
112.949 80.555 m 113.723 80.555 l 113.738 78.898 l 114.461 78.898 l 114.441
 80.555 l 115.668 80.555 l 115.668 81.094 l 114.434 81.094 l 114.414 82.93
 l 114.406 83.184 114.406 83.398 114.406 83.57 c 114.406 83.992 l 114.406
 84.363 114.504 84.57 114.82 84.57 c 115.062 84.57 115.367 84.414 115.539
 84.309 c 115.773 84.777 l 115.477 84.984 115.047 85.164 114.648 85.164 
c 113.957 85.164 113.688 84.742 113.688 84.02 c 113.688 83.496 l 113.688
 83.301 113.688 83.047 113.695 82.734 c 113.711 81.094 l 112.949 81.094 
l h
112.949 80.555 m f
116.352 86.621 m 117.043 86.621 117.25 86.461 117.441 86.035 c 117.926 
84.965 l 116.262 80.645 l 117.035 80.43 l 118.277 84.074 l 118.297 84.074
 l 119.656 80.43 l 120.367 80.645 l 118.367 85.598 l 117.863 86.828 117.602
 87.16 116.641 87.16 c 116.352 87.16 l h
116.352 86.621 m f
32.816 0 m 32.816 83.84 l 1.199 83.84 l 1.199 0 l 0 0 l 0 85.039 l 34.016
 85.039 l 34.016 0 l h
32.816 0 m f
26.629 48.559 m 25.641 48.559 24.836 49.352 24.836 50.324 c 24.836 66.32
 l 24.836 67.77 24.301 69.078 23.379 70.133 c 23.379 50.297 l 23.379 49.441
 22.742 48.719 21.883 48.598 c 21.031 48.473 20.176 48.973 19.969 49.812
 c 17.035 61.695 17.008 61.789 17.008 61.789 c 17.008 61.789 16.988 61.695
 14.043 49.812 c 13.832 48.973 12.984 48.473 12.129 48.598 c 11.27 48.719
 10.637 49.441 10.637 50.297 c 10.637 70.133 l 9.715 69.078 9.172 67.77 
9.172 66.32 c 9.172 50.324 l 9.172 49.352 8.371 48.559 7.383 48.559 c 6.395
 48.559 5.668 49.352 5.668 50.324 c 5.668 66.32 l 5.668 71.945 10.672 75.879
 17.008 75.879 c 23.34 75.879 28.344 71.945 28.344 66.32 c 28.344 50.324
 l 28.344 49.352 27.617 48.559 26.629 48.559 c 13.965 72.297 m 13.965 62.188
 l 13.973 62.234 14.109 62.832 16.039 70.262 c 16.133 70.613 16.43 71 17.012
 71 c 17.617 71 17.879 70.66 17.988 70.262 c 18.578 67.969 20.047 62.219
 20.047 62.219 c 20.047 72.297 l 19.109 72.609 18.09 72.781 17.008 72.781
 c 15.926 72.781 14.898 72.609 13.965 72.297 c f
  Q
Q
Q Q
showpage
%%Trailer
end
%%EOF
