%!PS-Adobe-3.0 EPSF-3.0
%%Creator: cairo 1.16.0 (https://cairographics.org)
%%CreationDate: Mon Dec 16 01:49:05 2019
%%Pages: 1
%%DocumentData: Clean7Bit
%%LanguageLevel: 2
%%BoundingBox: 0 0 143 88
%%EndComments
%%BeginProlog
50 dict begin
/q { gsave } bind def
/Q { grestore } bind def
/cm { 6 array astore concat } bind def
/w { setlinewidth } bind def
/J { setlinecap } bind def
/j { setlinejoin } bind def
/M { setmiterlimit } bind def
/d { setdash } bind def
/m { moveto } bind def
/l { lineto } bind def
/c { curveto } bind def
/h { closepath } bind def
/re { exch dup neg 3 1 roll 5 3 roll moveto 0 rlineto
      0 exch rlineto 0 rlineto closepath } bind def
/S { stroke } bind def
/f { fill } bind def
/f* { eofill } bind def
/n { newpath } bind def
/W { clip } bind def
/W* { eoclip } bind def
/BT { } bind def
/ET { } bind def
/BDC { mark 3 1 roll /BDC pdfmark } bind def
/EMC { mark /EMC pdfmark } bind def
/cairo_store_point { /cairo_point_y exch def /cairo_point_x exch def } def
/Tj { show currentpoint cairo_store_point } bind def
/TJ {
  {
    dup
    type /stringtype eq
    { show } { -0.001 mul 0 cairo_font_matrix dtransform rmoveto } ifelse
  } forall
  currentpoint cairo_store_point
} bind def
/cairo_selectfont { cairo_font_matrix aload pop pop pop 0 0 6 array astore
    cairo_font exch selectfont cairo_point_x cairo_point_y moveto } bind def
/Tf { pop /cairo_font exch def /cairo_font_matrix where
      { pop cairo_selectfont } if } bind def
/Td { matrix translate cairo_font_matrix matrix concatmatrix dup
      /cairo_font_matrix exch def dup 4 get exch 5 get cairo_store_point
      /cairo_font where { pop cairo_selectfont } if } bind def
/Tm { 2 copy 8 2 roll 6 array astore /cairo_font_matrix exch def
      cairo_store_point /cairo_font where { pop cairo_selectfont } if } bind def
/g { setgray } bind def
/rg { setrgbcolor } bind def
/d1 { setcachedevice } bind def
/cairo_data_source {
  CairoDataIndex CairoData length lt
    { CairoData CairoDataIndex get /CairoDataIndex CairoDataIndex 1 add def }
    { () } ifelse
} def
/cairo_flush_ascii85_file { cairo_ascii85_file status { cairo_ascii85_file flushfile } if } def
/cairo_image { image cairo_flush_ascii85_file } def
/cairo_imagemask { imagemask cairo_flush_ascii85_file } def
%%EndProlog
%%BeginSetup
%%EndSetup
%%Page: 1 1
%%BeginPageSetup
%%PageBoundingBox: 0 0 143 88
%%EndPageSetup
q 0 0 143 88 rectclip
1 0 0 -1 0 88 cm q
1 g
45.621 48.738 m 50.215 48.738 l 50.203 50.059 l 47.156 50.059 l 47.145 
52.191 l 50.168 52.191 l 50.152 53.512 l 47.121 53.512 l 47.109 57.039 l
 45.535 57.039 l h
45.621 48.738 m f
54.289 50.344 m 54.266 50.344 l 53.219 53.582 l 55.246 53.582 l h
51.84 57.203 m 50.414 56.773 l 53.605 48.738 l 55.02 48.738 l 57.98 56.773
 l 56.484 57.203 l 55.668 54.832 l 52.777 54.832 l h
51.84 57.203 m f
q
0 0 143 88 re W n
  q
1 g
62.848 55.887 m 63.918 55.887 64.434 55.633 64.938 55.348 c 65.547 56.402
 l 64.781 56.941 63.855 57.203 62.91 57.203 c 60.438 57.203 58.605 55.395
 58.605 52.91 c 58.605 50.359 60.391 48.57 62.848 48.57 c 63.844 48.57 64.793
 48.895 65.559 49.531 c 64.887 50.598 l 64.371 50.164 63.57 49.891 62.898
 49.891 c 61.277 49.891 60.211 51.172 60.211 52.84 c 60.211 54.422 61.301
 55.887 62.848 55.887 c f
70.008 55.887 m 71.219 55.887 71.855 55.094 71.867 53.953 c 71.914 48.738
 l 73.449 48.738 l 73.402 54.039 l 73.367 56.078 71.961 57.203 69.984 57.203
 c 68.016 57.203 66.637 56.113 66.637 53.953 c 66.637 52.215 66.672 50.477
 66.684 48.738 c 68.219 48.738 l 68.207 50.516 68.172 52.266 68.172 54.039
 c 68.172 55.203 68.988 55.887 70.008 55.887 c f
80.148 57.035 m 75.363 57.035 l 75.434 48.738 l 76.969 48.738 l 76.898 
55.719 l 80.148 55.719 l h
80.148 57.035 m f
82.098 50.059 m 79.77 50.059 l 79.785 48.738 l 85.934 48.738 l 85.922 50.059
 l 83.633 50.059 l 83.574 57.035 l 82.039 57.035 l h
82.098 50.059 m f
89.375 53.594 m 86.629 49.363 l 88.031 48.57 l 90.203 52.121 l 92.457 48.57
 l 93.812 49.352 l 90.98 53.547 l 90.934 57.039 l 89.328 57.039 l h
89.375 53.594 m f
46.906 66.887 m 46.906 68.699 48.031 69.957 49.746 69.957 c 51.465 69.957
 52.59 68.531 52.59 66.887 c 52.59 65.125 51.465 63.816 49.746 63.816 c 
48.355 63.816 46.906 64.969 46.906 66.887 c 45.297 66.887 m 45.297 64.465
 47.277 62.57 49.746 62.57 c 52.434 62.57 54.195 64.465 54.195 66.887 c 
54.195 69.312 52.266 71.207 49.746 71.207 c 47.23 71.207 45.297 69.418 45.297
 66.887 c f
55.766 62.738 m 60.359 62.738 l 60.348 64.059 l 57.301 64.059 l 57.289 
66.191 l 60.312 66.191 l 60.301 67.512 l 57.266 67.512 l 57.254 71.039 l
 55.684 71.039 l h
55.766 62.738 m f
65.043 62.738 m 66.578 62.738 l 66.504 71.039 l 64.969 71.039 l h
65.043 62.738 m f
68.52 63.004 m 69.949 62.57 l 73.82 68.926 l 73.848 68.926 l 73.75 62.738
 l 75.285 62.738 l 75.215 70.773 l 73.668 71.207 l 69.887 64.887 l 69.863
 64.91 l 69.984 71.039 l 68.449 71.039 l h
68.52 63.004 m f
77.285 62.738 m 81.879 62.738 l 81.867 64.059 l 78.82 64.059 l 78.809 66.191
 l 81.832 66.191 l 81.82 67.512 l 78.785 67.512 l 78.773 71.039 l 77.203
 71.039 l h
77.285 62.738 m f
84.465 66.887 m 84.465 68.699 85.594 69.957 87.309 69.957 c 89.023 69.957
 90.152 68.531 90.152 66.887 c 90.152 65.125 89.023 63.816 87.309 63.816
 c 85.918 63.816 84.465 64.969 84.465 66.887 c 82.859 66.887 m 82.859 64.465
 84.836 62.57 87.309 62.57 c 89.996 62.57 91.758 64.465 91.758 66.887 c 
91.758 69.312 89.828 71.207 87.309 71.207 c 84.789 71.207 82.859 69.418 
82.859 66.887 c f
95.797 66.469 m 96.242 66.469 97.164 66.277 97.164 65.184 c 97.164 64.379
 96.539 63.984 95.762 63.984 c 94.875 63.984 l 94.852 66.469 l h
95.305 67.715 m 94.824 67.715 l 94.816 71.035 l 93.242 71.035 l 93.328 
62.738 l 95.953 62.738 l 97.969 62.738 98.773 63.828 98.773 65.137 c 98.773
 66.191 98.137 66.949 97.164 67.297 c 99.527 70.391 l 98.16 71.203 l 95.859
 68.004 l 95.727 67.812 95.535 67.715 95.305 67.715 c f
101.84 62.738 m 103.41 62.738 l 105.426 69.371 l 105.449 69.371 l 107.754
 62.738 l 109.324 62.738 l 110.547 71.039 l 108.988 71.207 l 108.363 64.656
 l 108.34 64.656 l 106.23 71.039 l 104.648 71.039 l 102.738 64.656 l 102.715
 64.656 l 101.852 71.207 l 100.379 71.039 l h
101.84 62.738 m f
115.355 64.344 m 115.332 64.344 l 114.289 67.582 l 116.316 67.582 l h
112.91 71.203 m 111.484 70.773 l 114.672 62.738 l 116.09 62.738 l 119.051
 70.773 l 117.551 71.203 l 116.734 68.832 l 113.844 68.832 l h
112.91 71.203 m f
121.031 64.059 m 118.703 64.059 l 118.719 62.738 l 124.867 62.738 l 124.855
 64.059 l 122.566 64.059 l 122.508 71.035 l 120.973 71.035 l h
121.031 64.059 m f
126 62.738 m 127.535 62.738 l 127.465 71.039 l 125.93 71.039 l h
126 62.738 m f
133.402 69.887 m 134.469 69.887 134.984 69.633 135.488 69.348 c 136.102
 70.402 l 135.332 70.941 134.41 71.203 133.461 71.203 c 130.992 71.203 129.156
 69.395 129.156 66.91 c 129.156 64.359 130.941 62.57 133.402 62.57 c 134.398
 62.57 135.344 62.895 136.113 63.531 c 135.441 64.598 l 134.922 64.164 134.121
 63.891 133.449 63.891 c 131.832 63.891 130.762 65.172 130.762 66.84 c 130.762
 68.422 131.855 69.887 133.402 69.887 c f
139.215 71.207 m 138.402 71.207 137.668 70.988 136.961 70.57 c 137.562 
69.395 l 137.945 69.672 138.559 69.957 139.027 69.957 c 139.887 69.957 140.355
 69.43 140.355 68.758 c 140.355 67.113 136.949 67.801 136.949 64.98 c 136.949
 63.625 138.055 62.57 139.719 62.57 c 140.547 62.57 141.34 62.848 142.059
 63.266 c 141.41 64.367 l 140.895 64.094 140.453 63.816 139.84 63.816 c 
139.133 63.816 138.484 64.199 138.484 64.934 c 138.484 66.555 141.965 66.051
 141.965 68.699 c 141.965 70.113 140.812 71.207 139.215 71.207 c f
46.305 78.809 m 47.109 78.809 l 48.988 84.066 l 51.016 78.809 l 51.852 
78.809 l 52.844 85.035 l 52.086 85.164 l 51.293 79.832 l 51.277 79.832 l
 49.34 85.035 l 48.602 85.035 l 46.793 79.832 l 46.773 79.832 l 45.918 85.164
 l 45.172 85.035 l h
46.305 78.809 m f
55.223 84.625 m 55.664 84.625 56.008 84.316 56.285 83.969 c 56.32 82.695
 l 55.07 82.867 54.422 83.094 54.422 83.859 c 54.422 84.363 54.719 84.625
 55.223 84.625 c 57.277 84.625 m 57.43 84.625 57.535 84.551 57.652 84.473
 c 57.852 84.84 l 57.602 85.047 57.328 85.164 57.016 85.164 c 56.609 85.164
 56.383 84.805 56.348 84.418 c 55.996 84.84 55.574 85.164 55 85.164 c 54.207
 85.164 53.703 84.625 53.703 83.867 c 53.703 82.59 55.34 82.309 56.32 82.266
 c 56.332 82.074 56.34 81.887 56.34 81.695 c 56.34 81.312 56.133 81.023 
55.656 81.023 c 55.305 81.023 55 81.141 54.359 81.645 c 54.062 81.176 l 
54.953 80.602 55.258 80.43 55.898 80.43 c 56.656 80.43 57.023 80.867 57.023
 81.562 c 57.023 82.418 56.953 83.191 56.953 83.984 c 56.953 84.309 56.996
 84.625 57.277 84.625 c f
59.859 85.164 m 59.328 85.164 58.859 84.984 58.457 84.723 c 58.762 84.246
 l 59.016 84.418 59.363 84.625 59.754 84.625 c 60.148 84.625 60.625 84.406
 60.625 83.902 c 60.625 82.785 58.547 83.273 58.547 81.77 c 58.547 80.926
 59.238 80.43 60.059 80.43 c 60.562 80.43 61.031 80.582 61.363 80.809 c 
61.031 81.266 l 60.77 81.121 60.488 80.969 60.176 80.969 c 59.645 80.969
 59.266 81.176 59.266 81.715 c 59.266 82.68 61.344 82.281 61.344 83.805 
c 61.344 84.668 60.598 85.164 59.859 85.164 c f
63.672 84.625 m 64.113 84.625 64.453 84.316 64.734 83.969 c 64.77 82.695
 l 63.516 82.867 62.871 83.094 62.871 83.859 c 62.871 84.363 63.168 84.625
 63.672 84.625 c 65.723 84.625 m 65.875 84.625 65.984 84.551 66.102 84.473
 c 66.301 84.84 l 66.047 85.047 65.777 85.164 65.461 85.164 c 65.059 85.164
 64.832 84.805 64.797 84.418 c 64.445 84.84 64.023 85.164 63.445 85.164 
c 62.652 85.164 62.148 84.625 62.148 83.867 c 62.148 82.59 63.789 82.309
 64.77 82.266 c 64.777 82.074 64.785 81.887 64.785 81.695 c 64.785 81.312
 64.578 81.023 64.102 81.023 c 63.75 81.023 63.445 81.141 62.805 81.645 
c 62.508 81.176 l 63.398 80.602 63.707 80.43 64.344 80.43 c 65.102 80.43
 65.473 80.867 65.473 81.562 c 65.473 82.418 65.398 83.191 65.398 83.984
 c 65.398 84.309 65.445 84.625 65.723 84.625 c f
69.02 81.133 m 68.723 81.133 68.246 81.371 67.859 82.094 c 67.824 85.035
 l 67.102 85.035 l 67.137 80.555 l 67.875 80.555 l 67.867 81.43 l 67.887
 81.445 l 68.031 81.051 68.488 80.43 69.129 80.43 c 69.273 80.43 69.398 
80.445 69.516 80.492 c 69.301 81.176 l 69.227 81.148 69.117 81.133 69.02
 81.133 c f
70.105 86.621 m 70.801 86.621 71.008 86.461 71.195 86.035 c 71.68 84.965
 l 70.016 80.645 l 70.789 80.43 l 72.031 84.074 l 72.051 84.074 l 73.41 
80.43 l 74.121 80.645 l 72.121 85.598 l 71.617 86.828 71.355 87.16 70.395
 87.16 c 70.105 87.16 l h
70.105 86.621 m f
75.07 78.285 m 75.781 78.285 l 75.742 82.715 l 78.047 80.328 l 78.527 80.797
 l 76.637 82.613 l 78.578 84.777 l 78.012 85.234 l 75.742 82.73 l 75.719
 85.039 l 75.016 85.039 l h
75.07 78.285 m f
84.59 84.516 m 85.492 84.516 86.285 84.055 86.285 82.645 c 86.312 78.809
 l 87.086 78.809 l 87.059 82.688 l 87.031 84.688 85.754 85.164 84.539 85.164
 c 83.195 85.164 82.117 84.57 82.117 82.668 c 82.117 82.164 82.125 81.609
 82.133 80.969 c 82.152 78.809 l 82.926 78.809 l 82.906 81.105 l 82.898 
81.688 82.891 82.281 82.891 82.859 c 82.891 84.004 83.484 84.516 84.59 84.516
 c f
90.645 81.078 m 90.18 81.078 89.766 81.336 89.305 81.906 c 89.27 85.039
 l 88.547 85.039 l 88.586 80.555 l 89.305 80.555 l 89.277 81.273 l 89.297
 81.273 l 89.684 80.734 90.277 80.43 90.816 80.43 c 91.852 80.43 92.188 
80.961 92.188 81.789 c 92.188 82.137 92.176 82.465 92.176 82.812 c 92.16
 85.039 l 91.438 85.039 l 91.457 83.02 l 91.457 82.625 91.465 82.227 91.465
 81.789 c 91.465 81.293 91.152 81.078 90.645 81.078 c f
93.559 80.555 m 94.281 80.555 l 94.246 85.035 l 93.523 85.035 l h
93.523 78.809 m 94.297 78.809 l 94.297 79.617 l 93.523 79.617 l h
93.523 78.809 m f
99.305 80.645 m 97.496 85.039 l 96.793 85.039 l 95.145 80.625 l 95.895 
80.43 l 97.16 84.172 l 97.18 84.172 l 98.586 80.43 l h
99.305 80.645 m f
102.812 82.211 m 102.812 81.57 102.539 80.969 101.812 80.969 c 101.129 
80.969 100.715 81.598 100.586 82.211 c h
100.523 82.695 m 100.523 82.852 l 100.523 83.785 100.875 84.625 101.793
 84.625 c 102.309 84.625 102.684 84.324 103.07 83.977 c 103.422 84.363 l
 102.965 84.82 102.387 85.164 101.711 85.164 c 100.461 85.164 99.75 84.273
 99.75 82.797 c 99.75 81.57 100.605 80.43 101.801 80.43 c 103.008 80.43 
103.531 81.348 103.531 82.555 c 103.531 82.695 l h
100.523 82.695 m f
106.535 81.133 m 106.238 81.133 105.762 81.371 105.375 82.094 c 105.34 
85.035 l 104.617 85.035 l 104.656 80.555 l 105.395 80.555 l 105.383 81.43
 l 105.402 81.445 l 105.547 81.051 106.004 80.43 106.645 80.43 c 106.789
 80.43 106.914 80.445 107.031 80.492 c 106.816 81.176 l 106.742 81.148 106.637
 81.133 106.535 81.133 c f
108.809 85.164 m 108.277 85.164 107.812 84.984 107.406 84.723 c 107.711
 84.246 l 107.965 84.418 108.316 84.625 108.703 84.625 c 109.098 84.625 
109.574 84.406 109.574 83.902 c 109.574 82.785 107.496 83.273 107.496 81.77
 c 107.496 80.926 108.188 80.43 109.008 80.43 c 109.512 80.43 109.98 80.582
 110.312 80.809 c 109.98 81.266 l 109.719 81.121 109.441 80.969 109.125 
80.969 c 108.594 80.969 108.215 81.176 108.215 81.715 c 108.215 82.68 110.297
 82.281 110.297 83.805 c 110.297 84.668 109.547 85.164 108.809 85.164 c f
111.332 80.555 m 112.051 80.555 l 112.016 85.035 l 111.293 85.035 l h
111.293 78.809 m 112.07 78.809 l 112.07 79.617 l 111.293 79.617 l h
111.293 78.809 m f
112.93 80.555 m 113.703 80.555 l 113.723 78.898 l 114.441 78.898 l 114.426
 80.555 l 115.648 80.555 l 115.648 81.094 l 114.418 81.094 l 114.398 82.934
 l 114.391 83.184 114.391 83.398 114.391 83.57 c 114.391 83.992 l 114.391
 84.363 114.488 84.57 114.805 84.57 c 115.047 84.57 115.352 84.414 115.523
 84.309 c 115.758 84.777 l 115.461 84.984 115.027 85.164 114.633 85.164 
c 113.938 85.164 113.668 84.742 113.668 84.02 c 113.668 83.496 l 113.668
 83.301 113.668 83.047 113.68 82.734 c 113.695 81.094 l 112.93 81.094 l 
h
112.93 80.555 m f
116.336 86.621 m 117.027 86.621 117.234 86.461 117.426 86.035 c 117.91 
84.965 l 116.246 80.645 l 117.02 80.43 l 118.262 84.074 l 118.281 84.074
 l 119.641 80.43 l 120.352 80.645 l 118.352 85.598 l 117.848 86.828 117.586
 87.16 116.621 87.16 c 116.336 87.16 l h
116.336 86.621 m f
32.816 0 m 32.812 83.84 l 1.199 83.84 l 1.199 0 l 0 0 l 0 85.039 l 34.016
 85.039 l 34.016 0 l h
32.816 0 m f
26.629 48.559 m 25.641 48.559 24.836 49.348 24.836 50.328 c 24.836 66.32
 l 24.836 67.773 24.301 69.078 23.379 70.133 c 23.379 50.297 l 23.379 49.441
 22.742 48.715 21.883 48.598 c 21.031 48.473 20.176 48.969 19.969 49.816
 c 17.035 61.699 17.008 61.789 17.008 61.789 c 17.008 61.789 16.988 61.699
 14.043 49.812 c 13.832 48.969 12.984 48.473 12.129 48.598 c 11.273 48.715
 10.637 49.441 10.637 50.297 c 10.637 70.133 l 9.715 69.078 9.172 67.773
 9.172 66.32 c 9.172 50.328 l 9.172 49.348 8.371 48.559 7.383 48.559 c 6.395
 48.559 5.668 49.348 5.668 50.328 c 5.668 66.32 l 5.668 71.949 10.672 75.879
 17.008 75.879 c 23.34 75.879 28.344 71.949 28.344 66.32 c 28.344 50.328
 l 28.344 49.348 27.617 48.559 26.629 48.559 c 13.965 72.297 m 13.965 62.191
 l 13.973 62.234 14.109 62.832 16.039 70.262 c 16.133 70.617 16.43 71 17.012
 71 c 17.617 71 17.879 70.664 17.988 70.262 c 18.578 67.969 20.047 62.219
 20.047 62.219 c 20.047 72.297 l 19.109 72.609 18.09 72.781 17.008 72.781
 c 15.926 72.781 14.902 72.609 13.965 72.297 c f
  Q
Q
Q Q
showpage
%%Trailer
end
%%EOF
