%!PS-Adobe-3.0 EPSF-3.0
%%Creator: cairo 1.16.0 (https://cairographics.org)
%%CreationDate: Mon Dec 16 01:49:04 2019
%%Pages: 1
%%DocumentData: Clean7Bit
%%LanguageLevel: 2
%%BoundingBox: 0 0 134 88
%%EndComments
%%BeginProlog
50 dict begin
/q { gsave } bind def
/Q { grestore } bind def
/cm { 6 array astore concat } bind def
/w { setlinewidth } bind def
/J { setlinecap } bind def
/j { setlinejoin } bind def
/M { setmiterlimit } bind def
/d { setdash } bind def
/m { moveto } bind def
/l { lineto } bind def
/c { curveto } bind def
/h { closepath } bind def
/re { exch dup neg 3 1 roll 5 3 roll moveto 0 rlineto
      0 exch rlineto 0 rlineto closepath } bind def
/S { stroke } bind def
/f { fill } bind def
/f* { eofill } bind def
/n { newpath } bind def
/W { clip } bind def
/W* { eoclip } bind def
/BT { } bind def
/ET { } bind def
/BDC { mark 3 1 roll /BDC pdfmark } bind def
/EMC { mark /EMC pdfmark } bind def
/cairo_store_point { /cairo_point_y exch def /cairo_point_x exch def } def
/Tj { show currentpoint cairo_store_point } bind def
/TJ {
  {
    dup
    type /stringtype eq
    { show } { -0.001 mul 0 cairo_font_matrix dtransform rmoveto } ifelse
  } forall
  currentpoint cairo_store_point
} bind def
/cairo_selectfont { cairo_font_matrix aload pop pop pop 0 0 6 array astore
    cairo_font exch selectfont cairo_point_x cairo_point_y moveto } bind def
/Tf { pop /cairo_font exch def /cairo_font_matrix where
      { pop cairo_selectfont } if } bind def
/Td { matrix translate cairo_font_matrix matrix concatmatrix dup
      /cairo_font_matrix exch def dup 4 get exch 5 get cairo_store_point
      /cairo_font where { pop cairo_selectfont } if } bind def
/Tm { 2 copy 8 2 roll 6 array astore /cairo_font_matrix exch def
      cairo_store_point /cairo_font where { pop cairo_selectfont } if } bind def
/g { setgray } bind def
/rg { setrgbcolor } bind def
/d1 { setcachedevice } bind def
/cairo_data_source {
  CairoDataIndex CairoData length lt
    { CairoData CairoDataIndex get /CairoDataIndex CairoDataIndex 1 add def }
    { () } ifelse
} def
/cairo_flush_ascii85_file { cairo_ascii85_file status { cairo_ascii85_file flushfile } if } def
/cairo_image { image cairo_flush_ascii85_file } def
/cairo_imagemask { imagemask cairo_flush_ascii85_file } def
%%EndProlog
%%BeginSetup
%%EndSetup
%%Page: 1 1
%%BeginPageSetup
%%PageBoundingBox: 0 0 134 88
%%EndPageSetup
q 0 0 134 88 rectclip
1 0 0 -1 0 88 cm q
1 g
45.621 48.738 m 50.215 48.738 l 50.203 50.055 l 47.156 50.055 l 47.145 
52.191 l 50.164 52.191 l 50.152 53.512 l 47.121 53.512 l 47.105 57.039 l
 45.535 57.039 l h
45.621 48.738 m f
54.289 50.344 m 54.266 50.344 l 53.219 53.582 l 55.246 53.582 l h
51.84 57.203 m 50.414 56.773 l 53.605 48.738 l 55.02 48.738 l 57.98 56.773
 l 56.484 57.203 l 55.668 54.832 l 52.777 54.832 l h
51.84 57.203 m f
59.145 48.738 m 60.68 48.738 l 60.652 52.609 l 60.715 52.609 l 64.109 48.57
 l 65.246 49.48 l 62.285 52.758 l 65.211 56.316 l 63.965 57.207 l 60.68 
53.031 l 60.652 53.031 l 60.617 57.039 l 59.082 57.039 l h
59.145 48.738 m f
q
0 0 134 88 re W n
  q
1 g
69.73 55.887 m 70.941 55.887 71.578 55.094 71.59 53.953 c 71.637 48.738
 l 73.172 48.738 l 73.125 54.039 l 73.09 56.078 71.688 57.203 69.707 57.203
 c 67.742 57.203 66.359 56.113 66.359 53.953 c 66.359 52.215 66.398 50.477
 66.41 48.738 c 67.945 48.738 l 67.934 50.512 67.898 52.266 67.898 54.039
 c 67.898 55.203 68.711 55.887 69.73 55.887 c f
79.871 57.035 m 75.086 57.035 l 75.156 48.738 l 76.691 48.738 l 76.621 
55.719 l 79.871 55.719 l h
79.871 57.035 m f
81.82 50.059 m 79.496 50.059 l 79.508 48.738 l 85.66 48.738 l 85.648 50.059
 l 83.355 50.059 l 83.297 57.035 l 81.762 57.035 l h
81.82 50.059 m f
89.117 50.344 m 89.094 50.344 l 88.047 53.582 l 90.074 53.582 l h
86.668 57.203 m 85.242 56.773 l 88.434 48.738 l 89.848 48.738 l 92.809 
56.773 l 91.312 57.203 l 90.496 54.832 l 87.605 54.832 l h
86.668 57.203 m f
45.691 62.738 m 47.23 62.738 l 47.156 71.039 l 45.621 71.039 l h
45.691 62.738 m f
49.172 63.004 m 50.598 62.57 l 54.473 68.926 l 54.496 68.926 l 54.402 62.738
 l 55.938 62.738 l 55.863 70.773 l 54.316 71.203 l 50.539 64.887 l 50.516
 64.906 l 50.637 71.035 l 49.102 71.035 l h
49.172 63.004 m f
57.938 62.738 m 62.531 62.738 l 62.52 64.055 l 59.473 64.055 l 59.461 66.191
 l 62.48 66.191 l 62.469 67.512 l 59.438 67.512 l 59.422 71.039 l 57.852
 71.039 l h
57.938 62.738 m f
65.117 66.887 m 65.117 68.699 66.246 69.957 67.961 69.957 c 69.676 69.957
 70.801 68.531 70.801 66.887 c 70.801 65.125 69.676 63.816 67.961 63.816
 c 66.566 63.816 65.117 64.969 65.117 66.887 c 63.508 66.887 m 63.508 64.465
 65.488 62.57 67.961 62.57 c 70.645 62.57 72.41 64.465 72.41 66.887 c 72.41
 69.312 70.477 71.203 67.961 71.203 c 65.441 71.203 63.508 69.418 63.508
 66.887 c f
76.449 66.469 m 76.891 66.469 77.816 66.277 77.816 65.184 c 77.816 64.379
 77.191 63.984 76.414 63.984 c 75.523 63.984 l 75.5 66.469 l h
75.957 67.715 m 75.477 67.715 l 75.465 71.035 l 73.895 71.035 l 73.977 
62.738 l 76.605 62.738 l 78.621 62.738 79.422 63.828 79.422 65.137 c 79.422
 66.191 78.789 66.945 77.816 67.297 c 80.18 70.391 l 78.812 71.203 l 76.508
 68.004 l 76.375 67.812 76.184 67.715 75.957 67.715 c f
82.492 62.738 m 84.062 62.738 l 86.078 69.371 l 86.102 69.371 l 88.406 
62.738 l 89.977 62.738 l 91.199 71.039 l 89.641 71.207 l 89.016 64.656 l
 88.992 64.656 l 86.883 71.039 l 85.297 71.039 l 83.391 64.656 l 83.367 
64.656 l 82.504 71.207 l 81.027 71.039 l h
82.492 62.738 m f
96.008 64.344 m 95.984 64.344 l 94.941 67.582 l 96.969 67.582 l h
93.562 71.203 m 92.133 70.773 l 95.324 62.738 l 96.738 62.738 l 99.703 
70.773 l 98.203 71.203 l 97.387 68.832 l 94.496 68.832 l h
93.562 71.203 m f
101.684 64.059 m 99.355 64.059 l 99.367 62.738 l 105.52 62.738 l 105.508
 64.059 l 103.219 64.059 l 103.156 71.035 l 101.621 71.035 l h
101.684 64.059 m f
106.652 62.738 m 108.188 62.738 l 108.113 71.039 l 106.578 71.039 l h
106.652 62.738 m f
110.125 62.738 m 111.664 62.738 l 111.637 66.609 l 111.699 66.609 l 115.09
 62.57 l 116.23 63.48 l 113.27 66.758 l 116.195 70.316 l 114.949 71.207 
l 111.664 67.031 l 111.637 67.031 l 111.602 71.039 l 110.066 71.039 l h
110.125 62.738 m f
119.676 67.594 m 116.93 63.363 l 118.336 62.57 l 120.504 66.117 l 122.758
 62.57 l 124.113 63.352 l 121.285 67.547 l 121.234 71.035 l 119.629 71.035
 l h
119.676 67.594 m f
46.305 78.809 m 47.105 78.809 l 48.988 84.066 l 51.016 78.809 l 51.852 
78.809 l 52.844 85.035 l 52.086 85.164 l 51.293 79.832 l 51.277 79.832 l
 49.34 85.035 l 48.602 85.035 l 46.793 79.832 l 46.773 79.832 l 45.918 85.164
 l 45.172 85.035 l h
46.305 78.809 m f
55.223 84.625 m 55.664 84.625 56.004 84.316 56.285 83.965 c 56.32 82.695
 l 55.07 82.867 54.422 83.094 54.422 83.859 c 54.422 84.363 54.719 84.625
 55.223 84.625 c 57.273 84.625 m 57.43 84.625 57.535 84.551 57.656 84.469
 c 57.852 84.84 l 57.598 85.047 57.328 85.164 57.016 85.164 c 56.609 85.164
 56.383 84.805 56.348 84.418 c 55.996 84.84 55.574 85.164 55 85.164 c 54.207
 85.164 53.703 84.625 53.703 83.867 c 53.703 82.59 55.34 82.309 56.32 82.266
 c 56.332 82.074 56.34 81.887 56.34 81.695 c 56.34 81.309 56.133 81.023 
55.656 81.023 c 55.305 81.023 55 81.141 54.359 81.645 c 54.062 81.176 l 
54.953 80.598 55.258 80.43 55.898 80.43 c 56.656 80.43 57.023 80.867 57.023
 81.562 c 57.023 82.418 56.953 83.191 56.953 83.984 c 56.953 84.309 56.996
 84.625 57.273 84.625 c f
59.859 85.164 m 59.328 85.164 58.859 84.984 58.457 84.723 c 58.762 84.246
 l 59.016 84.418 59.363 84.625 59.754 84.625 c 60.148 84.625 60.625 84.406
 60.625 83.902 c 60.625 82.785 58.547 83.273 58.547 81.77 c 58.547 80.922
 59.238 80.43 60.059 80.43 c 60.562 80.43 61.031 80.582 61.363 80.805 c 
61.031 81.266 l 60.77 81.121 60.488 80.969 60.176 80.969 c 59.645 80.969
 59.266 81.176 59.266 81.715 c 59.266 82.68 61.344 82.281 61.344 83.805 
c 61.344 84.668 60.598 85.164 59.859 85.164 c f
63.672 84.625 m 64.109 84.625 64.453 84.316 64.73 83.965 c 64.77 82.695
 l 63.516 82.867 62.871 83.094 62.871 83.859 c 62.871 84.363 63.164 84.625
 63.672 84.625 c 65.723 84.625 m 65.875 84.625 65.984 84.551 66.102 84.469
 c 66.301 84.84 l 66.047 85.047 65.777 85.164 65.461 85.164 c 65.055 85.164
 64.832 84.805 64.797 84.418 c 64.445 84.84 64.02 85.164 63.445 85.164 c
 62.652 85.164 62.148 84.625 62.148 83.867 c 62.148 82.59 63.789 82.309 
64.77 82.266 c 64.777 82.074 64.785 81.887 64.785 81.695 c 64.785 81.309
 64.578 81.023 64.102 81.023 c 63.75 81.023 63.445 81.141 62.805 81.645 
c 62.508 81.176 l 63.398 80.598 63.707 80.43 64.344 80.43 c 65.102 80.43
 65.473 80.867 65.473 81.562 c 65.473 82.418 65.398 83.191 65.398 83.984
 c 65.398 84.309 65.445 84.625 65.723 84.625 c f
69.02 81.129 m 68.723 81.129 68.246 81.371 67.859 82.094 c 67.82 85.035
 l 67.102 85.035 l 67.137 80.555 l 67.875 80.555 l 67.867 81.426 l 67.887
 81.445 l 68.031 81.051 68.488 80.43 69.129 80.43 c 69.273 80.43 69.398 
80.445 69.516 80.492 c 69.297 81.176 l 69.227 81.148 69.117 81.129 69.02
 81.129 c f
70.105 86.621 m 70.801 86.621 71.004 86.461 71.195 86.035 c 71.68 84.965
 l 70.016 80.645 l 70.789 80.43 l 72.031 84.074 l 72.051 84.074 l 73.41 
80.43 l 74.121 80.645 l 72.121 85.598 l 71.617 86.828 71.355 87.16 70.395
 87.16 c 70.105 87.16 l h
70.105 86.621 m f
75.07 78.285 m 75.781 78.285 l 75.742 82.715 l 78.047 80.328 l 78.527 80.797
 l 76.637 82.613 l 78.578 84.777 l 78.012 85.234 l 75.742 82.73 l 75.715
 85.039 l 75.016 85.039 l h
75.07 78.285 m f
79.84 82.793 m 79.84 84.035 80.445 84.621 81.172 84.621 c 81.848 84.621
 82.578 84.035 82.578 82.793 c 82.578 81.555 81.977 80.969 81.246 80.969
 c 80.57 80.969 79.84 81.555 79.84 82.793 c 79.066 82.793 m 79.066 81.637
 79.832 80.43 81.254 80.43 c 82.57 80.43 83.352 81.316 83.352 82.793 c 83.352
 83.957 82.578 85.164 81.164 85.164 c 79.84 85.164 79.066 84.281 79.066 
82.793 c f
88 80.645 m 86.188 85.039 l 85.488 85.039 l 83.84 80.625 l 84.586 80.426
 l 85.855 84.172 l 85.875 84.172 l 87.277 80.426 l h
88 80.645 m f
90.008 84.625 m 90.449 84.625 90.789 84.316 91.07 83.965 c 91.105 82.695
 l 89.855 82.867 89.207 83.094 89.207 83.859 c 89.207 84.363 89.504 84.625
 90.008 84.625 c 92.059 84.625 m 92.215 84.625 92.32 84.551 92.438 84.469
 c 92.637 84.84 l 92.383 85.047 92.113 85.164 91.801 85.164 c 91.395 85.164
 91.168 84.805 91.133 84.418 c 90.781 84.84 90.359 85.164 89.781 85.164 
c 88.988 85.164 88.488 84.625 88.488 83.867 c 88.488 82.59 90.125 82.309
 91.105 82.266 c 91.113 82.074 91.125 81.887 91.125 81.695 c 91.125 81.309
 90.918 81.023 90.438 81.023 c 90.09 81.023 89.781 81.141 89.145 81.645 
c 88.848 81.176 l 89.738 80.598 90.043 80.43 90.684 80.43 c 91.438 80.43
 91.809 80.867 91.809 81.562 c 91.809 82.418 91.738 83.191 91.738 83.984
 c 91.738 84.309 91.781 84.625 92.059 84.625 c f
95.82 83.805 m 95.82 83.453 95.832 83.129 95.832 82.777 c 95.848 80.555
 l 96.57 80.555 l 96.551 82.57 l 96.551 82.965 96.543 83.363 96.543 83.805
 c 96.543 84.297 96.855 84.516 97.359 84.516 c 97.828 84.516 98.242 84.254
 98.703 83.688 c 98.738 80.555 l 99.457 80.555 l 99.422 85.035 l 98.703 
85.035 l 98.73 84.316 l 98.711 84.316 l 98.324 84.855 97.73 85.164 97.188
 85.164 c 96.156 85.164 95.82 84.633 95.82 83.805 c f
102.934 81.074 m 102.465 81.074 102.051 81.336 101.59 81.902 c 101.555 
85.039 l 100.836 85.039 l 100.871 80.555 l 101.59 80.555 l 101.562 81.273
 l 101.582 81.273 l 101.969 80.734 102.562 80.43 103.102 80.43 c 104.141
 80.43 104.473 80.961 104.473 81.789 c 104.473 82.137 104.465 82.465 104.465
 82.812 c 104.445 85.039 l 103.727 85.039 l 103.746 83.02 l 103.746 82.625
 103.75 82.227 103.75 81.789 c 103.75 81.293 103.438 81.074 102.934 81.074
 c f
105.848 80.555 m 106.566 80.555 l 106.531 85.035 l 105.809 85.035 l h
105.809 78.809 m 106.586 78.809 l 106.586 79.617 l 105.809 79.617 l h
105.809 78.809 m f
111.59 80.645 m 109.781 85.039 l 109.078 85.039 l 107.434 80.625 l 108.18
 80.426 l 109.449 84.172 l 109.465 84.172 l 110.871 80.426 l h
111.59 80.645 m f
115.098 82.211 m 115.098 81.57 114.828 80.969 114.098 80.969 c 113.414 
80.969 113 81.598 112.875 82.211 c h
112.809 82.695 m 112.809 82.852 l 112.809 83.785 113.16 84.621 114.082 
84.621 c 114.594 84.621 114.973 84.324 115.359 83.977 c 115.711 84.359 l
 115.25 84.82 114.676 85.164 114 85.164 c 112.746 85.164 112.035 84.273 
112.035 82.797 c 112.035 81.57 112.891 80.43 114.09 80.43 c 115.297 80.43
 115.816 81.348 115.816 82.555 c 115.816 82.695 l h
112.809 82.695 m f
118.824 81.129 m 118.527 81.129 118.047 81.371 117.66 82.094 c 117.625 
85.035 l 116.906 85.035 l 116.941 80.555 l 117.68 80.555 l 117.672 81.426
 l 117.688 81.445 l 117.832 81.051 118.293 80.43 118.93 80.43 c 119.074 
80.43 119.199 80.445 119.316 80.492 c 119.102 81.176 l 119.031 81.148 118.922
 81.129 118.824 81.129 c f
123.133 85.035 m 119.883 85.035 l 119.73 84.66 l 122.25 81.203 l 119.945
 81.203 l 119.945 80.555 l 123.125 80.555 l 123.277 80.879 l 120.73 84.441
 l 123.133 84.441 l h
123.133 85.035 m f
124.184 80.555 m 124.906 80.555 l 124.871 85.035 l 124.148 85.035 l h
124.148 78.809 m 124.922 78.809 l 124.922 79.617 l 124.148 79.617 l h
124.148 78.809 m f
125.785 80.555 m 126.559 80.555 l 126.578 78.898 l 127.297 78.898 l 127.281
 80.555 l 128.504 80.555 l 128.504 81.094 l 127.27 81.094 l 127.254 82.93
 l 127.242 83.184 127.242 83.398 127.242 83.57 c 127.242 83.992 l 127.242
 84.363 127.344 84.57 127.656 84.57 c 127.902 84.57 128.207 84.414 128.379
 84.309 c 128.613 84.777 l 128.316 84.984 127.883 85.164 127.484 85.164 
c 126.793 85.164 126.523 84.742 126.523 84.02 c 126.523 83.496 l 126.523
 83.301 126.523 83.047 126.531 82.734 c 126.551 81.094 l 125.785 81.094 
l h
125.785 80.555 m f
130.668 84.625 m 131.109 84.625 131.449 84.316 131.73 83.965 c 131.766 
82.695 l 130.516 82.867 129.867 83.094 129.867 83.859 c 129.867 84.363 130.164
 84.625 130.668 84.625 c 132.719 84.625 m 132.871 84.625 132.98 84.551 133.098
 84.469 c 133.297 84.84 l 133.043 85.047 132.773 85.164 132.457 85.164 c
 132.055 85.164 131.828 84.805 131.793 84.418 c 131.441 84.84 131.02 85.164
 130.441 85.164 c 129.648 85.164 129.145 84.625 129.145 83.867 c 129.145
 82.59 130.785 82.309 131.766 82.266 c 131.773 82.074 131.785 81.887 131.785
 81.695 c 131.785 81.309 131.578 81.023 131.098 81.023 c 130.75 81.023 130.441
 81.141 129.801 81.645 c 129.504 81.176 l 130.398 80.598 130.703 80.43 131.344
 80.43 c 132.098 80.43 132.469 80.867 132.469 81.562 c 132.469 82.418 132.395
 83.191 132.395 83.984 c 132.395 84.309 132.441 84.625 132.719 84.625 c f
32.816 0 m 32.812 83.84 l 1.199 83.84 l 1.199 0 l 0 0 l 0 85.039 l 34.016
 85.039 l 34.016 0 l h
32.816 0 m f
26.629 48.559 m 25.641 48.559 24.836 49.348 24.836 50.328 c 24.836 66.32
 l 24.836 67.773 24.301 69.078 23.379 70.133 c 23.379 50.297 l 23.379 49.441
 22.742 48.715 21.883 48.598 c 21.031 48.473 20.176 48.969 19.969 49.816
 c 17.035 61.699 17.008 61.789 17.008 61.789 c 17.008 61.789 16.988 61.699
 14.043 49.812 c 13.832 48.969 12.984 48.473 12.129 48.598 c 11.273 48.715
 10.637 49.441 10.637 50.297 c 10.637 70.133 l 9.715 69.078 9.172 67.773
 9.172 66.32 c 9.172 50.328 l 9.172 49.348 8.371 48.559 7.383 48.559 c 6.395
 48.559 5.668 49.348 5.668 50.328 c 5.668 66.32 l 5.668 71.949 10.672 75.879
 17.008 75.879 c 23.34 75.879 28.344 71.949 28.344 66.32 c 28.344 50.328
 l 28.344 49.348 27.617 48.559 26.629 48.559 c 13.965 72.297 m 13.965 62.191
 l 13.973 62.234 14.109 62.832 16.039 70.262 c 16.133 70.617 16.43 71 17.012
 71 c 17.617 71 17.879 70.664 17.988 70.262 c 18.578 67.969 20.047 62.219
 20.047 62.219 c 20.047 72.297 l 19.109 72.609 18.09 72.781 17.008 72.781
 c 15.926 72.781 14.902 72.609 13.965 72.297 c f
  Q
Q
Q Q
showpage
%%Trailer
end
%%EOF
