%!PS-Adobe-3.0 EPSF-3.0
%%Creator: cairo 1.16.0 (https://cairographics.org)
%%CreationDate: Mon Dec 16 01:49:09 2019
%%Pages: 1
%%DocumentData: Clean7Bit
%%LanguageLevel: 2
%%BoundingBox: 0 0 121 88
%%EndComments
%%BeginProlog
50 dict begin
/q { gsave } bind def
/Q { grestore } bind def
/cm { 6 array astore concat } bind def
/w { setlinewidth } bind def
/J { setlinecap } bind def
/j { setlinejoin } bind def
/M { setmiterlimit } bind def
/d { setdash } bind def
/m { moveto } bind def
/l { lineto } bind def
/c { curveto } bind def
/h { closepath } bind def
/re { exch dup neg 3 1 roll 5 3 roll moveto 0 rlineto
      0 exch rlineto 0 rlineto closepath } bind def
/S { stroke } bind def
/f { fill } bind def
/f* { eofill } bind def
/n { newpath } bind def
/W { clip } bind def
/W* { eoclip } bind def
/BT { } bind def
/ET { } bind def
/BDC { mark 3 1 roll /BDC pdfmark } bind def
/EMC { mark /EMC pdfmark } bind def
/cairo_store_point { /cairo_point_y exch def /cairo_point_x exch def } def
/Tj { show currentpoint cairo_store_point } bind def
/TJ {
  {
    dup
    type /stringtype eq
    { show } { -0.001 mul 0 cairo_font_matrix dtransform rmoveto } ifelse
  } forall
  currentpoint cairo_store_point
} bind def
/cairo_selectfont { cairo_font_matrix aload pop pop pop 0 0 6 array astore
    cairo_font exch selectfont cairo_point_x cairo_point_y moveto } bind def
/Tf { pop /cairo_font exch def /cairo_font_matrix where
      { pop cairo_selectfont } if } bind def
/Td { matrix translate cairo_font_matrix matrix concatmatrix dup
      /cairo_font_matrix exch def dup 4 get exch 5 get cairo_store_point
      /cairo_font where { pop cairo_selectfont } if } bind def
/Tm { 2 copy 8 2 roll 6 array astore /cairo_font_matrix exch def
      cairo_store_point /cairo_font where { pop cairo_selectfont } if } bind def
/g { setgray } bind def
/rg { setrgbcolor } bind def
/d1 { setcachedevice } bind def
/cairo_data_source {
  CairoDataIndex CairoData length lt
    { CairoData CairoDataIndex get /CairoDataIndex CairoDataIndex 1 add def }
    { () } ifelse
} def
/cairo_flush_ascii85_file { cairo_ascii85_file status { cairo_ascii85_file flushfile } if } def
/cairo_image { image cairo_flush_ascii85_file } def
/cairo_imagemask { imagemask cairo_flush_ascii85_file } def
%%EndProlog
%%BeginSetup
%%EndSetup
%%Page: 1 1
%%BeginPageSetup
%%PageBoundingBox: 0 0 121 88
%%EndPageSetup
q 0 0 121 88 rectclip
1 0 0 -1 0 88 cm q
1 g
45.637 48.734 m 50.23 48.734 l 50.219 50.055 l 47.172 50.055 l 47.16 52.191
 l 50.184 52.191 l 50.172 53.508 l 47.137 53.508 l 47.125 57.035 l 45.555
 57.035 l h
45.637 48.734 m f
54.305 50.344 m 54.281 50.344 l 53.238 53.582 l 55.266 53.582 l h
51.859 57.203 m 50.43 56.773 l 53.621 48.738 l 55.035 48.738 l 58 56.773
 l 56.5 57.203 l 55.684 54.828 l 52.793 54.828 l h
51.859 57.203 m f
q
0 0 121 88 re W n
  q
1 g
62.867 55.887 m 63.934 55.887 64.449 55.633 64.953 55.344 c 65.562 56.402
 l 64.797 56.941 63.875 57.203 62.926 57.203 c 60.457 57.203 58.621 55.395
 58.621 52.91 c 58.621 50.355 60.406 48.57 62.867 48.57 c 63.859 48.57 64.809
 48.895 65.578 49.527 c 64.906 50.598 l 64.391 50.164 63.586 49.887 62.914
 49.887 c 61.297 49.887 60.227 51.172 60.227 52.836 c 60.227 54.422 61.32
 55.887 62.867 55.887 c f
70.023 55.887 m 71.234 55.887 71.871 55.094 71.883 53.953 c 71.93 48.738
 l 73.465 48.738 l 73.418 54.035 l 73.383 56.074 71.98 57.203 70 57.203 
c 68.035 57.203 66.656 56.113 66.656 53.953 c 66.656 52.215 66.691 50.477
 66.703 48.738 c 68.238 48.738 l 68.227 50.512 68.191 52.262 68.191 54.035
 c 68.191 55.199 69.004 55.887 70.023 55.887 c f
80.164 57.035 m 75.379 57.035 l 75.449 48.734 l 76.984 48.734 l 76.914 
55.719 l 80.164 55.719 l h
80.164 57.035 m f
82.113 50.055 m 79.789 50.055 l 79.801 48.738 l 85.953 48.738 l 85.941 
50.055 l 83.648 50.055 l 83.59 57.035 l 82.055 57.035 l h
82.113 50.055 m f
89.391 53.594 m 86.645 49.359 l 88.047 48.57 l 90.219 52.117 l 92.477 48.57
 l 93.828 49.348 l 91 53.547 l 90.949 57.035 l 89.344 57.035 l h
89.391 53.594 m f
46.922 66.887 m 46.922 68.699 48.051 69.957 49.766 69.957 c 51.48 69.957
 52.605 68.527 52.605 66.887 c 52.605 65.121 51.48 63.816 49.766 63.816 
c 48.371 63.816 46.922 64.969 46.922 66.887 c 45.316 66.887 m 45.316 64.465
 47.293 62.57 49.766 62.57 c 52.449 62.57 54.215 64.465 54.215 66.887 c 
54.215 69.309 52.281 71.203 49.766 71.203 c 47.246 71.203 45.316 69.418 
45.316 66.887 c f
55.785 62.734 m 60.375 62.734 l 60.367 64.055 l 57.316 64.055 l 57.305 
66.191 l 60.328 66.191 l 60.316 67.508 l 57.281 67.508 l 57.27 71.035 l 
55.699 71.035 l h
55.785 62.734 m f
66.836 71.203 m 66.02 71.203 65.285 70.988 64.578 70.566 c 65.18 69.391
 l 65.562 69.668 66.176 69.957 66.641 69.957 c 67.508 69.957 67.973 69.43
 67.973 68.758 c 67.973 67.113 64.566 67.797 64.566 64.977 c 64.566 63.625
 65.672 62.566 67.34 62.566 c 68.168 62.566 68.957 62.844 69.676 63.266 
c 69.027 64.367 l 68.512 64.094 68.07 63.816 67.457 63.816 c 66.75 63.816
 66.102 64.199 66.102 64.934 c 66.102 66.551 69.582 66.047 69.582 68.695
 c 69.582 70.113 68.43 71.203 66.836 71.203 c f
74.996 69.887 m 76.062 69.887 76.578 69.633 77.082 69.344 c 77.691 70.402
 l 76.926 70.941 76.004 71.203 75.055 71.203 c 72.586 71.203 70.75 69.395
 70.75 66.91 c 70.75 64.355 72.535 62.57 74.996 62.57 c 75.988 62.57 76.938
 62.895 77.707 63.527 c 77.035 64.598 l 76.52 64.164 75.715 63.887 75.043
 63.887 c 73.426 63.887 72.355 65.172 72.355 66.836 c 72.355 68.422 73.449
 69.887 74.996 69.887 c f
78.906 62.734 m 80.441 62.734 l 80.367 71.035 l 78.832 71.035 l h
78.906 62.734 m f
86.832 71.035 m 82.312 71.035 l 82.395 62.734 l 86.832 62.734 l 86.832 
64.055 l 83.93 64.055 l 83.906 66.191 l 86.785 66.191 l 86.785 67.438 l 
83.895 67.438 l 83.883 69.719 l 86.832 69.719 l h
86.832 71.035 m f
88.574 63 m 90.004 62.566 l 93.875 68.926 l 93.898 68.926 l 93.805 62.734
 l 95.34 62.734 l 95.266 70.773 l 93.719 71.203 l 89.941 64.883 l 89.918
 64.906 l 90.039 71.035 l 88.504 71.035 l h
88.574 63 m f
101.25 69.887 m 102.316 69.887 102.832 69.633 103.336 69.344 c 103.949 
70.402 l 103.18 70.941 102.258 71.203 101.312 71.203 c 98.84 71.203 97.004
 69.395 97.004 66.91 c 97.004 64.355 98.793 62.57 101.25 62.57 c 102.246
 62.57 103.195 62.895 103.961 63.527 c 103.289 64.598 l 102.773 64.164 101.969
 63.887 101.297 63.887 c 99.68 63.887 98.613 65.172 98.613 66.836 c 98.613
 68.422 99.703 69.887 101.25 69.887 c f
109.602 71.035 m 105.082 71.035 l 105.164 62.734 l 109.602 62.734 l 109.602
 64.055 l 106.699 64.055 l 106.676 66.191 l 109.555 66.191 l 109.555 67.438
 l 106.664 67.438 l 106.648 69.719 l 109.602 69.719 l h
109.602 71.035 m f
46.324 78.805 m 47.125 78.805 l 49.008 84.062 l 51.031 78.805 l 51.871 
78.805 l 52.859 85.035 l 52.102 85.16 l 51.312 79.832 l 51.293 79.832 l 
49.355 85.035 l 48.621 85.035 l 46.809 79.832 l 46.793 79.832 l 45.938 85.16
 l 45.188 85.035 l h
46.324 78.805 m f
55.238 84.621 m 55.68 84.621 56.023 84.316 56.301 83.965 c 56.34 82.695
 l 55.086 82.867 54.438 83.09 54.438 83.855 c 54.438 84.359 54.734 84.621
 55.238 84.621 c 57.293 84.621 m 57.445 84.621 57.555 84.551 57.672 84.469
 c 57.867 84.84 l 57.617 85.047 57.348 85.16 57.031 85.16 c 56.625 85.16
 56.402 84.801 56.363 84.414 c 56.016 84.84 55.594 85.16 55.016 85.16 c 
54.223 85.16 53.719 84.621 53.719 83.863 c 53.719 82.586 55.355 82.309 56.34
 82.262 c 56.348 82.074 56.355 81.887 56.355 81.695 c 56.355 81.309 56.148
 81.02 55.672 81.02 c 55.32 81.02 55.016 81.137 54.375 81.641 c 54.078 81.176
 l 54.969 80.598 55.277 80.426 55.914 80.426 c 56.672 80.426 57.039 80.867
 57.039 81.559 c 57.039 82.418 56.969 83.188 56.969 83.98 c 56.969 84.309
 57.016 84.621 57.293 84.621 c f
59.879 85.16 m 59.348 85.16 58.879 84.98 58.473 84.723 c 58.777 84.242 
l 59.031 84.414 59.383 84.621 59.77 84.621 c 60.164 84.621 60.641 84.406
 60.641 83.902 c 60.641 82.785 58.562 83.27 58.562 81.766 c 58.562 80.922
 59.254 80.426 60.074 80.426 c 60.578 80.426 61.047 80.578 61.379 80.805
 c 61.047 81.266 l 60.785 81.121 60.508 80.969 60.191 80.969 c 59.66 80.969
 59.281 81.176 59.281 81.715 c 59.281 82.676 61.363 82.281 61.363 83.805
 c 61.363 84.668 60.613 85.16 59.879 85.16 c f
63.688 84.621 m 64.129 84.621 64.469 84.316 64.75 83.965 c 64.785 82.695
 l 63.535 82.867 62.887 83.09 62.887 83.855 c 62.887 84.359 63.184 84.621
 63.688 84.621 c 65.738 84.621 m 65.895 84.621 66 84.551 66.117 84.469 c
 66.316 84.84 l 66.062 85.047 65.793 85.16 65.48 85.16 c 65.074 85.16 64.848
 84.801 64.812 84.414 c 64.461 84.84 64.039 85.16 63.461 85.16 c 62.672 
85.16 62.168 84.621 62.168 83.863 c 62.168 82.586 63.805 82.309 64.785 82.262
 c 64.793 82.074 64.805 81.887 64.805 81.695 c 64.805 81.309 64.598 81.02
 64.117 81.02 c 63.77 81.02 63.461 81.137 62.824 81.641 c 62.527 81.176 
l 63.418 80.598 63.723 80.426 64.363 80.426 c 65.117 80.426 65.488 80.867
 65.488 81.559 c 65.488 82.418 65.418 83.188 65.418 83.98 c 65.418 84.309
 65.461 84.621 65.738 84.621 c f
69.035 81.129 m 68.738 81.129 68.262 81.371 67.875 82.094 c 67.84 85.035
 l 67.121 85.035 l 67.156 80.555 l 67.895 80.555 l 67.883 81.426 l 67.902
 81.441 l 68.047 81.047 68.504 80.426 69.145 80.426 c 69.289 80.426 69.414
 80.445 69.531 80.488 c 69.316 81.176 l 69.242 81.148 69.137 81.129 69.035
 81.129 c f
70.121 86.621 m 70.816 86.621 71.023 86.457 71.211 86.035 c 71.699 84.965
 l 70.031 80.641 l 70.805 80.426 l 72.051 84.07 l 72.066 84.07 l 73.426 
80.426 l 74.137 80.641 l 72.141 85.594 l 71.637 86.828 71.375 87.16 70.41
 87.16 c 70.121 87.16 l h
70.121 86.621 m f
75.086 78.281 m 75.797 78.281 l 75.762 82.715 l 78.066 80.328 l 78.543 
80.797 l 76.652 82.613 l 78.598 84.773 l 78.031 85.234 l 75.762 82.73 l 
75.734 85.035 l 75.031 85.035 l h
75.086 78.281 m f
84.609 84.516 m 85.508 84.516 86.301 84.055 86.301 82.641 c 86.328 78.805
 l 87.102 78.805 l 87.074 82.688 l 87.047 84.684 85.77 85.16 84.555 85.16
 c 83.211 85.16 82.133 84.566 82.133 82.668 c 82.133 82.164 82.141 81.605
 82.152 80.965 c 82.168 78.805 l 82.941 78.805 l 82.926 81.102 l 82.918 
81.688 82.906 82.281 82.906 82.855 c 82.906 84 83.5 84.516 84.609 84.516
 c f
90.664 81.074 m 90.195 81.074 89.781 81.336 89.32 81.902 c 89.285 85.035
 l 88.566 85.035 l 88.602 80.551 l 89.32 80.551 l 89.297 81.273 l 89.312
 81.273 l 89.699 80.73 90.293 80.426 90.836 80.426 c 91.871 80.426 92.203
 80.957 92.203 81.785 c 92.203 82.137 92.195 82.461 92.195 82.812 c 92.176
 85.035 l 91.457 85.035 l 91.473 83.02 l 91.473 82.625 91.48 82.227 91.48
 81.785 c 91.48 81.289 91.168 81.074 90.664 81.074 c f
93.578 80.555 m 94.297 80.555 l 94.262 85.035 l 93.539 85.035 l h
93.539 78.805 m 94.316 78.805 l 94.316 79.617 l 93.539 79.617 l h
93.539 78.805 m f
99.32 80.645 m 97.512 85.035 l 96.809 85.035 l 95.164 80.625 l 95.91 80.426
 l 97.18 84.172 l 97.195 84.172 l 98.602 80.426 l h
99.32 80.645 m f
102.828 82.211 m 102.828 81.57 102.559 80.965 101.828 80.965 c 101.145 
80.965 100.73 81.598 100.605 82.211 c h
100.539 82.695 m 100.539 82.848 l 100.539 83.785 100.891 84.621 101.812
 84.621 c 102.324 84.621 102.703 84.324 103.09 83.973 c 103.441 84.359 l
 102.98 84.82 102.406 85.16 101.73 85.16 c 100.477 85.16 99.766 84.27 99.766
 82.793 c 99.766 81.57 100.621 80.426 101.82 80.426 c 103.027 80.426 103.547
 81.344 103.547 82.551 c 103.547 82.695 l h
100.539 82.695 m f
106.555 81.129 m 106.258 81.129 105.781 81.371 105.391 82.094 c 105.355
 85.035 l 104.637 85.035 l 104.672 80.555 l 105.41 80.555 l 105.402 81.426
 l 105.418 81.441 l 105.562 81.047 106.023 80.426 106.66 80.426 c 106.805
 80.426 106.93 80.445 107.047 80.488 c 106.832 81.176 l 106.762 81.148 106.652
 81.129 106.555 81.129 c f
108.828 85.16 m 108.297 85.16 107.828 84.98 107.422 84.723 c 107.727 84.242
 l 107.98 84.414 108.332 84.621 108.719 84.621 c 109.113 84.621 109.594 
84.406 109.594 83.902 c 109.594 82.785 107.512 83.27 107.512 81.766 c 107.512
 80.922 108.207 80.426 109.023 80.426 c 109.527 80.426 109.996 80.578 110.332
 80.805 c 109.996 81.266 l 109.734 81.121 109.457 80.969 109.141 80.969 
c 108.609 80.969 108.234 81.176 108.234 81.715 c 108.234 82.676 110.312 
82.281 110.312 83.805 c 110.312 84.668 109.566 85.16 108.828 85.16 c f
111.348 80.555 m 112.066 80.555 l 112.031 85.035 l 111.312 85.035 l h
111.312 78.805 m 112.086 78.805 l 112.086 79.617 l 111.312 79.617 l h
111.312 78.805 m f
112.949 80.555 m 113.723 80.555 l 113.738 78.898 l 114.461 78.898 l 114.441
 80.555 l 115.668 80.555 l 115.668 81.094 l 114.434 81.094 l 114.414 82.93
 l 114.406 83.184 114.406 83.398 114.406 83.57 c 114.406 83.992 l 114.406
 84.359 114.504 84.566 114.82 84.566 c 115.062 84.566 115.367 84.414 115.539
 84.309 c 115.773 84.773 l 115.477 84.98 115.047 85.16 114.648 85.16 c 113.957
 85.16 113.688 84.738 113.688 84.02 c 113.688 83.496 l 113.688 83.297 113.688
 83.047 113.695 82.73 c 113.711 81.094 l 112.949 81.094 l h
112.949 80.555 m f
116.352 86.621 m 117.043 86.621 117.25 86.457 117.441 86.035 c 117.926 
84.965 l 116.262 80.641 l 117.035 80.426 l 118.277 84.07 l 118.297 84.07
 l 119.656 80.426 l 120.367 80.641 l 118.367 85.594 l 117.863 86.828 117.602
 87.16 116.641 87.16 c 116.352 87.16 l h
116.352 86.621 m f
32.816 0 m 32.816 83.84 l 1.199 83.84 l 1.199 0 l 0 0 l 0 85.039 l 34.016
 85.039 l 34.016 0 l h
32.816 0 m f
26.629 48.559 m 25.641 48.559 24.84 49.348 24.84 50.324 c 24.84 66.32 l
 24.84 67.77 24.301 69.078 23.379 70.133 c 23.379 50.297 l 23.379 49.441
 22.742 48.715 21.883 48.598 c 21.031 48.473 20.176 48.969 19.969 49.812
 c 17.035 61.695 17.008 61.789 17.008 61.789 c 17.008 61.789 16.988 61.695
 14.047 49.812 c 13.836 48.969 12.984 48.473 12.129 48.598 c 11.27 48.715
 10.637 49.441 10.637 50.297 c 10.637 70.133 l 9.715 69.078 9.172 67.77 
9.172 66.32 c 9.172 50.324 l 9.172 49.348 8.371 48.559 7.383 48.559 c 6.395
 48.559 5.672 49.348 5.672 50.324 c 5.672 66.32 l 5.672 71.945 10.672 75.879
 17.008 75.879 c 23.34 75.879 28.344 71.945 28.344 66.32 c 28.344 50.324
 l 28.344 49.348 27.617 48.559 26.629 48.559 c 13.965 72.297 m 13.965 62.188
 l 13.973 62.234 14.109 62.832 16.039 70.262 c 16.133 70.613 16.43 71 17.012
 71 c 17.617 71 17.879 70.66 17.988 70.262 c 18.578 67.969 20.047 62.219
 20.047 62.219 c 20.047 72.297 l 19.109 72.609 18.09 72.781 17.008 72.781
 c 15.926 72.781 14.898 72.609 13.965 72.297 c f
  Q
Q
Q Q
showpage
%%Trailer
end
%%EOF
