%!PS-Adobe-3.0 EPSF-3.0
%%Creator: cairo 1.16.0 (https://cairographics.org)
%%CreationDate: Mon Dec 16 01:49:08 2019
%%Pages: 1
%%DocumentData: Clean7Bit
%%LanguageLevel: 2
%%BoundingBox: 0 0 134 88
%%EndComments
%%BeginProlog
50 dict begin
/q { gsave } bind def
/Q { grestore } bind def
/cm { 6 array astore concat } bind def
/w { setlinewidth } bind def
/J { setlinecap } bind def
/j { setlinejoin } bind def
/M { setmiterlimit } bind def
/d { setdash } bind def
/m { moveto } bind def
/l { lineto } bind def
/c { curveto } bind def
/h { closepath } bind def
/re { exch dup neg 3 1 roll 5 3 roll moveto 0 rlineto
      0 exch rlineto 0 rlineto closepath } bind def
/S { stroke } bind def
/f { fill } bind def
/f* { eofill } bind def
/n { newpath } bind def
/W { clip } bind def
/W* { eoclip } bind def
/BT { } bind def
/ET { } bind def
/BDC { mark 3 1 roll /BDC pdfmark } bind def
/EMC { mark /EMC pdfmark } bind def
/cairo_store_point { /cairo_point_y exch def /cairo_point_x exch def } def
/Tj { show currentpoint cairo_store_point } bind def
/TJ {
  {
    dup
    type /stringtype eq
    { show } { -0.001 mul 0 cairo_font_matrix dtransform rmoveto } ifelse
  } forall
  currentpoint cairo_store_point
} bind def
/cairo_selectfont { cairo_font_matrix aload pop pop pop 0 0 6 array astore
    cairo_font exch selectfont cairo_point_x cairo_point_y moveto } bind def
/Tf { pop /cairo_font exch def /cairo_font_matrix where
      { pop cairo_selectfont } if } bind def
/Td { matrix translate cairo_font_matrix matrix concatmatrix dup
      /cairo_font_matrix exch def dup 4 get exch 5 get cairo_store_point
      /cairo_font where { pop cairo_selectfont } if } bind def
/Tm { 2 copy 8 2 roll 6 array astore /cairo_font_matrix exch def
      cairo_store_point /cairo_font where { pop cairo_selectfont } if } bind def
/g { setgray } bind def
/rg { setrgbcolor } bind def
/d1 { setcachedevice } bind def
/cairo_data_source {
  CairoDataIndex CairoData length lt
    { CairoData CairoDataIndex get /CairoDataIndex CairoDataIndex 1 add def }
    { () } ifelse
} def
/cairo_flush_ascii85_file { cairo_ascii85_file status { cairo_ascii85_file flushfile } if } def
/cairo_image { image cairo_flush_ascii85_file } def
/cairo_imagemask { imagemask cairo_flush_ascii85_file } def
%%EndProlog
%%BeginSetup
%%EndSetup
%%Page: 1 1
%%BeginPageSetup
%%PageBoundingBox: 0 0 134 88
%%EndPageSetup
q 0 0 134 88 rectclip
1 0 0 -1 0 88 cm q
1 g
45.625 48.738 m 50.219 48.738 l 50.207 50.055 l 47.16 50.055 l 47.148 52.191
 l 50.172 52.191 l 50.156 53.512 l 47.125 53.512 l 47.113 57.039 l 45.543
 57.039 l h
45.625 48.738 m f
51.645 48.738 m 53.18 48.738 l 53.105 57.039 l 51.57 57.039 l h
51.645 48.738 m f
59.887 57.035 m 55.102 57.035 l 55.172 48.738 l 56.707 48.738 l 56.637 
55.719 l 59.887 55.719 l h
59.887 57.035 m f
q
0 0 134 88 re W n
  q
1 g
61.98 52.887 m 61.98 54.699 63.109 55.957 64.824 55.957 c 66.539 55.957
 67.664 54.531 67.664 52.887 c 67.664 51.125 66.539 49.816 64.824 49.816
 c 63.43 49.816 61.98 50.969 61.98 52.887 c 60.375 52.887 m 60.375 50.465
 62.352 48.57 64.824 48.57 c 67.508 48.57 69.273 50.465 69.273 52.887 c 
69.273 55.312 67.34 57.203 64.824 57.203 c 62.305 57.203 60.375 55.418 60.375
 52.887 c f
75.73 57.035 m 70.48 57.035 l 70 56.055 l 73.969 50.059 l 70.191 50.059
 l 70.191 48.738 l 75.445 48.738 l 75.926 49.84 l 72.027 55.719 l 75.73 
55.719 l h
75.73 57.035 m f
78.246 52.887 m 78.246 54.699 79.371 55.957 81.086 55.957 c 82.801 55.957
 83.93 54.531 83.93 52.887 c 83.93 51.125 82.801 49.816 81.086 49.816 c 
79.695 49.816 78.246 50.969 78.246 52.887 c 76.637 52.887 m 76.637 50.465
 78.617 48.57 81.086 48.57 c 83.773 48.57 85.535 50.465 85.535 52.887 c 
85.535 55.312 83.605 57.203 81.086 57.203 c 78.57 57.203 76.637 55.418 76.637
 52.887 c f
87.105 48.738 m 91.699 48.738 l 91.688 50.055 l 88.641 50.055 l 88.629 
52.191 l 91.652 52.191 l 91.641 53.512 l 88.605 53.512 l 88.594 57.039 l
 87.023 57.039 l h
87.105 48.738 m f
93.125 48.738 m 94.66 48.738 l 94.586 57.039 l 93.051 57.039 l h
93.125 48.738 m f
100.527 55.887 m 101.594 55.887 102.109 55.633 102.613 55.348 c 103.223
 56.402 l 102.457 56.941 101.531 57.203 100.586 57.203 c 98.113 57.203 96.281
 55.395 96.281 52.91 c 96.281 50.355 98.066 48.57 100.527 48.57 c 101.52
 48.57 102.469 48.895 103.234 49.531 c 102.566 50.598 l 102.051 50.164 101.246
 49.891 100.574 49.891 c 98.953 49.891 97.887 51.172 97.887 52.84 c 97.887
 54.422 98.98 55.887 100.527 55.887 c f
104.449 48.738 m 105.98 48.738 l 105.957 52.609 l 106.02 52.609 l 109.414
 48.57 l 110.551 49.48 l 107.59 52.758 l 110.516 56.316 l 109.27 57.207 
l 105.98 53.031 l 105.957 53.031 l 105.922 57.039 l 104.387 57.039 l h
104.449 48.738 m f
115.336 46.266 m 116.953 46.266 l 115.273 47.945 l 114.281 47.945 l h
115.133 50.344 m 115.105 50.344 l 114.062 53.582 l 116.09 53.582 l h
112.688 57.207 m 111.258 56.773 l 114.449 48.738 l 115.863 48.738 l 118.824
 56.773 l 117.324 57.207 l 116.512 54.832 l 113.621 54.832 l h
112.688 57.207 m f
45.637 62.738 m 50.23 62.738 l 50.219 64.055 l 47.172 64.055 l 47.16 66.191
 l 50.184 66.191 l 50.168 67.512 l 47.137 67.512 l 47.125 71.039 l 45.555
 71.039 l h
45.637 62.738 m f
54.305 64.344 m 54.281 64.344 l 53.238 67.582 l 55.262 67.582 l h
51.855 71.203 m 50.43 70.773 l 53.621 62.738 l 55.035 62.738 l 57.996 70.773
 l 56.5 71.203 l 55.684 68.832 l 52.793 68.832 l h
51.855 71.203 m f
59.16 62.738 m 60.695 62.738 l 60.672 66.609 l 60.73 66.609 l 64.125 62.57
 l 65.266 63.48 l 62.301 66.758 l 65.227 70.316 l 63.98 71.207 l 60.695 
67.031 l 60.672 67.031 l 60.637 71.039 l 59.102 71.039 l h
59.16 62.738 m f
69.746 69.887 m 70.957 69.887 71.594 69.094 71.605 67.953 c 71.652 62.738
 l 73.191 62.738 l 73.141 68.039 l 73.105 70.078 71.703 71.203 69.723 71.203
 c 67.758 71.203 66.379 70.113 66.379 67.953 c 66.379 66.215 66.414 64.477
 66.426 62.738 c 67.961 62.738 l 67.949 64.512 67.914 66.266 67.914 68.039
 c 67.914 69.203 68.727 69.887 69.746 69.887 c f
79.887 71.035 m 75.102 71.035 l 75.172 62.738 l 76.707 62.738 l 76.637 
69.719 l 79.887 69.719 l h
79.887 71.035 m f
81.836 64.059 m 79.512 64.059 l 79.523 62.738 l 85.676 62.738 l 85.664 
64.059 l 83.371 64.059 l 83.312 71.035 l 81.777 71.035 l h
81.836 64.059 m f
89.133 64.344 m 89.109 64.344 l 88.066 67.582 l 90.09 67.582 l h
86.684 71.203 m 85.258 70.773 l 88.449 62.738 l 89.863 62.738 l 92.828 
70.773 l 91.328 71.203 l 90.512 68.832 l 87.621 68.832 l h
86.684 71.203 m f
46.324 78.809 m 47.125 78.809 l 49.004 84.066 l 51.031 78.809 l 51.867 
78.809 l 52.859 85.035 l 52.102 85.164 l 51.309 79.832 l 51.293 79.832 l
 49.355 85.035 l 48.617 85.035 l 46.809 79.832 l 46.789 79.832 l 45.934 
85.164 l 45.188 85.035 l h
46.324 78.809 m f
55.238 84.625 m 55.68 84.625 56.023 84.316 56.301 83.965 c 56.34 82.695
 l 55.086 82.867 54.438 83.094 54.438 83.859 c 54.438 84.363 54.734 84.625
 55.238 84.625 c 57.293 84.625 m 57.445 84.625 57.555 84.551 57.668 84.469
 c 57.867 84.84 l 57.617 85.047 57.348 85.164 57.031 85.164 c 56.625 85.164
 56.402 84.805 56.363 84.418 c 56.012 84.84 55.59 85.164 55.016 85.164 c
 54.223 85.164 53.719 84.625 53.719 83.867 c 53.719 82.59 55.355 82.309 
56.34 82.266 c 56.348 82.074 56.355 81.887 56.355 81.695 c 56.355 81.309
 56.148 81.023 55.672 81.023 c 55.32 81.023 55.016 81.141 54.375 81.645 
c 54.078 81.176 l 54.969 80.598 55.273 80.43 55.914 80.43 c 56.672 80.43
 57.039 80.867 57.039 81.562 c 57.039 82.418 56.969 83.191 56.969 83.984
 c 56.969 84.309 57.012 84.625 57.293 84.625 c f
59.875 85.164 m 59.344 85.164 58.875 84.984 58.473 84.723 c 58.777 84.246
 l 59.031 84.418 59.383 84.625 59.77 84.625 c 60.164 84.625 60.641 84.406
 60.641 83.902 c 60.641 82.785 58.562 83.273 58.562 81.77 c 58.562 80.922
 59.254 80.43 60.074 80.43 c 60.578 80.43 61.047 80.582 61.379 80.805 c 
61.047 81.266 l 60.785 81.121 60.508 80.969 60.191 80.969 c 59.66 80.969
 59.281 81.176 59.281 81.715 c 59.281 82.68 61.359 82.281 61.359 83.805 
c 61.359 84.668 60.613 85.164 59.875 85.164 c f
63.688 84.625 m 64.129 84.625 64.469 84.316 64.75 83.965 c 64.785 82.695
 l 63.531 82.867 62.887 83.094 62.887 83.859 c 62.887 84.363 63.184 84.625
 63.688 84.625 c 65.738 84.625 m 65.891 84.625 66 84.551 66.117 84.469 c
 66.316 84.84 l 66.062 85.047 65.793 85.164 65.477 85.164 c 65.074 85.164
 64.848 84.805 64.812 84.418 c 64.461 84.84 64.039 85.164 63.461 85.164 
c 62.668 85.164 62.164 84.625 62.164 83.867 c 62.164 82.59 63.805 82.309
 64.785 82.266 c 64.793 82.074 64.805 81.887 64.805 81.695 c 64.805 81.309
 64.598 81.023 64.117 81.023 c 63.766 81.023 63.461 81.141 62.82 81.645 
c 62.523 81.176 l 63.418 80.598 63.723 80.43 64.359 80.43 c 65.117 80.43
 65.488 80.867 65.488 81.562 c 65.488 82.418 65.414 83.191 65.414 83.984
 c 65.414 84.309 65.461 84.625 65.738 84.625 c f
69.035 81.129 m 68.738 81.129 68.262 81.371 67.875 82.094 c 67.84 85.035
 l 67.117 85.035 l 67.152 80.555 l 67.895 80.555 l 67.883 81.426 l 67.902
 81.445 l 68.047 81.051 68.504 80.43 69.145 80.43 c 69.289 80.43 69.414 
80.445 69.531 80.492 c 69.316 81.176 l 69.242 81.148 69.133 81.129 69.035
 81.129 c f
70.121 86.621 m 70.816 86.621 71.023 86.461 71.211 86.035 c 71.699 84.965
 l 70.031 80.645 l 70.805 80.43 l 72.047 84.074 l 72.066 84.074 l 73.426
 80.43 l 74.137 80.645 l 72.141 85.598 l 71.633 86.828 71.371 87.16 70.41
 87.16 c 70.121 87.16 l h
70.121 86.621 m f
75.086 78.285 m 75.797 78.285 l 75.758 82.715 l 78.066 80.328 l 78.543 
80.797 l 76.652 82.613 l 78.594 84.777 l 78.027 85.234 l 75.758 82.73 l 
75.734 85.039 l 75.031 85.039 l h
75.086 78.285 m f
79.859 82.793 m 79.859 84.035 80.461 84.621 81.191 84.621 c 81.867 84.621
 82.594 84.035 82.594 82.793 c 82.594 81.555 81.992 80.969 81.262 80.969
 c 80.586 80.969 79.859 81.555 79.859 82.793 c 79.082 82.793 m 79.082 81.637
 79.848 80.43 81.273 80.43 c 82.586 80.43 83.367 81.316 83.367 82.793 c 
83.367 83.957 82.594 85.164 81.18 85.164 c 79.859 85.164 79.082 84.281 79.082
 82.793 c f
88.016 80.645 m 86.207 85.039 l 85.504 85.039 l 83.855 80.625 l 84.602 
80.426 l 85.871 84.172 l 85.891 84.172 l 87.293 80.426 l h
88.016 80.645 m f
90.023 84.625 m 90.465 84.625 90.809 84.316 91.086 83.965 c 91.121 82.695
 l 89.871 82.867 89.223 83.094 89.223 83.859 c 89.223 84.363 89.52 84.625
 90.023 84.625 c 92.078 84.625 m 92.23 84.625 92.336 84.551 92.453 84.469
 c 92.652 84.84 l 92.402 85.047 92.129 85.164 91.816 85.164 c 91.41 85.164
 91.184 84.805 91.148 84.418 c 90.797 84.84 90.375 85.164 89.797 85.164 
c 89.008 85.164 88.504 84.625 88.504 83.867 c 88.504 82.59 90.141 82.309
 91.121 82.266 c 91.129 82.074 91.141 81.887 91.141 81.695 c 91.141 81.309
 90.934 81.023 90.457 81.023 c 90.105 81.023 89.797 81.141 89.16 81.645 
c 88.863 81.176 l 89.754 80.598 90.059 80.43 90.699 80.43 c 91.457 80.43
 91.824 80.867 91.824 81.562 c 91.824 82.418 91.754 83.191 91.754 83.984
 c 91.754 84.309 91.797 84.625 92.078 84.625 c f
95.836 83.805 m 95.836 83.453 95.848 83.129 95.848 82.777 c 95.863 80.555
 l 96.586 80.555 l 96.566 82.57 l 96.566 82.965 96.559 83.363 96.559 83.805
 c 96.559 84.297 96.871 84.516 97.375 84.516 c 97.844 84.516 98.258 84.254
 98.719 83.688 c 98.754 80.555 l 99.473 80.555 l 99.438 85.035 l 98.719 
85.035 l 98.746 84.316 l 98.727 84.316 l 98.34 84.855 97.746 85.164 97.207
 85.164 c 96.172 85.164 95.836 84.633 95.836 83.805 c f
102.949 81.074 m 102.48 81.074 102.066 81.336 101.609 81.902 c 101.57 85.039
 l 100.852 85.039 l 100.887 80.555 l 101.609 80.555 l 101.582 81.273 l 101.598
 81.273 l 101.984 80.734 102.578 80.43 103.121 80.43 c 104.156 80.43 104.488
 80.961 104.488 81.789 c 104.488 82.137 104.48 82.465 104.48 82.812 c 104.461
 85.039 l 103.742 85.039 l 103.762 83.02 l 103.762 82.625 103.77 82.227 
103.77 81.789 c 103.77 81.293 103.453 81.074 102.949 81.074 c f
105.863 80.555 m 106.582 80.555 l 106.547 85.035 l 105.828 85.035 l h
105.828 78.809 m 106.602 78.809 l 106.602 79.617 l 105.828 79.617 l h
105.828 78.809 m f
111.605 80.645 m 109.797 85.039 l 109.094 85.039 l 107.449 80.625 l 108.195
 80.426 l 109.465 84.172 l 109.48 84.172 l 110.887 80.426 l h
111.605 80.645 m f
115.113 82.211 m 115.113 81.57 114.844 80.969 114.113 80.969 c 113.43 80.969
 113.016 81.598 112.891 82.211 c h
112.824 82.695 m 112.824 82.852 l 112.824 83.785 113.176 84.621 114.098
 84.621 c 114.609 84.621 114.988 84.324 115.375 83.977 c 115.727 84.359 
l 115.266 84.82 114.691 85.164 114.016 85.164 c 112.762 85.164 112.051 84.273
 112.051 82.797 c 112.051 81.57 112.906 80.43 114.105 80.43 c 115.312 80.43
 115.832 81.348 115.832 82.555 c 115.832 82.695 l h
112.824 82.695 m f
118.84 81.129 m 118.543 81.129 118.066 81.371 117.68 82.094 c 117.641 85.035
 l 116.922 85.035 l 116.957 80.555 l 117.695 80.555 l 117.688 81.426 l 117.703
 81.445 l 117.848 81.051 118.309 80.43 118.945 80.43 c 119.09 80.43 119.219
 80.445 119.336 80.492 c 119.117 81.176 l 119.047 81.148 118.938 81.129 
118.84 81.129 c f
123.148 85.035 m 119.898 85.035 l 119.746 84.66 l 122.266 81.203 l 119.961
 81.203 l 119.961 80.555 l 123.141 80.555 l 123.293 80.879 l 120.746 84.441
 l 123.148 84.441 l h
123.148 85.035 m f
124.199 80.555 m 124.922 80.555 l 124.887 85.035 l 124.164 85.035 l h
124.164 78.809 m 124.938 78.809 l 124.938 79.617 l 124.164 79.617 l h
124.164 78.809 m f
125.801 80.555 m 126.574 80.555 l 126.594 78.898 l 127.312 78.898 l 127.297
 80.555 l 128.52 80.555 l 128.52 81.094 l 127.285 81.094 l 127.27 82.93 
l 127.258 83.184 127.258 83.398 127.258 83.57 c 127.258 83.992 l 127.258
 84.363 127.359 84.57 127.676 84.57 c 127.918 84.57 128.223 84.414 128.395
 84.309 c 128.629 84.777 l 128.332 84.984 127.898 85.164 127.504 85.164 
c 126.809 85.164 126.539 84.742 126.539 84.02 c 126.539 83.496 l 126.539
 83.301 126.539 83.047 126.547 82.734 c 126.566 81.094 l 125.801 81.094 
l h
125.801 80.555 m f
130.684 84.625 m 131.125 84.625 131.465 84.316 131.746 83.965 c 131.781
 82.695 l 130.531 82.867 129.883 83.094 129.883 83.859 c 129.883 84.363 
130.18 84.625 130.684 84.625 c 132.734 84.625 m 132.891 84.625 132.996 84.551
 133.113 84.469 c 133.312 84.84 l 133.059 85.047 132.789 85.164 132.477 
85.164 c 132.07 85.164 131.844 84.805 131.809 84.418 c 131.457 84.84 131.035
 85.164 130.457 85.164 c 129.668 85.164 129.164 84.625 129.164 83.867 c 
129.164 82.59 130.801 82.309 131.781 82.266 c 131.789 82.074 131.801 81.887
 131.801 81.695 c 131.801 81.309 131.594 81.023 131.113 81.023 c 130.766
 81.023 130.457 81.141 129.82 81.645 c 129.523 81.176 l 130.414 80.598 130.719
 80.43 131.359 80.43 c 132.113 80.43 132.484 80.867 132.484 81.562 c 132.484
 82.418 132.414 83.191 132.414 83.984 c 132.414 84.309 132.457 84.625 132.734
 84.625 c f
32.816 0 m 32.816 83.84 l 1.199 83.84 l 1.199 0 l 0 0 l 0 85.039 l 34.016
 85.039 l 34.016 0 l h
32.816 0 m f
26.629 48.559 m 25.641 48.559 24.836 49.348 24.836 50.328 c 24.836 66.32
 l 24.836 67.773 24.301 69.078 23.379 70.133 c 23.379 50.297 l 23.379 49.441
 22.742 48.715 21.883 48.598 c 21.031 48.473 20.176 48.969 19.969 49.816
 c 17.035 61.699 17.008 61.789 17.008 61.789 c 17.008 61.789 16.988 61.699
 14.043 49.812 c 13.832 48.969 12.984 48.473 12.129 48.598 c 11.273 48.715
 10.637 49.441 10.637 50.297 c 10.637 70.133 l 9.715 69.078 9.172 67.773
 9.172 66.32 c 9.172 50.328 l 9.172 49.348 8.371 48.559 7.383 48.559 c 6.395
 48.559 5.668 49.348 5.668 50.328 c 5.668 66.32 l 5.668 71.949 10.672 75.879
 17.008 75.879 c 23.34 75.879 28.344 71.949 28.344 66.32 c 28.344 50.328
 l 28.344 49.348 27.617 48.559 26.629 48.559 c 13.965 72.297 m 13.965 62.191
 l 13.973 62.234 14.109 62.832 16.039 70.262 c 16.133 70.617 16.43 71 17.012
 71 c 17.617 71 17.879 70.664 17.988 70.262 c 18.578 67.969 20.047 62.219
 20.047 62.219 c 20.047 72.297 l 19.109 72.609 18.09 72.781 17.008 72.781
 c 15.926 72.781 14.902 72.609 13.965 72.297 c f
  Q
Q
Q Q
showpage
%%Trailer
end
%%EOF
