%!PS-Adobe-3.0
%%Title: flattened PostScript generated from file: xb.eps
%%Creator: pstoedit
%%BoundingBox: -85 -14 85 14 
%%Pages: (atend)
%%EndComments
%%BeginProlog
/setPageSize { pop pop } def
/ntranslate { neg exch neg exch translate } def
/p2esetcolorname { pop } def
/setshowparams { pop pop pop} def
/awidthshowhex { dup length 0 gt { dup /ASCIIHexDecode filter exch length 2 div cvi string readstring pop } if awidthshow } def
/awidthshowhexwithglyphs { true { pop awidthshowhex } { { glyphshow } forall pop } ifelse } def
/backendconstraints { pop pop } def
%%>>> /pstoedit.newfont { 80 string cvs  findfont  dup length dict begin {1 index /FID ne {def} {pop pop} ifelse} forall  /Encoding ISOLatin1Encoding def   dup 80 string cvs /FontName exch def  currentdict end  definefont pop } def
/imagestring 1 string def
%%EndProlog
%%BeginSetup
% pstoedit.textastext pstoedit.doflatten backendconstraints   
1 0 backendconstraints
%%EndSetup
%%Page: 1 1
save %{
 
 
% 1                   pathnumber
% eofilledpath
 612 792 setPageSize
 0 setlinecap
 10.0 setmiterlimit
 0 setlinejoin
 [ ] 0.0 setdash
 0.137902 setlinewidth
 0.0 0.0 0.0 1.0 setcmykcolor
() p2esetcolorname
newpath
 76.2773 -11.0234 moveto
 81.2852 0.0546875 lineto
 81.4844 0.503906 81.6289 0.503906 81.6992 0.503906 curveto
 81.7344 0.503906 81.8789 0.503906 82.1836 0.269531 curveto
 84.8945 -1.77734 lineto
 85.2539 -2.06641 85.2539 -2.13666 85.2539 -2.22656 curveto
 85.2539 -2.37109 85.1836 -2.55078 84.9688 -2.55078 curveto
 84.8047 -2.55078 84.3203 -2.13666 84.0156 -1.92188 curveto
 83.8359 -1.77734 83.4062 -1.45312 83.0977 -1.23828 curveto
 77.5 -13.5586 lineto
 77.3008 -14.0078 77.1562 -14.0078 76.8867 -14.0078 curveto
 76.4727 -14.0078 76.3867 -13.8438 76.1875 -13.4336 curveto
 63.2773 13.3046 lineto
 63.0625 13.6992 63.0625 13.8242 63.0625 13.8789 curveto
 63.0625 14.168 63.293 14.4375 63.6367 14.4375 curveto
 63.8711 14.4375 64.0664 14.2929 64.3008 13.8438 curveto
 76.2773 -11.0234 lineto
 closepath
 63.6211 13.3046 moveto
eofill
gsave %{
  
 
% 2                   pathnumber
% filledpath
 0 setlinecap
 10.0 setmiterlimit
 0 setlinejoin
 [ ] 0.0 setdash
 0.137902 setlinewidth
 0.0 0.0 0.0 1.0 setcmykcolor
() p2esetcolorname
newpath
 63.2031 13.2149 moveto
 6.11328 13.2149 lineto
 6.11328 14.4531 lineto
 63.2031 14.4531 lineto
fill
grestore %}
  
 
% 3                   pathnumber
% eofilledpath
 0 setlinecap
 10.0 setmiterlimit
 0 setlinejoin
 [ ] 0.0 setdash
 0.137902 setlinewidth
 0.0 0.0 0.0 1.0 setcmykcolor
() p2esetcolorname
newpath
 52.1836 -6.28516 moveto
 52.418 -6.5351 52.5625 -6.71484 52.8125 -7.05859 curveto
 53.4609 -7.90234 53.8008 -8.1875 54.125 -8.1875 curveto
 54.5547 -8.1875 54.8047 -7.82806 55.0039 -7.01953 curveto
 55.0586 -6.80469 55.0938 -6.625 55.1094 -6.5351 curveto
 55.8281 -3.66406 56.1367 -2.3515 56.1367 -1.94141 curveto
 54.8945 0.25 53.8711 1.50781 53.3516 1.50781 curveto
 53.1719 1.50781 52.957 1.41797 52.668 1.2735 curveto
 52.3281 1.07812 52.1289 1.02344 51.8984 1.02344 curveto
 51.3047 1.02344 50.9102 1.45312 50.9102 2.04694 curveto
 50.9102 2.64062 51.3945 3.10547 52.0781 3.10547 curveto
 53.3164 3.10547 54.4102 2.08203 56.3672 -0.96875 curveto
 56.6719 0.59375 lineto
 57.0859 2.53125 57.3906 3.10547 58.1641 3.10547 curveto
 58.793 3.10547 59.7617 2.85547 61.4844 2.28125 curveto
 61.8086 2.15625 lineto
 61.6836 1.74219 lineto
 60.6055 1.99219 60.3555 2.04694 60.1016 2.04694 curveto
 59.3867 2.04694 59.207 1.79688 58.8086 0.0898438 curveto
 57.9844 -3.41016 lineto
 60.3164 -6.73438 lineto
 60.8945 -7.59375 61.4688 -8.11719 61.7734 -8.11719 curveto
 61.9531 -8.11719 62.2227 -8.02734 62.5078 -7.84766 curveto
 62.8867 -7.64844 63.1914 -7.55859 63.4258 -7.55859 curveto
 63.9648 -7.55859 64.3945 -7.99225 64.3945 -8.56641 curveto
 64.3945 -9.30078 63.8203 -9.75 62.9766 -9.75 curveto
 62.0781 -9.75 61.7383 -9.5 60.3164 -7.77728 curveto
 59.5469 -6.85938 58.9531 -6.08594 57.7695 -4.43359 curveto
 56.9062 -7.84766 lineto
 56.5312 -9.30078 56.1719 -9.75 55.2539 -9.75 curveto
 54.1797 -9.75 53.4414 -9.06641 51.7891 -6.51953 curveto
 52.1836 -6.28516 lineto
 closepath
 50.9375 -9.44531 moveto
eofill
 
 
% 4                   pathnumber
% eofilledpath
 0 setlinecap
 10.0 setmiterlimit
 0 setlinejoin
 [ ] 0.0 setdash
 0.137902 setlinewidth
 0.0 0.0 0.0 1.0 setcmykcolor
() p2esetcolorname
newpath
 28.1914 -2.91016 moveto
 27.707 -2.91016 27.1836 -2.91016 27.1836 -2.33594 curveto
 27.1836 -1.75781 27.707 -1.75781 28.1914 -1.75781 curveto
 43.5781 -1.75781 lineto
 44.0625 -1.75781 44.5664 -1.75781 44.5664 -2.33594 curveto
 44.5664 -2.91016 44.0625 -2.91016 43.5781 -2.91016 curveto
 28.1914 -2.91016 lineto
 closepath
 24.7383 -13.8594 moveto
eofill
 
 
% 5                   pathnumber
% eofilledpath
 0 setlinecap
 10.0 setmiterlimit
 0 setlinejoin
 [ ] 0.0 setdash
 0.137902 setlinewidth
 0.0 0.0 0.0 1.0 setcmykcolor
() p2esetcolorname
newpath
 12.4609 9.78516 moveto
 17.5781 7.19922 lineto
 17.5781 6.80469 lineto
 17.2383 6.94922 16.9336 7.05859 16.8086 7.10938 curveto
 16.3047 7.30853 15.8203 7.43359 15.5312 7.43359 curveto
 14.9375 7.43359 14.6875 7.00385 14.6875 6.08594 curveto
 14.6875 -6.80469 lineto
 14.6875 -7.73834 14.9023 -8.38672 15.3711 -8.65625 curveto
 15.7852 -8.90625 16.1797 -8.99609 17.3828 -9.01562 curveto
 17.3828 -9.44531 lineto
 9.53515 -9.44531 lineto
 9.53515 -9.01562 lineto
 11.7773 -8.99609 12.2266 -8.70703 12.2266 -7.34375 curveto
 12.2266 9.73047 lineto
 12.4609 9.78516 lineto
 closepath
 6.53516 -9.44531 moveto
eofill
 
 
% 6                   pathnumber
% eofilledpath
 0 setlinecap
 10.0 setmiterlimit
 0 setlinejoin
 [ ] 0.0 setdash
 0.137902 setlinewidth
 0.0 0.0 0.0 1.0 setcmykcolor
() p2esetcolorname
newpath
 -19.2227 -0.144531 moveto
 -19.6367 -0.144531 -20.1719 -0.144531 -20.1719 0.429688 curveto
 -20.1719 1.00391 -19.6367 1.00391 -19.2383 1.00391 curveto
 -2.19922 1.00391 lineto
 -1.80469 1.00391 -1.26562 1.00391 -1.26562 0.429688 curveto
 -1.26562 -0.144531 -1.80469 -0.144531 -2.23438 -0.144531 curveto
 -19.2227 -0.144531 lineto
 closepath
 -19.2383 -5.65625 moveto
 -19.6367 -5.65625 -20.1719 -5.65625 -20.1719 -5.10162 curveto
 -20.1719 -4.52734 -19.6367 -4.52734 -19.2227 -4.52734 curveto
 -2.23438 -4.52734 lineto
 -1.80469 -4.52734 -1.26562 -4.52734 -1.26562 -5.10162 curveto
 -1.26562 -5.65625 -1.80469 -5.65625 -2.19922 -5.65625 curveto
 -19.2383 -5.65625 lineto
 closepath
 -21.8672 -9.44531 moveto
eofill
 
 
% 7                   pathnumber
% eofilledpath
 0 setlinecap
 10.0 setmiterlimit
 0 setlinejoin
 [ ] 0.0 setdash
 0.137902 setlinewidth
 0.0 0.0 0.0 1.0 setcmykcolor
() p2esetcolorname
newpath
 -39.6484 -6.28516 moveto
 -39.4141 -6.5351 -39.2695 -6.71484 -39.0195 -7.05859 curveto
 -38.3711 -7.90234 -38.0312 -8.1875 -37.707 -8.1875 curveto
 -37.2773 -8.1875 -37.0234 -7.82806 -36.8281 -7.01953 curveto
 -36.7734 -6.80469 -36.7383 -6.625 -36.7188 -6.5351 curveto
 -36.0 -3.66406 -35.6953 -2.3515 -35.6953 -1.94141 curveto
 -36.9336 0.25 -37.957 1.50781 -38.4805 1.50781 curveto
 -38.6602 1.50781 -38.875 1.41797 -39.1602 1.2735 curveto
 -39.5039 1.07812 -39.6992 1.02344 -39.9336 1.02344 curveto
 -40.5273 1.02344 -40.9219 1.45312 -40.9219 2.04694 curveto
 -40.9219 2.64062 -40.4375 3.10547 -39.7539 3.10547 curveto
 -38.5156 3.10547 -37.4219 2.08203 -35.4648 -0.96875 curveto
 -35.1562 0.59375 lineto
 -34.7461 2.53125 -34.4414 3.10547 -33.668 3.10547 curveto
 -33.0391 3.10547 -32.0703 2.85547 -30.3438 2.28125 curveto
 -30.0234 2.15625 lineto
 -30.1484 1.74219 lineto
 -31.2266 1.99219 -31.4766 2.04694 -31.7266 2.04694 curveto
 -32.4453 2.04694 -32.625 1.79688 -33.0195 0.0898438 curveto
 -33.8477 -3.41016 lineto
 -31.5117 -6.73438 lineto
 -30.9375 -7.59375 -30.3633 -8.11719 -30.0586 -8.11719 curveto
 -29.8789 -8.11719 -29.6094 -8.02734 -29.3203 -7.84766 curveto
 -28.9453 -7.64844 -28.6406 -7.55859 -28.4062 -7.55859 curveto
 -27.8672 -7.55859 -27.4375 -7.99225 -27.4375 -8.56641 curveto
 -27.4375 -9.30078 -28.0117 -9.75 -28.8555 -9.75 curveto
 -29.7539 -9.75 -30.0938 -9.5 -31.5117 -7.77728 curveto
 -32.2852 -6.85938 -32.8789 -6.08594 -34.0625 -4.43359 curveto
 -34.9258 -7.84766 lineto
 -35.3008 -9.30078 -35.6602 -9.75 -36.5781 -9.75 curveto
 -37.6523 -9.75 -38.3906 -9.06641 -40.043 -6.51953 curveto
 -39.6484 -6.28516 lineto
 closepath
 -40.8945 -9.44531 moveto
eofill
 
 
% 8                   pathnumber
% eofilledpath
 0 setlinecap
 10.0 setmiterlimit
 0 setlinejoin
 [ ] 0.0 setdash
 0.137902 setlinewidth
 0.0 0.0 0.0 1.0 setcmykcolor
() p2esetcolorname
newpath
 -56.5312 -2.91016 moveto
 -64.4648 -2.91016 lineto
 -64.8633 -2.91016 -65.3984 -2.91016 -65.3984 -2.33594 curveto
 -65.3984 -1.75781 -64.8633 -1.75781 -64.4648 -1.75781 curveto
 -56.5312 -1.75781 lineto
 -56.5312 6.19531 lineto
 -56.5312 6.60938 -56.5312 7.14844 -55.957 7.14844 curveto
 -55.3984 7.14844 -55.3984 6.60938 -55.3984 6.19531 curveto
 -55.3984 -1.75781 lineto
 -47.4258 -1.75781 lineto
 -47.0312 -1.75781 -46.4922 -1.75781 -46.4922 -2.33594 curveto
 -46.4922 -2.91016 -47.0312 -2.91016 -47.4258 -2.91016 curveto
 -55.3984 -2.91016 lineto
 -55.3984 -10.8633 lineto
 -55.3984 -11.2578 -55.3984 -11.8164 -55.957 -11.8164 curveto
 -56.5312 -11.8164 -56.5312 -11.2578 -56.5312 -10.8633 curveto
 -56.5312 -2.91016 lineto
 closepath
 -67.0938 -9.44531 moveto
eofill
 
 
% 9                   pathnumber
% eofilledpath
 0 setlinecap
 10.0 setmiterlimit
 0 setlinejoin
 [ ] 0.0 setdash
 0.137902 setlinewidth
 0.0 0.0 0.0 1.0 setcmykcolor
() p2esetcolorname
newpath
 -83.7852 10.0195 moveto
 -80.5352 9.73047 -78.8867 9.19141 -76.8008 7.73828 curveto
 -73.7305 5.54681 -72.0625 2.29688 -72.0625 -1.50781 curveto
 -72.0625 -3.98828 -72.832 -6.48431 -74.0547 -7.90234 curveto
 -75.1328 -9.15625 -76.6758 -9.83984 -78.4375 -9.83984 curveto
 -81.957 -9.83984 -84.4141 -7.14844 -84.4141 -3.21484 curveto
 -84.4141 0.429688 -82.332 2.73047 -79.0664 2.73047 curveto
 -77.8086 2.73047 -77.2148 2.53125 -75.418 1.45312 curveto
 -76.1914 5.74609 -79.3711 8.81647 -83.8398 9.55078 curveto
 -83.7852 10.0195 lineto
 closepath
 -77.9688 1.41797 moveto
 -80.4297 1.41797 -81.8477 -0.628906 -81.8477 -4.18359 curveto
 -81.8477 -7.30853 -80.7344 -9.05078 -78.7422 -9.05078 curveto
 -76.2461 -9.05078 -74.7031 -6.375 -74.7031 -1.95703 curveto
 -74.7031 -0.503906 -74.9336 0.289062 -75.5078 0.71875 curveto
 -76.1016 1.16797 -76.9805 1.41797 -77.9688 1.41797 curveto
 closepath
 -85.2969 -9.44531 moveto
eofill
restore %}
showpage
%%>>
%%Page: 1 1
% normal end reached by pstoedit.pro
%%Trailer
%%Pages: 1
%%EOF