StartFontMetrics 2.0
Comment Generated by FontForge 20051018
Comment Creation Date: Mon Oct 24 23:41:41 2005
FontName bbding
FullName bbding
FamilyName bbding
Weight Medium
Notice (Created by Rolf Niepraschk with FontForge 1.0 (http://fontforge.sf.net))
ItalicAngle 0
IsFixedPitch false
UnderlinePosition -100
UnderlineThickness 50
Version 001.000
EncodingScheme FontSpecific
FontBBox -23 -20 1120 1020
StartCharMetrics 124
C 0 ; WX 1100 ; N enc-0 ; B 0 141 1097 809 ;
C 1 ; WX 1100 ; N enc-1 ; B 0 191 1100 809 ;
C 2 ; WX 1100 ; N enc-2 ; B 0 191 1097 859 ;
C 3 ; WX 1100 ; N enc-3 ; B 3 141 1100 809 ;
C 4 ; WX 1100 ; N enc-4 ; B 0 191 1100 809 ;
C 5 ; WX 1100 ; N enc-5 ; B 3 191 1100 859 ;
C 6 ; WX 1100 ; N enc-6 ; B -20 31 1120 969 ;
C 7 ; WX 1100 ; N enc-7 ; B -20 32 1120 969 ;
C 8 ; WX 1000 ; N enc-8 ; B 50 100 951 839 ;
C 9 ; WX 1000 ; N enc-9 ; B 0 0 999 1000 ;
C 10 ; WX 1000 ; N enc-10 ; B 1 1 999 999 ;
C 11 ; WX 1000 ; N enc-11 ; B 0 0 1000 1001 ;
C 12 ; WX 750 ; N enc-12 ; B -20 230 770 770 ;
C 13 ; WX 1100 ; N enc-13 ; B 0 250 1100 786 ;
C 14 ; WX 1100 ; N enc-14 ; B 0 250 1100 786 ;
C 15 ; WX 1100 ; N enc-15 ; B 81 163 1039 922 ;
C 16 ; WX 1100 ; N enc-16 ; B 61 163 1019 923 ;
C 17 ; WX 1100 ; N enc-17 ; B 0 232 1120 769 ;
C 18 ; WX 1100 ; N enc-18 ; B -20 232 1100 770 ;
C 19 ; WX 1100 ; N enc-19 ; B 62 69 1070 1020 ;
C 20 ; WX 1100 ; N enc-20 ; B 30 69 1039 1019 ;
C 21 ; WX 500 ; N enc-21 ; B -21 -18 523 822 ;
C 22 ; WX 1060 ; N enc-22 ; B -7 118 1068 878 ;
C 23 ; WX 1100 ; N enc-23 ; B -20 230 1107 770 ;
C 24 ; WX 1100 ; N enc-24 ; B -7 230 1120 770 ;
C 25 ; WX 1100 ; N enc-25 ; B 19 117 1064 900 ;
C 26 ; WX 1100 ; N enc-26 ; B 36 116 1081 900 ;
C 27 ; WX 1100 ; N enc-27 ; B 19 115 1064 900 ;
C 28 ; WX 1100 ; N enc-28 ; B 36 115 1081 900 ;
C 29 ; WX 1100 ; N enc-29 ; B -19 177 1109 822 ;
C 30 ; WX 1100 ; N enc-30 ; B -9 177 1119 822 ;
C 31 ; WX 1100 ; N enc-31 ; B 0 150 1087 850 ;
C 32 ; WX 1100 ; N enc-32 ; B 13 150 1099 850 ;
C 33 ; WX 1000 ; N enc-33 ; B 72 8 950 985 ;
C 34 ; WX 1000 ; N enc-34 ; B 33 86 938 992 ;
C 35 ; WX 1000 ; N enc-35 ; B 4 4 996 996 ;
C 36 ; WX 1000 ; N enc-36 ; B 12 12 988 988 ;
C 37 ; WX 1000 ; N enc-37 ; B 53 25 997 980 ;
C 38 ; WX 1000 ; N enc-38 ; B 0 0 1000 1000 ;
C 39 ; WX 1000 ; N enc-39 ; B 0 0 1000 1000 ;
C 40 ; WX 1000 ; N enc-40 ; B 0 0 1000 1000 ;
C 41 ; WX 1000 ; N enc-41 ; B 0 0 1000 1000 ;
C 42 ; WX 660 ; N enc-42 ; B 0 0 662 1000 ;
C 43 ; WX 750 ; N enc-43 ; B 0 -2 752 1000 ;
C 44 ; WX 660 ; N enc-44 ; B 0 0 662 1000 ;
C 45 ; WX 660 ; N enc-45 ; B 0 0 662 1000 ;
C 46 ; WX 1000 ; N enc-46 ; B 100 100 900 900 ;
C 47 ; WX 1000 ; N enc-47 ; B 67 2 933 998 ;
C 48 ; WX 1000 ; N enc-48 ; B 47 -20 953 1020 ;
C 49 ; WX 1000 ; N enc-49 ; B 0 0 1000 1001 ;
C 50 ; WX 1000 ; N enc-50 ; B 19 19 981 981 ;
C 51 ; WX 1000 ; N enc-51 ; B -1 -1 1000 1001 ;
C 52 ; WX 1000 ; N enc-52 ; B 1 1 999 1000 ;
C 53 ; WX 1000 ; N enc-53 ; B 0 0 999 1001 ;
C 54 ; WX 1000 ; N enc-54 ; B 0 0 999 1001 ;
C 55 ; WX 1000 ; N enc-55 ; B 5 75 995 1020 ;
C 56 ; WX 1000 ; N enc-56 ; B 24 99 976 996 ;
C 57 ; WX 1000 ; N enc-57 ; B 24 99 976 996 ;
C 58 ; WX 1000 ; N enc-58 ; B 1 0 1000 999 ;
C 59 ; WX 1000 ; N enc-59 ; B 24 99 976 996 ;
C 60 ; WX 1000 ; N enc-60 ; B 24 99 976 996 ;
C 61 ; WX 1000 ; N enc-61 ; B 24 99 976 996 ;
C 62 ; WX 1000 ; N enc-62 ; B 24 99 976 996 ;
C 63 ; WX 1000 ; N enc-63 ; B 24 91 975 1000 ;
C 64 ; WX 1100 ; N enc-64 ; B 24 94 1074 1001 ;
C 65 ; WX 1000 ; N enc-65 ; B 19 0 984 1002 ;
C 66 ; WX 1000 ; N enc-66 ; B 31 0 968 1001 ;
C 67 ; WX 1000 ; N enc-67 ; B 58 0 942 1000 ;
C 68 ; WX 1000 ; N enc-68 ; B 58 0 942 1000 ;
C 69 ; WX 1000 ; N enc-69 ; B 13 13 987 987 ;
C 70 ; WX 1000 ; N enc-70 ; B -20 -20 1020 1020 ;
C 71 ; WX 1000 ; N enc-71 ; B 68 7 932 994 ;
C 72 ; WX 1000 ; N enc-72 ; B 7 7 993 992 ;
C 73 ; WX 1000 ; N enc-73 ; B 2 2 998 998 ;
C 74 ; WX 1000 ; N enc-74 ; B 5 5 995 995 ;
C 75 ; WX 1000 ; N enc-75 ; B 0 0 1000 1000 ;
C 76 ; WX 1000 ; N enc-76 ; B 58 0 942 1000 ;
C 77 ; WX 1000 ; N enc-77 ; B 58 0 942 1000 ;
C 78 ; WX 1000 ; N enc-78 ; B 56 0 944 1001 ;
C 79 ; WX 1000 ; N enc-79 ; B 65 0 935 1000 ;
C 80 ; WX 1000 ; N enc-80 ; B -14 3 1014 1000 ;
C 81 ; WX 1000 ; N enc-81 ; B 33 -12 967 1011 ;
C 82 ; WX 1000 ; N enc-82 ; B -23 -6 1025 1011 ;
C 83 ; WX 1000 ; N enc-83 ; B -1 -1 1001 1000 ;
C 84 ; WX 1000 ; N enc-84 ; B 0 0 1000 999 ;
C 85 ; WX 1000 ; N enc-85 ; B 65 0 935 1000 ;
C 86 ; WX 1000 ; N enc-86 ; B 25 25 975 976 ;
C 87 ; WX 1000 ; N enc-87 ; B 28 28 972 973 ;
C 88 ; WX 1000 ; N enc-88 ; B 48 0 952 1000 ;
C 89 ; WX 1000 ; N enc-89 ; B 0 0 1000 1000 ;
C 90 ; WX 1000 ; N enc-90 ; B 0 0 1000 1000 ;
C 91 ; WX 1000 ; N enc-91 ; B 64 0 935 1000 ;
C 92 ; WX 1000 ; N enc-92 ; B 0 0 1000 999 ;
C 93 ; WX 1000 ; N enc-93 ; B 2 2 998 999 ;
C 94 ; WX 1000 ; N enc-94 ; B 36 -6 964 1006 ;
C 95 ; WX 1000 ; N enc-95 ; B 21 19 979 981 ;
C 96 ; WX 1000 ; N enc-96 ; B 30 19 970 981 ;
C 97 ; WX 1000 ; N enc-97 ; B 0 0 1000 999 ;
C 98 ; WX 1000 ; N enc-98 ; B -7 180 1007 820 ;
C 99 ; WX 1000 ; N enc-99 ; B 0 201 1000 799 ;
C 100 ; WX 1100 ; N enc-100 ; B 1 1 1100 1000 ;
C 101 ; WX 1100 ; N enc-101 ; B 0 188 1100 811 ;
C 102 ; WX 1000 ; N enc-102 ; B 0 0 1000 1000 ;
C 103 ; WX 1000 ; N enc-103 ; B 0 0 1000 1000 ;
C 104 ; WX 1000 ; N enc-104 ; B 0 0 1000 1000 ;
C 105 ; WX 1000 ; N enc-105 ; B 0 0 1000 1000 ;
C 106 ; WX 1000 ; N enc-106 ; B 0 0 1000 1000 ;
C 107 ; WX 1000 ; N enc-107 ; B 0 0 1000 1000 ;
C 108 ; WX 1000 ; N enc-108 ; B 0 0 1000 1000 ;
C 109 ; WX 1000 ; N enc-109 ; B 0 0 1000 1000 ;
C 110 ; WX 1100 ; N enc-110 ; B 0 0 1100 998 ;
C 111 ; WX 1100 ; N enc-111 ; B -1 2 1101 1000 ;
C 112 ; WX 1000 ; N enc-112 ; B 0 0 1002 1000 ;
C 113 ; WX 1000 ; N enc-113 ; B 0 0 1002 1000 ;
C 114 ; WX 500 ; N enc-114 ; B 0 0 500 1000 ;
C 115 ; WX 500 ; N enc-115 ; B 0 0 500 1000 ;
C 116 ; WX 125 ; N enc-116 ; B 0 0 125 1000 ;
C 117 ; WX 250 ; N enc-117 ; B 0 0 250 1000 ;
C 118 ; WX 500 ; N enc-118 ; B 0 0 500 1000 ;
C 119 ; WX 1100 ; N enc-119 ; B 0 99 1056 901 ;
C 120 ; WX 1100 ; N enc-120 ; B -1 78 1098 838 ;
C 121 ; WX 1100 ; N enc-121 ; B -1 161 1097 922 ;
C 122 ; WX 500 ; N enc-122 ; B 0 1 500 996 ;
C 123 ; WX 1000 ; N enc-123 ; B -1 1 1000 1000 ;
EndCharMetrics
EndFontMetrics
