%!PS-Adobe-3.0 EPSF-3.0
%%BoundingBox: 11 3 38 48 
%%HiResBoundingBox: 10.9175 1.60919 38.5825 47.8791 
%%Creator: MetaPost 2.00
%%CreationDate: 2019.05.12:0351
%%Pages: 1
%%DocumentFonts: Helvetica
%%BeginProlog
 /phvr /Helvetica def
/fshow {exch findfont exch scalefont setfont show}bind def
%%EndProlog
%%Page: 1 1
 1 1 1 setrgbcolor
newpath 28.625 38.1875 moveto
28.78911 38.6367 28.875 39.1211 28.875 39.60161 curveto
28.875 41.8789 27.0273 43.72661 24.75 43.72661 curveto
22.4727 43.72661 20.625 41.8789 20.625 39.60161 curveto
20.625 39.1211 20.71089 38.6367 20.875 38.1875 curveto
 closepath fill
newpath 28.875 39.60161 moveto
33 39.60161 lineto
28.875 38.77339 lineto
28.875 40.4258 lineto
33 39.60161 lineto
 closepath fill
 0 0 0 setrgbcolor 0 0.055 dtransform truncate idtransform setlinewidth pop [] 0 setdash 0 setlinecap
 0 setlinejoin 10 setmiterlimit
newpath 28.875 39.60161 moveto
33 39.60161 lineto
28.875 38.77339 lineto
28.875 40.4258 lineto
33 39.60161 lineto stroke
 1 1 1 setrgbcolor
newpath 27.668 42.5156 moveto
30.582 45.4336 lineto
28.25 41.9336 lineto
27.082 43.10161 lineto
30.582 45.4336 lineto
 closepath fill
 0 0 0 setrgbcolor
newpath 27.668 42.5156 moveto
30.582 45.4336 lineto
28.25 41.9336 lineto
27.082 43.10161 lineto
30.582 45.4336 lineto stroke
 1 1 1 setrgbcolor
newpath 24.75 43.72661 moveto
24.75 47.85161 lineto
25.5742 43.72661 lineto
23.9258 43.72661 lineto
24.75 47.85161 lineto
 closepath fill
 0 0 0 setrgbcolor
newpath 24.75 43.72661 moveto
24.75 47.85161 lineto
25.5742 43.72661 lineto
23.9258 43.72661 lineto
24.75 47.85161 lineto stroke
 1 1 1 setrgbcolor
newpath 21.832 42.5156 moveto
18.918 45.4336 lineto
22.418 43.10161 lineto
21.25 41.9336 lineto
18.918 45.4336 lineto
 closepath fill
 0 0 0 setrgbcolor
newpath 21.832 42.5156 moveto
18.918 45.4336 lineto
22.418 43.10161 lineto
21.25 41.9336 lineto
18.918 45.4336 lineto stroke
 1 1 1 setrgbcolor
newpath 20.625 39.60161 moveto
16.5 39.60161 lineto
20.625 40.4258 lineto
20.625 38.77339 lineto
16.5 39.60161 lineto
 closepath fill
 0 0 0 setrgbcolor
newpath 20.625 39.60161 moveto
16.5 39.60161 lineto
20.625 40.4258 lineto
20.625 38.77339 lineto
16.5 39.60161 lineto stroke
 1 1 1 setrgbcolor
newpath 32.3711 42.7578 moveto
30.46089 40.1797 30.2617 44.2617 28.2461 41.9414 curveto
28.875 40.418 lineto
29.4102 42.7227 32.3633 39.1837 32.3711 42.7578 curveto
 closepath fill
 0 0 0 setrgbcolor
newpath 32.3711 42.7578 moveto
30.46089 40.1797 30.2617 44.2617 28.2461 41.9414 curveto
28.875 40.418 lineto
29.4102 42.7227 32.3633 39.1837 32.3711 42.7578 curveto stroke
 1 1 1 setrgbcolor
newpath 27.9062 47.2227 moveto
28.3789 44.0508 25.3477 46.793 25.5664 43.7265 curveto
27.0898 43.0937 lineto
25.8398 45.1015 30.4297 44.6875 27.9062 47.2227 curveto
 closepath fill
 0 0 0 setrgbcolor
newpath 27.9062 47.2227 moveto
28.3789 44.0508 25.3477 46.793 25.5664 43.7265 curveto
27.0898 43.0937 lineto
25.8398 45.1015 30.4297 44.6875 27.9062 47.2227 curveto stroke
 1 1 1 setrgbcolor
newpath 21.5938 47.2227 moveto
24.168 45.3125 20.086 45.1094 22.4102 43.0937 curveto
23.9336 43.7265 lineto
21.6289 44.2617 25.168 47.2148 21.5938 47.2227 curveto
 closepath fill
 0 0 0 setrgbcolor
newpath 21.5938 47.2227 moveto
24.168 45.3125 20.086 45.1094 22.4102 43.0937 curveto
23.9336 43.7265 lineto
21.6289 44.2617 25.168 47.2148 21.5938 47.2227 curveto stroke
 1 1 1 setrgbcolor
newpath 17.1289 42.7578 moveto
20.3008 43.2305 17.5547 40.1992 20.625 40.418 curveto
21.2539 41.9414 lineto
19.2461 40.6875 19.6602 45.2813 17.1289 42.7578 curveto
 closepath fill
 0 0 0 setrgbcolor
newpath 17.1289 42.7578 moveto
20.3008 43.2305 17.5547 40.1992 20.625 40.418 curveto
21.2539 41.9414 lineto
19.2461 40.6875 19.6602 45.2813 17.1289 42.7578 curveto stroke
newpath 28.625 38.1875 moveto
28.78911 38.6367 28.875 39.1211 28.875 39.60161 curveto
28.875 41.8789 27.0273 43.72661 24.75 43.72661 curveto
22.4727 43.72661 20.625 41.8789 20.625 39.60161 curveto
20.625 39.1211 20.71089 38.6367 20.875 38.1875 curveto stroke
 1 1 1 setrgbcolor
newpath 11 38.5 moveto
24.75 38.5 lineto
24.75 5.5 lineto
24.75 5.5 lineto
17.1563 5.5 11 11.6563 11 19.25 curveto
 closepath fill
newpath 24.75 38.5 moveto
38.5 38.5 lineto
38.5 19.25 lineto
38.5 19.25 lineto
38.5 11.6563 32.3438 5.5 24.75 5.5 curveto
 closepath fill
 0 0 0 setrgbcolor 0 0.165 dtransform truncate idtransform setlinewidth pop
newpath 11 38.5 moveto
24.75 38.5 lineto
24.75 5.5 lineto
24.75 5.5 lineto
17.1563 5.5 11 11.6563 11 19.25 curveto
 closepath stroke
newpath 24.75 38.5 moveto
38.5 38.5 lineto
38.5 19.25 lineto
38.5 19.25 lineto
38.5 11.6563 32.3438 5.5 24.75 5.5 curveto
 closepath stroke
 1 1 1 setrgbcolor
newpath 29.6992 20.89839 moveto
29.6992 34.64839 lineto
29.6992 34.64839 lineto
29.6992 35.10161 30.0703 35.47661 30.52339 35.47661 curveto
30.97661 35.47661 31.35161 35.10161 31.35161 34.64839 curveto
31.35161 20.89839 lineto
 closepath fill
 0 0 0 setrgbcolor
newpath 29.6992 20.89839 moveto
29.6992 34.64839 lineto
29.6992 34.64839 lineto
29.6992 35.10161 30.0703 35.47661 30.52339 35.47661 curveto
30.97661 35.47661 31.35161 35.10161 31.35161 34.64839 curveto
31.35161 20.89839 lineto stroke
 1 1 1 setrgbcolor
newpath 31.35161 31.89839 moveto
31.89839 31.89839 lineto
31.89839 34.10161 lineto
32.4492 34.10161 lineto
33 33.5508 lineto
33.8242 33.5508 lineto
34.375 34.10161 lineto
35.1992 34.10161 lineto
35.1992 32.4492 lineto
34.64839 32.4492 lineto
33.8242 32.4492 lineto
33 32.4492 lineto
33 30.8008 lineto
32.1758 30.8008 lineto
32.1758 30.25 lineto
33 30.25 lineto
33 28.60161 lineto
33.8242 28.60161 lineto
33.8242 30.25 lineto
34.64839 30.25 lineto
34.64839 30.8008 lineto
33.8242 30.8008 lineto
33.8242 32.4492 lineto
34.64839 32.4492 lineto
34.64839 31.89839 lineto
35.1992 31.89839 lineto
35.1992 29.14839 lineto
34.64839 29.14839 lineto
34.64839 28.60161 lineto
35.1992 28.60161 lineto
35.1992 26.9492 lineto
34.375 26.9492 lineto
33.8242 27.5 lineto
33 27.5 lineto
32.4492 26.9492 lineto
31.89839 26.9492 lineto
31.89839 29.14839 lineto
31.35161 29.14839 lineto
 closepath fill
 0 0 0 setrgbcolor
newpath 33.8242 32.4492 moveto
33 32.4492 lineto
33 30.8008 lineto
32.1758 30.8008 lineto
32.1758 30.25 lineto
33 30.25 lineto
33 28.60161 lineto
33.8242 28.60161 lineto
33.8242 30.25 lineto
34.64839 30.25 lineto
34.64839 30.8008 lineto
33.8242 30.8008 lineto
33.8242 32.4492 lineto stroke
newpath 31.35161 31.89839 moveto
31.89839 31.89839 lineto
31.89839 34.10161 lineto
32.4492 34.10161 lineto
33 33.5508 lineto
33.8242 33.5508 lineto
34.375 34.10161 lineto
35.1992 34.10161 lineto
35.1992 32.4492 lineto
34.64839 32.4492 lineto
34.64839 31.89839 lineto
35.1992 31.89839 lineto
35.1992 29.14839 lineto
34.64839 29.14839 lineto
34.64839 28.60161 lineto
35.1992 28.60161 lineto
35.1992 26.9492 lineto
34.375 26.9492 lineto
33.8242 27.5 lineto
33 27.5 lineto
32.4492 26.9492 lineto
31.89839 26.9492 lineto
31.89839 29.14839 lineto
31.35161 29.14839 lineto stroke
 1 1 1 setrgbcolor
newpath 26.39839 16.77339 moveto
26.39839 16.77339 lineto
28.6758 16.77339 30.52339 18.6211 30.52339 20.89839 curveto
30.52339 20.89839 lineto
30.52339 18.6211 32.3711 16.77339 34.64839 16.77339 curveto
34.64839 16.77339 lineto
32.3711 16.77339 30.52339 14.9258 30.52339 12.6484 curveto
30.52339 12.6484 lineto
30.52339 14.9258 28.6758 16.77339 26.39839 16.77339 curveto
26.39839 16.77339 lineto
26.39839 15.6758 lineto
28.0664 15.6758 29.4258 14.3164 29.4258 12.6484 curveto
31.625 12.6484 lineto
31.625 14.3164 32.9805 15.6758 34.64839 15.6758 curveto
34.64839 17.875 lineto
32.9805 17.875 31.625 19.2305 31.625 20.89839 curveto
29.4258 20.89839 lineto
29.4258 19.2305 28.0664 17.875 26.39839 17.875 curveto
26.39839 15.6758 lineto
 closepath fill
newpath 29.14839 20.89839 moveto
31.89839 20.89839 lineto
31.89839 20.89839 lineto
32.1992 20.89839 32.4492 20.6523 32.4492 20.35161 curveto
32.4492 20.0508 32.1992 19.8008 31.89839 19.8008 curveto
29.14839 19.8008 lineto
29.14839 19.8008 lineto
28.8477 19.8008 28.60161 20.0508 28.60161 20.35161 curveto
28.60161 20.6523 28.8477 20.89839 29.14839 20.89839 curveto
 closepath fill
 0 0 0 setrgbcolor
newpath 29.14839 20.89839 moveto
31.89839 20.89839 lineto
31.89839 20.89839 lineto
32.1992 20.89839 32.4492 20.6523 32.4492 20.35161 curveto
32.4492 20.0508 32.1992 19.8008 31.89839 19.8008 curveto
29.14839 19.8008 lineto
29.14839 19.8008 lineto
28.8477 19.8008 28.60161 20.0508 28.60161 20.35161 curveto
28.60161 20.6523 28.8477 20.89839 29.14839 20.89839 curveto
 closepath stroke
 1 1 1 setrgbcolor
newpath 29.14839 13.75 moveto
31.89839 13.75 lineto
31.89839 13.75 lineto
32.1992 13.75 32.4492 13.5 32.4492 13.1992 curveto
32.4492 12.8984 32.1992 12.6484 31.89839 12.6484 curveto
29.14839 12.6484 lineto
29.14839 12.6484 lineto
28.8477 12.6484 28.60161 12.8984 28.60161 13.1992 curveto
28.60161 13.5 28.8477 13.75 29.14839 13.75 curveto
 closepath fill
 0 0 0 setrgbcolor
newpath 29.14839 13.75 moveto
31.89839 13.75 lineto
31.89839 13.75 lineto
32.1992 13.75 32.4492 13.5 32.4492 13.1992 curveto
32.4492 12.8984 32.1992 12.6484 31.89839 12.6484 curveto
29.14839 12.6484 lineto
29.14839 12.6484 lineto
28.8477 12.6484 28.60161 12.8984 28.60161 13.1992 curveto
28.60161 13.5 28.8477 13.75 29.14839 13.75 curveto
 closepath stroke
 1 1 1 setrgbcolor
newpath 29.4258 12.6484 moveto
29.4258 12.043 29.918 11.5508 30.52339 11.5508 curveto
31.1289 11.5508 31.625 12.043 31.625 12.6484 curveto
 closepath fill
 0 0 0 setrgbcolor
newpath 29.4258 12.6484 moveto
29.4258 12.043 29.918 11.5508 30.52339 11.5508 curveto
31.1289 11.5508 31.625 12.043 31.625 12.6484 curveto
 closepath stroke
 1 1 1 setrgbcolor
newpath 33.5508 18.4258 moveto
33.5508 15.125 lineto
33.5508 15.125 lineto
33.5508 14.8242 33.8008 14.5742 34.10161 14.5742 curveto
34.4023 14.5742 34.64839 14.8242 34.64839 15.125 curveto
34.64839 18.4258 lineto
34.64839 18.4258 lineto
34.64839 18.72661 34.4023 18.97661 34.10161 18.97661 curveto
33.8008 18.97661 33.5508 18.72661 33.5508 18.4258 curveto
 closepath fill
 0 0 0 setrgbcolor
newpath 33.5508 18.4258 moveto
33.5508 15.125 lineto
33.5508 15.125 lineto
33.5508 14.8242 33.8008 14.5742 34.10161 14.5742 curveto
34.4023 14.5742 34.64839 14.8242 34.64839 15.125 curveto
34.64839 18.4258 lineto
34.64839 18.4258 lineto
34.64839 18.72661 34.4023 18.97661 34.10161 18.97661 curveto
33.8008 18.97661 33.5508 18.72661 33.5508 18.4258 curveto
 closepath stroke
 1 1 1 setrgbcolor
newpath 34.64839 15.6758 moveto
35.2539 15.6758 35.75 16.168 35.75 16.77339 curveto
35.75 17.3789 35.2539 17.875 34.64839 17.875 curveto
 closepath fill
 0 0 0 setrgbcolor
newpath 34.64839 15.6758 moveto
35.2539 15.6758 35.75 16.168 35.75 16.77339 curveto
35.75 17.3789 35.2539 17.875 34.64839 17.875 curveto
 closepath stroke
 1 1 1 setrgbcolor
newpath 26.39839 18.4258 moveto
26.39839 15.125 lineto
26.39839 15.125 lineto
26.39839 14.8242 26.64839 14.5742 26.9492 14.5742 curveto
27.25 14.5742 27.5 14.8242 27.5 15.125 curveto
27.5 18.4258 lineto
27.5 18.4258 lineto
27.5 18.72661 27.25 18.97661 26.9492 18.97661 curveto
26.64839 18.97661 26.39839 18.72661 26.39839 18.4258 curveto
 closepath fill
 0 0 0 setrgbcolor
newpath 26.39839 18.4258 moveto
26.39839 15.125 lineto
26.39839 15.125 lineto
26.39839 14.8242 26.64839 14.5742 26.9492 14.5742 curveto
27.25 14.5742 27.5 14.8242 27.5 15.125 curveto
27.5 18.4258 lineto
27.5 18.4258 lineto
27.5 18.72661 27.25 18.97661 26.9492 18.97661 curveto
26.64839 18.97661 26.39839 18.72661 26.39839 18.4258 curveto
 closepath stroke
 1 1 1 setrgbcolor
newpath 26.39839 17.875 moveto
25.793 17.875 25.3008 17.3789 25.3008 16.77339 curveto
25.3008 16.168 25.793 15.6758 26.39839 15.6758 curveto
 closepath fill
 0 0 0 setrgbcolor
newpath 26.39839 17.875 moveto
25.793 17.875 25.3008 17.3789 25.3008 16.77339 curveto
25.3008 16.168 25.793 15.6758 26.39839 15.6758 curveto
 closepath stroke
newpath 30.375 13.7539 moveto
29.9883 15.1445 28.8945 16.2383 27.5039 16.625 curveto stroke
newpath 33.5469 16.625 moveto
32.1523 16.2383 31.0586 15.1445 30.6758 13.7539 curveto stroke
newpath 30.6758 19.7969 moveto
31.0586 18.4023 32.1523 17.3086 33.5469 16.9258 curveto stroke
newpath 27.5039 16.9258 moveto
28.8945 17.3086 29.9883 18.4023 30.375 19.7969 curveto stroke
newpath 29.2188 13.75 moveto
28.9102 14.5352 28.2852 15.1602 27.5 15.4688 curveto stroke
newpath 33.5508 15.4688 moveto
32.7617 15.1602 32.1367 14.5352 31.832 13.75 curveto stroke
newpath 31.832 19.8008 moveto
32.1367 19.0117 32.7617 18.3867 33.5508 18.082 curveto stroke
newpath 27.5 18.082 moveto
28.2852 18.3867 28.9102 19.0117 29.2188 19.8008 curveto stroke
newpath 24.75 30.8008 moveto
20.89839 34.10161 lineto
17.60161 34.10161 lineto
17.0508 33.5508 lineto
18.6992 33 18.6992 32.4492 17.60161 31.89839 curveto
18.14839 30.25 19.8008 30.8008 20.89839 30.25 curveto
20.89839 27.5 18.14839 25.3008 18.6992 28.0508 curveto
12.6484 35.1992 lineto
11 33 12.6484 32.4492 16.5 28.60161 curveto
11.5508 31.35161 lineto
11 29.6992 12.1016 29.14839 15.9492 27.5 curveto
11.5508 28.0508 lineto
12.1016 25.85161 12.6484 25.85161 15.3984 25.85161 curveto
11.5508 24.75 lineto
12.6484 23.10161 13.1992 23.64839 16.5 24.75 curveto
12.1016 21.4492 lineto
13.75 20.35161 14.3008 21.4492 17.0508 23.64839 curveto
14.8516 18.14839 lineto
16.5 18.14839 17.0508 19.25 18.6992 23.10161 curveto
18.6992 21.4492 lineto
19.25 22 19.8008 22.5508 19.8008 23.10161 curveto
21.4492 23.64839 22 22 18.6992 19.25 curveto
21.4492 17.0508 21.4492 16.5 22.5508 19.25 curveto
22.5508 17.0508 20.35161 14.8516 20.35161 14.3008 curveto
22 15.3984 lineto
19.8008 12.6484 20.35161 10.4492 21.4492 10.4492 curveto
20.35161 10.4492 22.5508 12.6484 23.10161 13.75 curveto
22.5508 11 lineto
23.10161 11 lineto
24.75 8.25 lineto
 closepath fill
newpath 24.75 30.8008 moveto
20.89839 34.10161 lineto
17.60161 34.10161 lineto
17.0508 33.5508 lineto
18.6992 33 18.6992 32.4492 17.60161 31.89839 curveto
18.14839 30.25 19.8008 30.8008 20.89839 30.25 curveto
20.89839 27.5 18.14839 25.3008 18.6992 28.0508 curveto
12.6484 35.1992 lineto
11 33 12.6484 32.4492 16.5 28.60161 curveto
11.5508 31.35161 lineto
11 29.6992 12.1016 29.14839 15.9492 27.5 curveto
11.5508 28.0508 lineto
12.1016 25.85161 12.6484 25.85161 15.3984 25.85161 curveto
11.5508 24.75 lineto
12.6484 23.10161 13.1992 23.64839 16.5 24.75 curveto
12.1016 21.4492 lineto
13.75 20.35161 14.3008 21.4492 17.0508 23.64839 curveto
14.8516 18.14839 lineto
16.5 18.14839 17.0508 19.25 18.6992 23.10161 curveto
18.6992 21.4492 lineto
19.25 22 19.8008 22.5508 19.8008 23.10161 curveto
21.4492 23.64839 22 22 18.6992 19.25 curveto
21.4492 17.0508 21.4492 16.5 22.5508 19.25 curveto
22.5508 17.0508 20.35161 14.8516 20.35161 14.3008 curveto
22 15.3984 lineto
19.8008 12.6484 20.35161 10.4492 21.4492 10.4492 curveto
20.35161 10.4492 22.5508 12.6484 23.10161 13.75 curveto
22.5508 11 lineto
23.10161 11 lineto
24.75 8.25 lineto stroke
 1 1 1 setrgbcolor
newpath 20.35161 18.6992 moveto
18.14839 16.5 lineto
17.60161 16.5 16.5 17.0508 15.3984 17.0508 curveto
15.3984 16.77339 15.9492 17.0508 17.0508 15.9492 curveto
14.8516 15.9492 14.8516 15.3984 14.5742 15.125 curveto
15.3984 15.3984 15.6758 15.3984 16.5 15.3984 curveto
15.3984 14.8516 14.8516 13.75 15.3984 13.75 curveto
15.9492 14.8516 17.60161 14.8516 18.14839 14.3008 curveto
18.6992 13.1992 17.0508 13.75 17.60161 13.1992 curveto
18.14839 12.6484 19.8008 14.8516 18.6992 15.9492 curveto
20.89839 18.14839 lineto
 closepath fill
 0 0 0 setrgbcolor
newpath 20.35161 18.6992 moveto
18.14839 16.5 lineto
17.60161 16.5 16.5 17.0508 15.3984 17.0508 curveto
15.3984 16.77339 15.9492 17.0508 17.0508 15.9492 curveto
14.8516 15.9492 14.8516 15.3984 14.5742 15.125 curveto
15.3984 15.3984 15.6758 15.3984 16.5 15.3984 curveto
15.3984 14.8516 14.8516 13.75 15.3984 13.75 curveto
15.9492 14.8516 17.60161 14.8516 18.14839 14.3008 curveto
18.6992 13.1992 17.0508 13.75 17.60161 13.1992 curveto
18.14839 12.6484 19.8008 14.8516 18.6992 15.9492 curveto
20.89839 18.14839 lineto stroke
 1 1 1 setrgbcolor
newpath 17.0508 33.5508 moveto
14.8516 33.5508 14.8516 33.5508 15.3984 32.4492 curveto
15.3984 32.72661 15.3984 32.72661 16.5 32.72661 curveto
17.60161 32.72661 17.60161 32.72661 17.60161 31.89839 curveto
16.5 31.89839 15.9492 31.35161 15.9492 31.89839 curveto
15.9492 31.0742 16.5 31.35161 18.14839 31.35161 curveto
19.25 32.1758 18.6992 33 17.0508 33.5508 curveto
 closepath fill
 0 0 0 setrgbcolor
newpath 17.0508 33.5508 moveto
14.8516 33.5508 14.8516 33.5508 15.3984 32.4492 curveto
15.3984 32.72661 15.3984 32.72661 16.5 32.72661 curveto
17.60161 32.72661 17.60161 32.72661 17.60161 31.89839 curveto
16.5 31.89839 15.9492 31.35161 15.9492 31.89839 curveto
15.9492 31.0742 16.5 31.35161 18.14839 31.35161 curveto
19.25 32.1758 18.6992 33 17.0508 33.5508 curveto stroke
 1 1 1 setrgbcolor
newpath 20.89839 34.10161 moveto
20.89839 34.64839 lineto
20.89839 34.64839 lineto
21.35161 34.64839 21.72661 35.02339 21.72661 35.47661 curveto
21.72661 35.9297 21.35161 36.3008 20.89839 36.3008 curveto
17.60161 36.3008 lineto
17.60161 36.3008 lineto
17.14839 36.3008 16.77339 35.9297 16.77339 35.47661 curveto
16.77339 35.02339 17.14839 34.64839 17.60161 34.64839 curveto
17.60161 34.10161 lineto
 closepath fill
 0 0 0 setrgbcolor
newpath 20.89839 34.10161 moveto
20.89839 34.64839 lineto
20.89839 34.64839 lineto
21.35161 34.64839 21.72661 35.02339 21.72661 35.47661 curveto
21.72661 35.9297 21.35161 36.3008 20.89839 36.3008 curveto
17.60161 36.3008 lineto
17.60161 36.3008 lineto
17.14839 36.3008 16.77339 35.9297 16.77339 35.47661 curveto
16.77339 35.02339 17.14839 34.64839 17.60161 34.64839 curveto
17.60161 34.10161 lineto
20.89839 34.10161 lineto stroke
newpath 20.89839 34.64839 moveto
17.60161 34.64839 lineto stroke
newpath 18.6992 35.47661 moveto
18.6992 35.47661 lineto
18.6992 35.7773 18.4492 36.02339 18.14839 36.02339 curveto
17.8477 36.02339 17.60161 35.7773 17.60161 35.47661 curveto
17.60161 35.1758 17.8477 34.9258 18.14839 34.9258 curveto
18.4492 34.9258 18.6992 35.1758 18.6992 35.47661 curveto stroke
newpath 20.89839 35.47661 moveto
20.89839 35.47661 lineto
20.89839 35.7773 20.6523 36.02339 20.35161 36.02339 curveto
20.0508 36.02339 19.8008 35.7773 19.8008 35.47661 curveto
19.8008 35.1758 20.0508 34.9258 20.35161 34.9258 curveto
20.6523 34.9258 20.89839 35.1758 20.89839 35.47661 curveto stroke
newpath 20.89839 35.1992 moveto
19.25 36.2461 lineto
19.39839 36.2461 19.52339 36.3711 19.52339 36.5195 curveto
19.52339 36.668 19.39839 36.7969 19.25 36.7969 curveto
19.10161 36.7969 18.97661 36.668 18.97661 36.5195 curveto
18.97661 36.3711 19.10161 36.2461 19.25 36.2461 curveto
 closepath fill
 1 1 1 setrgbcolor
newpath 19.8008 33.2188 moveto
19.8008 33.3242 19.625 33.41411 19.41411 33.41411 curveto
19.2031 33.41411 19.0313 33.3242 19.0313 33.2188 curveto
19.0313 33.1133 19.2031 33.0273 19.41411 33.0273 curveto
19.625 33.0273 19.8008 33.1133 19.8008 33.2188 curveto
 closepath fill
 0 0 0 setrgbcolor 0.44 0 dtransform exch truncate exch idtransform pop setlinewidth
newpath 22.5508 41.52339 moveto
22.5508 39.3242 lineto stroke
newpath 23.64839 41.52339 moveto
23.64839 39.3242 lineto stroke
 0 0.44 dtransform truncate idtransform setlinewidth pop
newpath 23.64839 40.4258 moveto
24.75 40.4258 lineto stroke
 0.44 0 dtransform exch truncate exch idtransform pop setlinewidth
newpath 24.75 41.52339 moveto
24.75 39.3242 lineto stroke
 0 0.44 dtransform truncate idtransform setlinewidth pop
newpath 26.9492 41.25 moveto
25.85161 41.25 lineto
26.125 40.4258 lineto
25.85161 39.60161 lineto
26.9492 39.60161 lineto stroke
newpath 23.10161 42.0742 moveto
24.1992 42.0742 lineto
24.1992 42.0742 lineto
24.1992 42.375 24.4492 42.625 24.75 42.625 curveto
25.0508 42.625 25.3008 42.375 25.3008 42.0742 curveto
26.39839 42.0742 lineto stroke
12.1 1.65002 moveto
(POST\040TENEBRAS\040LUX) phvr 2.47499 fshow
showpage
%%EOF
