%%
%% This is file `./config/APAturkish.txt',
%% generated with the docstrip utility.
%%
%% The original source files were:
%%
%% apa6.dtx  (with options: `turkish')
%% ----------------------------------------------------------------------
%% 
%% apa6 - A LaTeX class for formatting documents in compliance with the
%% American Psychological Association's Publication Manual, 6th edition
%% 
%% Copyright (C) 2011-2020 by Brian D. Beitzel <brian at beitzel.com>
%% 
%% This work may be distributed and/or modified under the
%% conditions of the LaTeX Project Public License (LPPL), either
%% version 1.3c of this license or (at your option) any later
%% version.  The latest version of this license is in the file:
%% 
%% http://www.latex-project.org/lppl.txt
%% 
%% Users may freely modify these files without permission, as long as the
%% copyright line and this statement are maintained intact.
%% 
%% This work is not endorsed by, affiliated with, or probably even known
%% by, the American Psychological Association.
%% 
%% ----------------------------------------------------------------------
%% 
\ProvidesFile{APAturkish.txt}[2016/05/26 v2.2 apa6 configuration for Turkish]

\renewcommand{\rheadname}{Kısa Başlık}% Running head
\renewcommand{\acksname}{Yazar Notu}% Author Note
\renewcommand{\keywordname}{Anahtar Kelimeler}% Keywords
\renewcommand{\notesname}{Dipnotlar}% Footnotes

%% 
%% Copyright (C) 2011-2020 by Brian D. Beitzel <brian at beitzel.com>
%% 
%% This work may be distributed and/or modified under the
%% conditions of the LaTeX Project Public License (LPPL), either
%% version 1.3c of this license or (at your option) any later
%% version.  The latest version of this license is in the file:
%% 
%% http://www.latex-project.org/lppl.txt
%% 
%% Users may freely modify these files without permission, as long as the
%% copyright line and this statement are maintained intact.
%% 
%% This work is not endorsed by, affiliated with, or probably even known
%% by, the American Psychological Association.
%% 
%% This work is "maintained" (as per LPPL maintenance status) by
%% Brian D. Beitzel.
%% 
%% This work consists of the file  apa6.dtx
%% and the derived files           apa6.ins,
%%                                 apa6.cls,
%%                                 apa6.pdf,
%%                                 README,
%%                                 APAamerican.txt,
%%                                 APAbritish.txt,
%%                                 APAdutch.txt,
%%                                 APAenglish.txt,
%%                                 APAgerman.txt,
%%                                 APAngerman.txt,
%%                                 APAgreek.txt,
%%                                 APAczech.txt,
%%                                 APAturkish.txt,
%%                                 APAendfloat.cfg,
%%                                 apa6.ptex,
%%                                 TeX2WordForapa6.bas,
%%                                 Figure1.pdf,
%%                                 shortsample.tex,
%%                                 longsample.tex, and
%%                                 bibliography.bib.
%% 
%%
%% End of file `./config/APAturkish.txt'.
