nicetext: minimal markup for documentation, text filtering ...
=================================================================
Release 0.67, 2015/11/21: `niceverb.sty' v0.62 fix:

    "new \qtdnverb" was disabled!

