StartFontMetrics 2.0
Comment Generated by FontForge 20190801
Comment Creation Date: Wed Oct  7 20:43:40 2020
FontName Plimsoll-Sans
FullName Plimsoll Sans
FamilyName Plimsoll
Weight Regular
Notice (Copyright (c) 2020, Palle Jorgensen)
ItalicAngle 0
IsFixedPitch true
UnderlinePosition -100
UnderlineThickness 50
Version 001.000
EncodingScheme FontSpecific
FontBBox 66 64 692 528
StartCharMetrics 1
C 1 ; WX 757 ; N CIRCLE_WITH_HORIZONTAL_BAR ; B 66 64 692 528 ;
EndCharMetrics
EndFontMetrics
