[ 313 307 310 ]
[ 313 311 316 ]
[ 313 310 311 ]
[ 325 324 284 ]
[ 325 326 324 ]
[ 326 321 324 ]
[ 321 326 320 ]
[ 329 320 326 ]
[ 329 330 320 ]
[ 329 331 330 ]
[ 330 316 311 ]
[ 330 331 316 ]
[ 359 367 361 ]
[ 361 367 368 ]
[ 359 373 367 ]
[ 367 373 371 ]
[ 371 373 372 ]
[ 372 374 371 ]
[ 374 372 375 ]
[ 372 377 375 ]
[ 375 377 376 ]
[ 368 387 361 ]
