ID,KW,Datum,Firma,FirmaAnrede,FirmaName,Str,PLZ,Ort,Stelle,Rueckmeldung,Sonstiges
2,13,26.09.15,Packisbar GmbH,Frau,Nauti,Traumstraße 19,59888,Traumort,Traumberuf,n,n
1,12,14.09.15,Packbar GmbH,Herr,Nubil,Traumstraße 4,59888,Traumort,Traumberuf,n,n
