%!PS-Adobe-3.0 EPSF-3.0
%%BoundingBox: -40 -40 40 40 
%%CreationDate: 2014.09.15:0921
%%BeginProlog
/bd{bind def}bind def/fshow {exch findfont exch scalefont setfont show}bd
/fcp{findfont dup length dict begin{1 index/FID ne{def}{pop pop}ifelse}forall}bd
/fmc{FontMatrix dup length array copy dup dup}bd/fmd{/FontMatrix exch def}bd
/Amul{4 -1 roll exch mul 1000 div}bd/ExtendFont{fmc 0 get Amul 0 exch put fmd}bd
/ScaleFont{dup fmc 0 get Amul 0 exch put dup dup 3 get Amul 3 exch put fmd}bd
/SlantFont{fmc 2 get dup 0 eq{pop 1}if Amul FontMatrix 0 get mul 2 exch put fmd}bd
%%EndProlog
 1 0 0 setrgbcolor
newpath 40 0 moveto
40 10.60913 35.78491 20.78247 28.28369 28.28369 curveto
20.78247 35.78491 10.60913 40 0 40 curveto
-10.60913 40 -20.78247 35.78491 -28.28369 28.28369 curveto
-35.78491 20.78247 -40 10.60913 -40 0 curveto
-40 -10.60913 -35.78491 -20.78247 -28.28369 -28.28369 curveto
-20.78247 -35.78491 -10.60913 -40 0 -40 curveto
10.60913 -40 20.78247 -35.78491 28.28369 -28.28369 curveto
35.78491 -20.78247 40 -10.60913 40 0 curveto closepath fill
%%EOF
