%Filename: msam7.mtx

%This file contains the information of msam7.pl in a form
%more easily read by TeX. It is used by the fontinst package.

\relax
\metrics

\needsfontinstversion{1.914}

\setrawglyph{lessequal}{msam7}{7.0pt}{54}{892}{688}{189}{0}
\setrawglyph{greaterequal}{msam7}{7.0pt}{62}{892}{688}{189}{0}

\endmetrics
